DATE_tests/comparator_3bit/6_testbench_generator/comparator_3bit_A_eq_1.vcd
$date
	Thu Aug 28 10:41:01 2025
$end
$version
	ModelSim Version 2019.4
$end
$timescale
	1ns
$end

$scope module test $end
$var reg 1 ! clk $end
$var reg 3 " A [2:0] $end
$var reg 3 # B [2:0] $end
$var reg 1 $ A_greater $end
$var reg 1 % A_equal $end
$var reg 1 & A_less $end

$scope module dut $end
$var wire 1 ' clk $end
$var wire 1 ( A [2] $end
$var wire 1 ) A [1] $end
$var wire 1 * A [0] $end
$var wire 1 + B [2] $end
$var wire 1 , B [1] $end
$var wire 1 - B [0] $end
$var wire 1 . A_greater $end
$var wire 1 / A_equal $end
$var wire 1 0 A_less $end
$upscope $end
$upscope $end
$enddefinitions $end
#0
$dumpvars
0!
b0 "
b0 #
0$
1%
0&
0-
0,
0+
0*
0)
0(
0'
0.
1/
00
$end
#5
1!
1'
#10
b101 "
b101 #
0!
1-
1+
1*
1(
0'
#15
1!
1'
#20
0!
0'
#25
1!
1'
#30
b0 "
b0 #
0!
0-
0+
0*
0(
0'
#35
1!
1'
#40
b10 "
b10 #
0!
1,
1)
0'
#45
1!
1'
#50
b110 "
b110 #
0!
1+
1(
0'
#55
1!
1'
#60
b1 "
b1 #
0!
1-
0,
0+
1*
0)
0(
0'
#65
1!
1'
#70
b111 "
b111 #
0!
1,
1+
1)
1(
0'
#75
1!
1'
#80
b11 "
b11 #
0!
0+
0(
0'
#85
1!
1'
#90
b110 "
b110 #
0!
0-
1+
0*
1(
0'
#95
1!
1'
#100
0!
0'
#105
1!
1'
#110
b101 "
b101 #
0!
1-
0,
1*
0)
0'
#115
1!
1'
#120
b1 "
b1 #
0!
0+
0(
0'
#125
1!
1'
#130
b11 "
b11 #
0!
1,
1)
0'
#135
1!
1'
#140
b1 "
b1 #
0!
0,
0)
0'
#145
1!
1'
#150
b110 "
b110 #
0!
0-
1,
1+
0*
1)
1(
0'
#155
1!
1'
#160
b10 "
b10 #
0!
0+
0(
0'
#165
1!
1'
#170
b100 "
b100 #
0!
0,
1+
0)
1(
0'
#175
1!
1'
#180
b11 "
b11 #
0!
1-
1,
0+
1*
1)
0(
0'
#185
1!
1'
#190
b101 "
b101 #
0!
0,
1+
0)
1(
0'
#195
1!
1'
#200
b1 "
b1 #
0!
0+
0(
0'
#205
1!
1'
#210
b0 "
b0 #
0!
0-
0*
0'
#215
1!
1'
#220
b10 "
b10 #
0!
1,
1)
0'
#225
1!
1'
#230
b0 "
b0 #
0!
0,
0)
0'
#235
1!
1'
#240
b101 "
b101 #
0!
1-
1+
1*
1(
0'
#245
1!
1'
#250
b11 "
b11 #
0!
1,
0+
1)
0(
0'
#255
1!
1'
#260
b10 "
b10 #
0!
0-
0*
0'
#265
1!
1'
#270
b100 "
b100 #
0!
0,
1+
0)
1(
0'
#275
1!
1'
#280
b11 "
b11 #
0!
1-
1,
0+
1*
1)
0(
0'
#285
1!
1'
#290
b10 "
b10 #
0!
0-
0*
0'
#295
1!
1'
#300
b11 "
b11 #
0!
1-
1*
0'
#305
1!
1'
#310
b0 "
b0 #
0!
0-
0,
0*
0)
0'
#315
1!
1'
#320
b101 "
b101 #
0!
1-
1+
1*
1(
0'
#325
1!
1'
#330
0!
0'
#335
1!
1'
#340
b100 "
b100 #
0!
0-
0*
0'
#345
1!
1'
#350
b11 "
b11 #
0!
1-
1,
0+
1*
1)
0(
0'
#355
1!
1'
#360
b100 "
b100 #
0!
0-
0,
1+
0*
0)
1(
0'
#365
1!
1'
#370
b10 "
b10 #
0!
1,
0+
1)
0(
0'
#375
1!
1'
#380
b101 "
b101 #
0!
1-
0,
1+
1*
0)
1(
0'
#385
1!
1'
#390
b11 "
b11 #
0!
1,
0+
1)
0(
0'
#395
1!
1'
#400
b111 "
b111 #
0!
1+
1(
0'
#405
1!
1'
#410
b11 "
b11 #
0!
0+
0(
0'
#415
1!
1'
#420
b100 "
b100 #
0!
0-
0,
1+
0*
0)
1(
0'
#425
1!
1'
#430
b0 "
b0 #
0!
0+
0(
0'
#435
1!
1'
#440
b101 "
b101 #
0!
1-
1+
1*
1(
0'
#445
1!
1'
#450
b11 "
b11 #
0!
1,
0+
1)
0(
0'
#455
1!
1'
#460
b0 "
b0 #
0!
0-
0,
0*
0)
0'
#465
1!
1'
#470
b101 "
b101 #
0!
1-
1+
1*
1(
0'
#475
1!
1'
#480
b10 "
b10 #
0!
0-
1,
0+
0*
1)
0(
0'
#485
1!
1'
#490
b0 "
b0 #
0!
0,
0)
0'
#495
1!
1'
#500
b10 "
b10 #
0!
1,
1)
0'
#505
1!
1'
#510
b101 "
b101 #
0!
1-
0,
1+
1*
0)
1(
0'
#515
1!
1'
#520
b100 "
b100 #
0!
0-
0*
0'
#525
1!
1'
#530
b11 "
b11 #
0!
1-
1,
0+
1*
1)
0(
0'
#535
1!
1'
#540
b10 "
b10 #
0!
0-
0*
0'
#545
1!
1'
#550
b0 "
b0 #
0!
0,
0)
0'
#555
1!
1'
#560
b111 "
b111 #
0!
1-
1,
1+
1*
1)
1(
0'
#565
1!
1'
#570
b101 "
b101 #
0!
0,
0)
0'
#575
1!
1'
#580
b1 "
b1 #
0!
0+
0(
0'
#585
1!
1'
#590
b0 "
b0 #
0!
0-
0*
0'
#595
1!
1'
#600
0!
0'
#605
1!
1'
#610
b1 "
b1 #
0!
1-
1*
0'
#615
1!
1'
#620
0!
0'
#625
1!
1'
#630
b100 "
b100 #
0!
0-
1+
0*
1(
0'
#635
1!
1'
#640
b101 "
b101 #
0!
1-
1*
0'
#645
1!
1'
#650
b1 "
b1 #
0!
0+
0(
0'
#655
1!
1'
#660
b11 "
b11 #
0!
1,
1)
0'
#665
1!
1'
#670
b110 "
b110 #
0!
0-
1+
0*
1(
0'
#675
1!
1'
#680
b100 "
b100 #
0!
0,
0)
0'
#685
1!
1'
#690
b110 "
b110 #
0!
1,
1)
0'
#695
1!
1'
#700
b101 "
b101 #
0!
1-
0,
1*
0)
0'
#705
1!
1'
#710
b11 "
b11 #
0!
1,
0+
1)
0(
0'
#715
1!
1'
#720
0!
0'
#725
1!
1'
#730
b100 "
b100 #
0!
0-
0,
1+
0*
0)
1(
0'
#735
1!
1'
#740
b111 "
b111 #
0!
1-
1,
1*
1)
0'
#745
1!
1'
#750
b10 "
b10 #
0!
0-
0+
0*
0(
0'
#755
1!
1'
#760
b0 "
b0 #
0!
0,
0)
0'
#765
1!
1'
#770
b11 "
b11 #
0!
1-
1,
1*
1)
0'
#775
1!
1'
#780
b101 "
b101 #
0!
0,
1+
0)
1(
0'
#785
1!
1'
#790
b0 "
b0 #
0!
0-
0+
0*
0(
0'
#795
1!
1'
#800
b101 "
b101 #
0!
1-
1+
1*
1(
0'
#805
1!
1'
#810
b100 "
b100 #
0!
0-
0*
0'
#815
1!
1'
#820
b10 "
b10 #
0!
1,
0+
1)
0(
0'
#825
1!
1'
#830
b101 "
b101 #
0!
1-
0,
1+
1*
0)
1(
0'
#835
1!
1'
#840
b110 "
b110 #
0!
0-
1,
0*
1)
0'
#845
1!
1'
#850
b11 "
b11 #
0!
1-
0+
1*
0(
0'
#855
1!
1'
#860
b111 "
b111 #
0!
1+
1(
0'
#865
1!
1'
#870
b101 "
b101 #
0!
0,
0)
0'
#875
1!
1'
#880
0!
0'
#885
1!
1'
#890
b111 "
b111 #
0!
1,
1)
0'
#895
1!
1'
#900
b100 "
b100 #
0!
0-
0,
0*
0)
0'
#905
1!
1'
#910
0!
0'
#915
1!
1'
#920
b110 "
b110 #
0!
1,
1)
0'
#925
1!
1'
#930
b1 "
b1 #
0!
1-
0,
0+
1*
0)
0(
0'
#935
1!
1'
#940
0!
0'
#945
1!
1'
#950
b100 "
b100 #
0!
0-
1+
0*
1(
0'
#955
1!
1'
#960
b10 "
b10 #
0!
1,
0+
1)
0(
0'
#965
1!
1'
#970
b100 "
b100 #
0!
0,
1+
0)
1(
0'
#975
1!
1'
#980
b111 "
b111 #
0!
1-
1,
1*
1)
0'
#985
1!
1'
#990
b110 "
b110 #
0!
0-
0*
0'
#995
1!
1'
#1000
b100 "
b100 #
0!
0,
0)
0'
#1005
1!
1'
#1010
b1 "
b1 #
0!
1-
0+
1*
0(
0'
#1015
1!
1'
#1020
0!
0'
#1025
1!
1'
#1030
b10 "
b10 #
0!
0-
1,
0*
1)
0'
#1035
1!
1'
#1040
b100 "
b100 #
0!
0,
1+
0)
1(
0'
#1045
1!
1'
#1050
0!
0'
#1055
1!
1'
#1060
b111 "
b111 #
0!
1-
1,
1*
1)
0'
#1065
1!
1'
#1070
b100 "
b100 #
0!
0-
0,
0*
0)
0'
#1075
1!
1'
#1080
b1 "
b1 #
0!
1-
0+
1*
0(
0'
#1085
1!
1'
#1090
0!
0'
#1095
1!
1'
#1100
b10 "
b10 #
0!
0-
1,
0*
1)
0'
#1105
1!
1'
#1110
b110 "
b110 #
0!
1+
1(
0'
#1115
1!
1'
#1120
b11 "
b11 #
0!
1-
0+
1*
0(
0'
#1125
1!
1'
#1130
b10 "
b10 #
0!
0-
0*
0'
#1135
1!
1'
#1140
b0 "
b0 #
0!
0,
0)
0'
#1145
1!
1'
#1150
b101 "
b101 #
0!
1-
1+
1*
1(
0'
#1155
1!
1'
#1160
b0 "
b0 #
0!
0-
0+
0*
0(
0'
#1165
1!
1'
#1170
b100 "
b100 #
0!
1+
1(
0'
#1175
1!
1'
#1180
b111 "
b111 #
0!
1-
1,
1*
1)
0'
#1185
1!
1'
#1190
b0 "
b0 #
0!
0-
0,
0+
0*
0)
0(
0'
#1195
1!
1'
#1200
b11 "
b11 #
0!
1-
1,
1*
1)
0'
#1205
1!
1'
#1210
b110 "
b110 #
0!
0-
1+
0*
1(
0'
#1215
1!
1'
#1220
b101 "
b101 #
0!
1-
0,
1*
0)
0'
#1225
1!
1'
#1230
b11 "
b11 #
0!
1,
0+
1)
0(
0'
#1235
1!
1'
#1240
b100 "
b100 #
0!
0-
0,
1+
0*
0)
1(
0'
#1245
1!
1'
#1250
b10 "
b10 #
0!
1,
0+
1)
0(
0'
#1255
1!
1'
#1260
b11 "
b11 #
0!
1-
1*
0'
#1265
1!
1'
#1270
b0 "
b0 #
0!
0-
0,
0*
0)
0'
#1275
1!
1'
#1280
b110 "
b110 #
0!
1,
1+
1)
1(
0'
#1285
1!
1'
#1290
b101 "
b101 #
0!
1-
0,
1*
0)
0'
#1295
1!
1'
#1300
b11 "
b11 #
0!
1,
0+
1)
0(
0'
#1305
1!
1'
#1310
b10 "
b10 #
0!
0-
0*
0'
#1315
1!
1'
#1320
b11 "
b11 #
0!
1-
1*
0'
#1325
1!
1'
#1330
b0 "
b0 #
0!
0-
0,
0*
0)
0'
#1335
1!
1'
#1340
b10 "
b10 #
0!
1,
1)
0'
#1345
1!
1'
#1350
0!
0'
#1355
1!
1'
#1360
b111 "
b111 #
0!
1-
1+
1*
1(
0'
#1365
1!
1'
#1370
b101 "
b101 #
0!
0,
0)
0'
#1375
1!
1'
#1380
b1 "
b1 #
0!
0+
0(
0'
#1385
1!
1'
#1390
0!
0'
#1395
1!
1'
#1400
b101 "
b101 #
0!
1+
1(
0'
#1405
1!
1'
#1410
b11 "
b11 #
0!
1,
0+
1)
0(
0'
#1415
1!
1'
#1420
b100 "
b100 #
0!
0-
0,
1+
0*
0)
1(
0'
#1425
1!
1'
#1430
b10 "
b10 #
0!
1,
0+
1)
0(
0'
#1435
1!
1'
#1440
b1 "
b1 #
0!
1-
0,
1*
0)
0'
#1445
1!
1'
#1450
b110 "
b110 #
0!
0-
1,
1+
0*
1)
1(
0'
#1455
1!
1'
#1460
b101 "
b101 #
0!
1-
0,
1*
0)
0'
#1465
1!
1'
#1470
b11 "
b11 #
0!
1,
0+
1)
0(
0'
#1475
1!
1'
#1480
b1 "
b1 #
0!
0,
0)
0'
#1485
1!
1'
#1490
b11 "
b11 #
0!
1,
1)
0'
#1495
1!
1'
#1500
b10 "
b10 #
0!
0-
0*
0'
#1505
1!
1'
#1510
b11 "
b11 #
0!
1-
1*
0'
#1515
1!
1'
#1520
b1 "
b1 #
0!
0,
0)
0'
#1525
1!
1'
#1530
0!
0'
#1535
1!
1'
#1540
b11 "
b11 #
0!
1,
1)
0'
#1545
1!
1'
#1550
b101 "
b101 #
0!
0,
1+
0)
1(
0'
#1555
1!
1'
#1560
b111 "
b111 #
0!
1,
1)
0'
#1565
1!
1'
#1570
b100 "
b100 #
0!
0-
0,
0*
0)
0'
#1575
1!
1'
#1580
b10 "
b10 #
0!
1,
0+
1)
0(
0'
#1585
1!
1'
#1590
b11 "
b11 #
0!
1-
1*
0'
#1595
1!
1'
#1600
b100 "
b100 #
0!
0-
0,
1+
0*
0)
1(
0'
#1605
1!
1'
#1610
b0 "
b0 #
0!
0+
0(
0'
#1615
1!
1'
#1620
b1 "
b1 #
0!
1-
1*
0'
#1625
1!
1'
#1630
b10 "
b10 #
0!
0-
1,
0*
1)
0'
#1635
1!
1'
#1640
b11 "
b11 #
0!
1-
1*
0'
#1645
1!
1'
#1650
0!
0'
#1655
1!
1'
#1660
b111 "
b111 #
0!
1+
1(
0'
#1665
1!
1'
#1670
b10 "
b10 #
0!
0-
0+
0*
0(
0'
#1675
1!
1'
#1680
b111 "
b111 #
0!
1-
1+
1*
1(
0'
#1685
1!
1'
#1690
b1 "
b1 #
0!
0,
0+
0)
0(
0'
#1695
1!
1'
#1700
b110 "
b110 #
0!
0-
1,
1+
0*
1)
1(
0'
#1705
1!
1'
#1710
0!
0'
#1715
1!
1'
#1720
b101 "
b101 #
0!
1-
0,
1*
0)
0'
#1725
1!
1'
#1730
0!
0'
#1735
1!
1'
#1740
b110 "
b110 #
0!
0-
1,
0*
1)
0'
#1745
1!
1'
#1750
b100 "
b100 #
0!
0,
0)
0'
#1755
1!
1'
#1760
b11 "
b11 #
0!
1-
1,
0+
1*
1)
0(
0'
#1765
1!
1'
#1770
b10 "
b10 #
0!
0-
0*
0'
#1775
1!
1'
#1780
b100 "
b100 #
0!
0,
1+
0)
1(
0'
#1785
1!
1'
#1790
b111 "
b111 #
0!
1-
1,
1*
1)
0'
#1795
1!
1'
#1800
b1 "
b1 #
0!
0,
0+
0)
0(
0'
#1805
1!
1'
#1810
b110 "
b110 #
0!
0-
1,
1+
0*
1)
1(
0'
#1815
1!
1'
#1820
b0 "
b0 #
0!
0,
0+
0)
0(
0'
#1825
1!
1'
#1830
0!
0'
#1835
1!
1'
#1840
b11 "
b11 #
0!
1-
1,
1*
1)
0'
#1845
1!
1'
#1850
b110 "
b110 #
0!
0-
1+
0*
1(
0'
#1855
1!
1'
#1860
b1 "
b1 #
0!
1-
0,
0+
1*
0)
0(
0'
#1865
1!
1'
#1870
b100 "
b100 #
0!
0-
1+
0*
1(
0'
#1875
1!
1'
#1880
b110 "
b110 #
0!
1,
1)
0'
#1885
1!
1'
#1890
b111 "
b111 #
0!
1-
1*
0'
#1895
1!
1'
#1900
b101 "
b101 #
0!
0,
0)
0'
#1905
1!
1'
#1910
b111 "
b111 #
0!
1,
1)
0'
#1915
1!
1'
#1920
0!
0'
#1925
1!
1'
#1930
0!
0'
#1935
1!
1'
#1940
b100 "
b100 #
0!
0-
0,
0*
0)
0'
#1945
1!
1'
#1950
b11 "
b11 #
0!
1-
1,
0+
1*
1)
0(
0'
#1955
1!
1'
#1960
0!
0'
#1965
1!
1'
#1970
0!
0'
#1975
1!
1'
#1980
b111 "
b111 #
0!
1+
1(
0'
#1985
1!
1'
#1990
b11 "
b11 #
0!
0+
0(
0'
#1995
1!
1'
#2000
b10 "
b10 #
0!
0-
0*
0'
#2005
1!
1'
#2010
0!
0'
#2015
1!
1'
#2020
0!
0'
#2025
1!
1'
#2030
b101 "
b101 #
0!
1-
0,
1+
1*
0)
1(
0'
#2035
1!
1'
#2040
b10 "
b10 #
0!
0-
1,
0+
0*
1)
0(
0'
#2045
1!
1'
#2050
0!
0'
#2055
1!
1'
#2060
b0 "
b0 #
0!
0,
0)
0'
#2065
1!
1'
#2070
b111 "
b111 #
0!
1-
1,
1+
1*
1)
1(
0'
#2075
1!
1'
#2080
b11 "
b11 #
0!
0+
0(
0'
#2085
1!
1'
#2090
0!
0'
#2095
1!
1'
#2100
0!
0'
#2105
1!
1'
#2110
b101 "
b101 #
0!
0,
1+
0)
1(
0'
#2115
1!
1'
#2120
b11 "
b11 #
0!
1,
0+
1)
0(
0'
#2125
1!
1'
#2130
b0 "
b0 #
0!
0-
0,
0*
0)
0'
#2135
1!
1'
#2140
b101 "
b101 #
0!
1-
1+
1*
1(
0'
#2145
1!
1'
#2150
b0 "
b0 #
0!
0-
0+
0*
0(
0'
#2155
1!
1'
#2160
b11 "
b11 #
0!
1-
1,
1*
1)
0'
#2165
1!
1'
#2170
b10 "
b10 #
0!
0-
0*
0'
#2175
1!
1'
#2180
b110 "
b110 #
0!
1+
1(
0'
#2185
1!
1'
#2190
b111 "
b111 #
0!
1-
1*
0'
#2195
1!
1'
#2200
b110 "
b110 #
0!
0-
0*
0'
#2205
1!
1'
#2210
b0 "
b0 #
0!
0,
0+
0)
0(
0'
#2215
1!
1'
#2220
b111 "
b111 #
0!
1-
1,
1+
1*
1)
1(
0'
#2225
1!
1'
#2230
b101 "
b101 #
0!
0,
0)
0'
#2235
1!
1'
#2240
b11 "
b11 #
0!
1,
0+
1)
0(
0'
#2245
1!
1'
#2250
b100 "
b100 #
0!
0-
0,
1+
0*
0)
1(
0'
#2255
1!
1'
#2260
b101 "
b101 #
0!
1-
1*
0'
#2265
1!
1'
#2270
0!
0'
#2275
1!
1'
#2280
b100 "
b100 #
0!
0-
0*
0'
#2285
1!
1'
#2290
b101 "
b101 #
0!
1-
1*
0'
#2295
1!
1'
#2300
b100 "
b100 #
0!
0-
0*
0'
#2305
1!
1'
#2310
b11 "
b11 #
0!
1-
1,
0+
1*
1)
0(
0'
#2315
1!
1'
#2320
b101 "
b101 #
0!
0,
1+
0)
1(
0'
#2325
1!
1'
#2330
b10 "
b10 #
0!
0-
1,
0+
0*
1)
0(
0'
#2335
1!
1'
#2340
b101 "
b101 #
0!
1-
0,
1+
1*
0)
1(
0'
#2345
1!
1'
#2350
b111 "
b111 #
0!
1,
1)
0'
#2355
1!
1'
#2360
b11 "
b11 #
0!
0+
0(
0'
#2365
1!
1'
#2370
b0 "
b0 #
0!
0-
0,
0*
0)
0'
#2375
1!
1'
#2380
b11 "
b11 #
0!
1-
1,
1*
1)
0'
#2385
1!
1'
#2390
0!
0'
#2395
1!
1'
#2400
b111 "
b111 #
0!
1+
1(
0'
#2405
1!
1'
#2410
b101 "
b101 #
0!
0,
0)
0'
#2415
1!
1'
#2420
b110 "
b110 #
0!
0-
1,
0*
1)
0'
#2425
1!
1'
#2430
b100 "
b100 #
0!
0,
0)
0'
#2435
1!
1'
#2440
0!
0'
#2445
1!
1'
#2450
b11 "
b11 #
0!
1-
1,
0+
1*
1)
0(
0'
#2455
1!
1'
#2460
b100 "
b100 #
0!
0-
0,
1+
0*
0)
1(
0'
#2465
1!
1'
#2470
b101 "
b101 #
0!
1-
1*
0'
#2475
1!
1'
#2480
b11 "
b11 #
0!
1,
0+
1)
0(
0'
#2485
1!
1'
#2490
b110 "
b110 #
0!
0-
1+
0*
1(
0'
#2495
1!
1'
#2500
b1 "
b1 #
0!
1-
0,
0+
1*
0)
0(
0'
#2505
1!
1'
#2510
b100 "
b100 #
0!
0-
1+
0*
1(
0'
#2515
1!
1'
#2520
b101 "
b101 #
0!
1-
1*
0'
#2525
1!
1'
#2530
0!
0'
#2535
1!
1'
#2540
b10 "
b10 #
0!
0-
1,
0+
0*
1)
0(
0'
#2545
1!
1'
#2550
b110 "
b110 #
0!
1+
1(
0'
#2555
1!
1'
#2560
b111 "
b111 #
0!
1-
1*
0'
#2565
1!
1'
#2570
b110 "
b110 #
0!
0-
0*
0'
#2575
1!
1'
#2580
b11 "
b11 #
0!
1-
0+
1*
0(
0'
#2585
1!
1'
#2590
0!
0'
#2595
1!
1'
#2600
0!
0'
#2605
1!
1'
#2610
b101 "
b101 #
0!
0,
1+
0)
1(
0'
#2615
1!
1'
#2620
0!
0'
#2625
1!
1'
#2630
b110 "
b110 #
0!
0-
1,
0*
1)
0'
#2635
1!
1'
#2640
b101 "
b101 #
0!
1-
0,
1*
0)
0'
#2645
1!
1'
#2650
0!
0'
#2655
1!
1'
#2660
b100 "
b100 #
0!
0-
0*
0'
#2665
1!
1'
#2670
b101 "
b101 #
0!
1-
1*
0'
#2675
1!
1'
#2680
0!
0'
#2685
1!
1'
#2690
b110 "
b110 #
0!
0-
1,
0*
1)
0'
#2695
1!
1'
#2700
b100 "
b100 #
0!
0,
0)
0'
#2705
1!
1'
#2710
b110 "
b110 #
0!
1,
1)
0'
#2715
1!
1'
#2720
b100 "
b100 #
0!
0,
0)
0'
#2725
1!
1'
#2730
b0 "
b0 #
0!
0+
0(
0'
#2735
1!
1'
#2740
0!
0'
#2745
1!
1'
#2750
0!
0'
#2755
1!
1'
#2760
b100 "
b100 #
0!
1+
1(
0'
#2765
1!
1'
#2770
b1 "
b1 #
0!
1-
0+
1*
0(
0'
#2775
1!
1'
#2780
b11 "
b11 #
0!
1,
1)
0'
#2785
1!
1'
#2790
0!
0'
#2795
1!
1'
#2800
b10 "
b10 #
0!
0-
0*
0'
#2805
1!
1'
#2810
b101 "
b101 #
0!
1-
0,
1+
1*
0)
1(
0'
#2815
1!
1'
#2820
b11 "
b11 #
0!
1,
0+
1)
0(
0'
#2825
1!
1'
#2830
b110 "
b110 #
0!
0-
1+
0*
1(
0'
#2835
1!
1'
#2840
b11 "
b11 #
0!
1-
0+
1*
0(
0'
#2845
1!
1'
#2850
b111 "
b111 #
0!
1+
1(
0'
#2855
1!
1'
#2860
b101 "
b101 #
0!
0,
0)
0'
#2865
1!
1'
#2870
b100 "
b100 #
0!
0-
0*
0'
#2875
1!
1'
#2880
b101 "
b101 #
0!
1-
1*
0'
#2885
1!
1'
#2890
b10 "
b10 #
0!
0-
1,
0+
0*
1)
0(
0'
#2895
1!
1'
#2900
b110 "
b110 #
0!
1+
1(
0'
#2905
1!
1'
#2910
b100 "
b100 #
0!
0,
0)
0'
#2915
1!
1'
#2920
b110 "
b110 #
0!
1,
1)
0'
#2925
1!
1'
#2930
b111 "
b111 #
0!
1-
1*
0'
#2935
1!
1'
#2940
b10 "
b10 #
0!
0-
0+
0*
0(
0'
#2945
1!
1'
#2950
b110 "
b110 #
0!
1+
1(
0'
#2955
1!
1'
#2960
0!
0'
#2965
1!
1'
#2970
b10 "
b10 #
0!
0+
0(
0'
#2975
1!
1'
#2980
b11 "
b11 #
0!
1-
1*
0'
#2985
1!
1'
#2990
b0 "
b0 #
0!
0-
0,
0*
0)
0'
#2995
1!
1'
#3000
0!
0'
#3005
1!
1'
#3010
b11 "
b11 #
0!
1-
1,
1*
1)
0'
#3015
1!
1'
#3020
b100 "
b100 #
0!
0-
0,
1+
0*
0)
1(
0'
#3025
1!
1'
#3030
b110 "
b110 #
0!
1,
1)
0'
#3035
1!
1'
#3040
b0 "
b0 #
0!
0,
0+
0)
0(
0'
#3045
1!
1'
#3050
b110 "
b110 #
0!
1,
1+
1)
1(
0'
#3055
1!
1'
#3060
b111 "
b111 #
0!
1-
1*
0'
#3065
1!
1'
#3070
b100 "
b100 #
0!
0-
0,
0*
0)
0'
#3075
1!
1'
#3080
0!
0'
#3085
1!
1'
#3090
b1 "
b1 #
0!
1-
0+
1*
0(
0'
#3095
1!
1'
#3100
0!
0'
#3105
1!
1'
#3110
0!
0'
#3115
1!
1'
#3120
0!
0'
#3125
1!
1'
#3130
b10 "
b10 #
0!
0-
1,
0*
1)
0'
#3135
1!
1'
#3140
b111 "
b111 #
0!
1-
1+
1*
1(
0'
#3145
1!
1'
#3150
b1 "
b1 #
0!
0,
0+
0)
0(
0'
#3155
1!
1'
#3160
b101 "
b101 #
0!
1+
1(
0'
#3165
1!
1'
#3170
b110 "
b110 #
0!
0-
1,
0*
1)
0'
#3175
1!
1'
#3180
b101 "
b101 #
0!
1-
0,
1*
0)
0'
#3185
1!
1'
#3190
b111 "
b111 #
0!
1,
1)
0'
#3195
1!
1'
#3200
0!
0'
#3205
1!
1'
#3210
b1 "
b1 #
0!
0,
0+
0)
0(
0'
#3215
1!
1'
#3220
b110 "
b110 #
0!
0-
1,
1+
0*
1)
1(
0'
#3225
1!
1'
#3230
b1 "
b1 #
0!
1-
0,
0+
1*
0)
0(
0'
#3235
1!
1'
#3240
b0 "
b0 #
0!
0-
0*
0'
#3245
1!
1'
#3250
b100 "
b100 #
0!
1+
1(
0'
#3255
1!
1'
#3260
b110 "
b110 #
0!
1,
1)
0'
#3265
1!
1'
#3270
b0 "
b0 #
0!
0,
0+
0)
0(
0'
#3275
1!
1'
#3280
b111 "
b111 #
0!
1-
1,
1+
1*
1)
1(
0'
#3285
1!
1'
#3290
b101 "
b101 #
0!
0,
0)
0'
#3295
1!
1'
#3300
b110 "
b110 #
0!
0-
1,
0*
1)
0'
#3305
1!
1'
#3310
0!
0'
#3315
1!
1'
#3320
0!
0'
#3325
1!
1'
#3330
b101 "
b101 #
0!
1-
0,
1*
0)
0'
#3335
1!
1'
#3340
0!
0'
#3345
1!
1'
#3350
b0 "
b0 #
0!
0-
0+
0*
0(
0'
#3355
1!
1'
#3360
b111 "
b111 #
0!
1-
1,
1+
1*
1)
1(
0'
#3365
1!
1'
#3370
b11 "
b11 #
0!
0+
0(
0'
#3375
1!
1'
#3380
b10 "
b10 #
0!
0-
0*
0'
#3385
1!
1'
#3390
b100 "
b100 #
0!
0,
1+
0)
1(
0'
#3395
1!
1'
#3400
b1 "
b1 #
0!
1-
0+
1*
0(
0'
#3405
1!
1'
#3410
0!
0'
#3415
1!
1'
#3420
b111 "
b111 #
0!
1,
1+
1)
1(
0'
#3425
1!
1'
#3430
b101 "
b101 #
0!
0,
0)
0'
#3435
1!
1'
#3440
b100 "
b100 #
0!
0-
0*
0'
#3445
1!
1'
#3450
b10 "
b10 #
0!
1,
0+
1)
0(
0'
#3455
1!
1'
#3460
b111 "
b111 #
0!
1-
1+
1*
1(
0'
#3465
1!
1'
#3470
0!
0'
#3475
1!
1'
#3480
b110 "
b110 #
0!
0-
0*
0'
#3485
1!
1'
#3490
0!
0'
#3495
1!
1'
#3500
b11 "
b11 #
0!
1-
0+
1*
0(
0'
#3505
1!
1'
#3510
b110 "
b110 #
0!
0-
1+
0*
1(
0'
#3515
1!
1'
#3520
b101 "
b101 #
0!
1-
0,
1*
0)
0'
#3525
1!
1'
#3530
b1 "
b1 #
0!
0+
0(
0'
#3535
1!
1'
#3540
b111 "
b111 #
0!
1,
1+
1)
1(
0'
#3545
1!
1'
#3550
b11 "
b11 #
0!
0+
0(
0'
#3555
1!
1'
#3560
b110 "
b110 #
0!
0-
1+
0*
1(
0'
#3565
1!
1'
#3570
b11 "
b11 #
0!
1-
0+
1*
0(
0'
#3575
1!
1'
#3580
b100 "
b100 #
0!
0-
0,
1+
0*
0)
1(
0'
#3585
1!
1'
#3590
0!
0'
#3595
1!
1'
#3600
b1 "
b1 #
0!
1-
0+
1*
0(
0'
#3605
1!
1'
#3610
b111 "
b111 #
0!
1,
1+
1)
1(
0'
#3615
1!
1'
#3620
b11 "
b11 #
0!
0+
0(
0'
#3625
1!
1'
#3630
b10 "
b10 #
0!
0-
0*
0'
#3635
1!
1'
#3640
b11 "
b11 #
0!
1-
1*
0'
#3645
1!
1'
#3650
b0 "
b0 #
0!
0-
0,
0*
0)
0'
#3655
1!
1'
#3660
0!
0'
#3665
1!
1'
#3670
b110 "
b110 #
0!
1,
1+
1)
1(
0'
#3675
1!
1'
#3680
b11 "
b11 #
0!
1-
0+
1*
0(
0'
#3685
1!
1'
#3690
b111 "
b111 #
0!
1+
1(
0'
#3695
1!
1'
#3700
0!
0'
#3705
1!
1'
#3710
b1 "
b1 #
0!
0,
0+
0)
0(
0'
#3715
1!
1'
#3720
0!
0'
#3725
1!
1'
#3730
b101 "
b101 #
0!
1+
1(
0'
#3735
1!
1'
#3740
b0 "
b0 #
0!
0-
0+
0*
0(
0'
#3745
1!
1'
#3750
b10 "
b10 #
0!
1,
1)
0'
#3755
1!
1'
#3760
b11 "
b11 #
0!
1-
1*
0'
#3765
1!
1'
#3770
b110 "
b110 #
0!
0-
1+
0*
1(
0'
#3775
1!
1'
#3780
b10 "
b10 #
0!
0+
0(
0'
#3785
1!
1'
#3790
b100 "
b100 #
0!
0,
1+
0)
1(
0'
#3795
1!
1'
#3800
b1 "
b1 #
0!
1-
0+
1*
0(
0'
#3805
1!
1'
#3810
b111 "
b111 #
0!
1,
1+
1)
1(
0'
#3815
1!
1'
#3820
b101 "
b101 #
0!
0,
0)
0'
#3825
1!
1'
#3830
b10 "
b10 #
0!
0-
1,
0+
0*
1)
0(
0'
#3835
1!
1'
#3840
b100 "
b100 #
0!
0,
1+
0)
1(
0'
#3845
1!
1'
#3850
b10 "
b10 #
0!
1,
0+
1)
0(
0'
#3855
1!
1'
#3860
b111 "
b111 #
0!
1-
1+
1*
1(
0'
#3865
1!
1'
#3870
b1 "
b1 #
0!
0,
0+
0)
0(
0'
#3875
1!
1'
#3880
b11 "
b11 #
0!
1,
1)
0'
#3885
1!
1'
#3890
0!
0'
#3895
1!
1'
#3900
0!
0'
#3905
1!
1'
#3910
b10 "
b10 #
0!
0-
0*
0'
#3915
1!
1'
#3920
b1 "
b1 #
0!
1-
0,
1*
0)
0'
#3925
1!
1'
#3930
b110 "
b110 #
0!
0-
1,
1+
0*
1)
1(
0'
#3935
1!
1'
#3940
b11 "
b11 #
0!
1-
0+
1*
0(
0'
#3945
1!
1'
#3950
b110 "
b110 #
0!
0-
1+
0*
1(
0'
