Designs/mutex/traces/1k/fault_neg1k.vcd
$date
	Tue Mar 25 14:04:50 2025
$end
$version
	ModelSim Version 2019.4
$end
$timescale
	1ns
$end

$scope module tbench_top $end
$var reg 1 ! clk $end

$scope module t1 $end
$upscope $end

$scope module DUT $end
$upscope $end

$scope module intf $end
$var wire 1 " clk $end
$var reg 16 # in [15:0] $end
$var reg 1 $ positive_flag $end
$var reg 1 % negative_flag $end

$upscope $end
$upscope $end
$upscope $end
$enddefinitions $end
#0
$dumpvars
0!
bx #
x$
0%
0"
$end
#5
1!
1"
1$
#10
0!
0"
b1101011011001110 #
#15
1!
1"
0$
#20
0!
0"
b111101001001101 #
#25
1!
1"
1$
#30
0!
0"
b101010010011100 #
#35
1!
1"
#40
0!
0"
b10100001110110 #
#45
1!
1"
#50
0!
0"
b1101111010111011 #
#55
1!
1"
0$
#60
0!
0"
b1110010011101111 #
#65
1!
1"
#70
0!
0"
b101000101111111 #
#75
1!
1"
1$
#80
0!
0"
b100101010100110 #
#85
1!
1"
#90
0!
0"
b111101010001001 #
#95
1!
1"
#100
0!
0"
b1001110010010000 #
#105
1!
1"
0$
#110
0!
0"
b1100010001101011 #
#115
1!
1"
#120
0!
0"
b111000010010011 #
#125
1!
1"
1$
#130
0!
0"
b111100011010000 #
#135
1!
1"
#140
0!
0"
b1011001101110001 #
#145
1!
1"
0$
#150
0!
0"
b100011100101 #
#155
1!
1"
1$
#160
0!
0"
b1000100101111 #
#165
1!
1"
#170
0!
0"
b1101000110001010 #
#175
1!
1"
0$
#180
0!
0"
b1000011010000111 #
#185
1!
1"
#190
0!
0"
b111100110000 #
#195
1!
1"
1$
#200
0!
0"
b1111100001011 #
#205
1!
1"
#210
0!
0"
b11011101001110 #
#215
1!
1"
#220
0!
0"
b101110011010101 #
#225
1!
1"
#230
0!
0"
b11010011001011 #
#235
1!
1"
#240
0!
0"
b1000100110111 #
#245
1!
1"
#250
0!
0"
b110001010101001 #
#255
1!
1"
#260
0!
0"
b1000110000000111 #
#265
1!
1"
0$
#270
0!
0"
b100011101100100 #
#275
1!
1"
1$
#280
0!
0"
b1101111000000100 #
#285
1!
1"
0$
#290
0!
0"
b1001101000001110 #
#295
1!
1"
#300
0!
0"
b1110000010011111 #
#305
1!
1"
#310
0!
0"
b1010001010110001 #
#315
1!
1"
#320
0!
0"
b1001000001011010 #
#325
1!
1"
#330
0!
0"
b1000110110101000 #
#335
1!
1"
#340
0!
0"
b1100011100011000 #
#345
1!
1"
#350
0!
0"
b1000110110101010 #
#355
1!
1"
#360
0!
0"
b1111001110011110 #
#365
1!
1"
#370
0!
0"
b1100100100101011 #
#375
1!
1"
#380
0!
0"
b10000011000001 #
#385
1!
1"
1$
#390
0!
0"
b11110010011000 #
#395
1!
1"
#400
0!
0"
b10001010000 #
#405
1!
1"
#410
0!
0"
b100111001101100 #
#415
1!
1"
#420
0!
0"
b1110101100001110 #
#425
1!
1"
0$
#430
0!
0"
b1000101000110 #
#435
1!
1"
1$
#440
0!
0"
b110010010010111 #
#445
1!
1"
#450
0!
0"
b100000111101010 #
#455
1!
1"
#460
0!
0"
b100101011100010 #
#465
1!
1"
#470
0!
0"
b111000011010 #
#475
1!
1"
#480
0!
0"
b1100001000001000 #
#485
1!
1"
0$
#490
0!
0"
b1000111001001001 #
#495
1!
1"
#500
0!
0"
b101101111001001 #
#505
1!
1"
1$
#510
0!
0"
b110010100000000 #
#515
1!
1"
#520
0!
0"
b1000111110011 #
#525
1!
1"
#530
0!
0"
b1101110100100100 #
#535
1!
1"
0$
#540
0!
0"
b1011110011011110 #
#545
1!
1"
#550
0!
0"
b11111110111010 #
#555
1!
1"
1$
#560
0!
0"
b1011111100010001 #
#565
1!
1"
0$
#570
0!
0"
b101111011001001 #
#575
1!
1"
1$
#580
0!
0"
b111101000010010 #
#585
1!
1"
#590
0!
0"
b101101101000100 #
#595
1!
1"
#600
0!
0"
b101000100001010 #
#605
1!
1"
#610
0!
0"
b101100101001001 #
#615
1!
1"
#620
0!
0"
b1110100011110000 #
#625
1!
1"
0$
#630
0!
0"
b11000101011001 #
#635
1!
1"
1$
#640
0!
0"
b1110010011110111 #
#645
1!
1"
0$
#650
0!
0"
b1111100110000 #
#655
1!
1"
1$
#660
0!
0"
b1011000101011100 #
#665
1!
1"
0$
#670
0!
0"
b1000110100 #
#675
1!
1"
1$
#680
0!
0"
b1000011001110011 #
#685
1!
1"
0$
#690
0!
0"
b1101000101101010 #
#695
1!
1"
#700
0!
0"
b1100011011110001 #
#705
1!
1"
#710
0!
0"
b1010110100111000 #
#715
1!
1"
#720
0!
0"
b1100101011011101 #
#725
1!
1"
#730
0!
0"
b100101110111010 #
#735
1!
1"
1$
#740
0!
0"
b101101110110010 #
#745
1!
1"
#750
0!
0"
b1011000010101100 #
#755
1!
1"
0$
#760
0!
0"
b11111110000000 #
#765
1!
1"
1$
#770
0!
0"
b1101010111010010 #
#775
1!
1"
0$
#780
0!
0"
b100100011001 #
#785
1!
1"
1$
#790
0!
0"
b101001101111 #
#795
1!
1"
#800
0!
0"
b10101101000010 #
#805
1!
1"
#810
0!
0"
b1001001110111001 #
#815
1!
1"
0$
#820
0!
0"
b101110111011 #
#825
1!
1"
1$
#830
0!
0"
b100101110101111 #
#835
1!
1"
#840
0!
0"
b1111100001 #
#845
1!
1"
#850
0!
0"
b1010100010110110 #
#855
1!
1"
0$
#860
0!
0"
b111011111000110 #
#865
1!
1"
1$
#870
0!
0"
b1001000001001010 #
#875
1!
1"
0$
#880
0!
0"
b1010110010101110 #
#885
1!
1"
#890
0!
0"
b110001100010101 #
#895
1!
1"
1$
#900
0!
0"
b1100100000111101 #
#905
1!
1"
0$
#910
0!
0"
b101000101101111 #
#915
1!
1"
1$
#920
0!
0"
b1110111111111011 #
#925
1!
1"
0$
#930
0!
0"
b110001000000111 #
#935
1!
1"
1$
#940
0!
0"
b1011011101100111 #
#945
1!
1"
0$
#950
0!
0"
b111001100110100 #
#955
1!
1"
1$
#960
0!
0"
b101100100100111 #
#965
1!
1"
#970
0!
0"
b111100100010 #
#975
1!
1"
#980
0!
0"
b111001110010010 #
#985
1!
1"
#990
0!
0"
b100100100101000 #
#995
1!
1"
#1000
0!
0"
b10011101000010 #
#1005
1!
1"
#1010
0!
0"
b110000000101100 #
#1015
1!
1"
#1020
0!
0"
b111111011011100 #
#1025
1!
1"
#1030
0!
0"
b1110100111111100 #
#1035
1!
1"
0$
#1040
0!
0"
b101101110001010 #
#1045
1!
1"
1$
#1050
0!
0"
b1101011001001101 #
#1055
1!
1"
0$
#1060
0!
0"
b11010110010101 #
#1065
1!
1"
1$
#1070
0!
0"
b10010010000001 #
#1075
1!
1"
#1080
0!
0"
b1100000010001001 #
#1085
1!
1"
0$
#1090
0!
0"
b10001000101 #
#1095
1!
1"
1$
#1100
0!
0"
b110100000101110 #
#1105
1!
1"
#1110
0!
0"
b10001110110011 #
#1115
1!
1"
#1120
0!
0"
b1101111110110101 #
#1125
1!
1"
0$
#1130
0!
0"
b1100000110110010 #
#1135
1!
1"
#1140
0!
0"
b110000111001010 #
#1145
1!
1"
1$
#1150
0!
0"
b11001000001010 #
#1155
1!
1"
#1160
0!
0"
b101111100000101 #
#1165
1!
1"
#1170
0!
0"
b11011110000101 #
#1175
1!
1"
#1180
0!
0"
b1101111010101 #
#1185
1!
1"
#1190
0!
0"
b1011010110000000 #
#1195
1!
1"
0$
#1200
0!
0"
b11001001000110 #
#1205
1!
1"
1$
#1210
0!
0"
b1011111000010110 #
#1215
1!
1"
0$
#1220
0!
0"
b1100010101110000 #
#1225
1!
1"
#1230
0!
0"
b101010011101101 #
#1235
1!
1"
1$
#1240
0!
0"
b11110100111001 #
#1245
1!
1"
#1250
0!
0"
b101111001010101 #
#1255
1!
1"
#1260
0!
0"
b1100001110010101 #
#1265
1!
1"
0$
#1270
0!
0"
b11101101100111 #
#1275
1!
1"
1$
#1280
0!
0"
b1000111011101010 #
#1285
1!
1"
0$
#1290
0!
0"
b110110000000000 #
#1295
1!
1"
1$
#1300
0!
0"
b1110011001101000 #
#1305
1!
1"
0$
#1310
0!
0"
b1010101111011000 #
#1315
1!
1"
#1320
0!
0"
b1010110101001110 #
#1325
1!
1"
#1330
0!
0"
b1001001110011111 #
#1335
1!
1"
#1340
0!
0"
b110100111000001 #
#1345
1!
1"
1$
#1350
0!
0"
b10111010000001 #
#1355
1!
1"
#1360
0!
0"
b1111011010001001 #
#1365
1!
1"
0$
#1370
0!
0"
b101010110101110 #
#1375
1!
1"
1$
#1380
0!
0"
b1110100010110111 #
#1385
1!
1"
0$
#1390
0!
0"
b111000011101111 #
#1395
1!
1"
1$
#1400
0!
0"
b11001101100101 #
#1405
1!
1"
#1410
0!
0"
b1001001011001 #
#1415
1!
1"
#1420
0!
0"
b10001111001011 #
#1425
1!
1"
#1430
0!
0"
b1101110111001101 #
#1435
1!
1"
0$
#1440
0!
0"
b111000110100011 #
#1445
1!
1"
1$
#1450
0!
0"
b1001110101000011 #
#1455
1!
1"
0$
#1460
0!
0"
b11101010100001 #
#1465
1!
1"
1$
#1470
0!
0"
b101110110100101 #
#1475
1!
1"
#1480
0!
0"
b1000101010111100 #
#1485
1!
1"
0$
#1490
0!
0"
b11110110110100 #
#1495
1!
1"
1$
#1500
0!
0"
b11011101111011 #
#1505
1!
1"
#1510
0!
0"
b1010111110000100 #
#1515
1!
1"
0$
#1520
0!
0"
b10010111100001 #
#1525
1!
1"
1$
#1530
0!
0"
b1010001000001010 #
#1535
1!
1"
0$
#1540
0!
0"
b1011001010100001 #
#1545
1!
1"
#1550
0!
0"
b100010101010010 #
#1555
1!
1"
1$
#1560
0!
0"
b1000001101100100 #
#1565
1!
1"
0$
#1570
0!
0"
b1100000100111000 #
#1575
1!
1"
#1580
0!
0"
b10000100010001 #
#1585
1!
1"
1$
#1590
0!
0"
b111100100010110 #
#1595
1!
1"
#1600
0!
0"
b1000011011001111 #
#1605
1!
1"
0$
#1610
0!
0"
b100100011111011 #
#1615
1!
1"
1$
#1620
0!
0"
b1111000010011011 #
#1625
1!
1"
0$
#1630
0!
0"
b1110000010010001 #
#1635
1!
1"
#1640
0!
0"
b111111110111101 #
#1645
1!
1"
1$
#1650
0!
0"
b101101110100111 #
#1655
1!
1"
#1660
0!
0"
b101100011000101 #
#1665
1!
1"
#1670
0!
0"
b1110100011110110 #
#1675
1!
1"
0$
#1680
0!
0"
b100111111110111 #
#1685
1!
1"
1$
#1690
0!
0"
b1101000001000000 #
#1695
1!
1"
0$
#1700
0!
0"
b1010100101010 #
#1705
1!
1"
1$
#1710
0!
0"
b1010001000110111 #
#1715
1!
1"
0$
#1720
0!
0"
b111100000101110 #
#1725
1!
1"
1$
#1730
0!
0"
b1010110111101001 #
#1735
1!
1"
0$
#1740
0!
0"
b101001000100101 #
#1745
1!
1"
1$
#1750
0!
0"
b110001110111 #
#1755
1!
1"
#1760
0!
0"
b1100101111010110 #
#1765
1!
1"
0$
#1770
0!
0"
b11001110110101 #
#1775
1!
1"
1$
#1780
0!
0"
b100010011001101 #
#1785
1!
1"
#1790
0!
0"
b1000101000010111 #
#1795
1!
1"
0$
#1800
0!
0"
b1100101100000 #
#1805
1!
1"
1$
#1810
0!
0"
b1110011111110111 #
#1815
1!
1"
0$
#1820
0!
0"
b1111010011100100 #
#1825
1!
1"
#1830
0!
0"
b101111010010010 #
#1835
1!
1"
1$
#1840
0!
0"
b1011101001011011 #
#1845
1!
1"
0$
#1850
0!
0"
b1000010100110010 #
#1855
1!
1"
#1860
0!
0"
b1110100000100100 #
#1865
1!
1"
#1870
0!
0"
b10101001110111 #
#1875
1!
1"
1$
#1880
0!
0"
b110100110011000 #
#1885
1!
1"
#1890
0!
0"
b1000110100100110 #
#1895
1!
1"
0$
#1900
0!
0"
b1111101010111110 #
#1905
1!
1"
#1910
0!
0"
b1001111011010 #
#1915
1!
1"
1$
#1920
0!
0"
b1010111101110001 #
#1925
1!
1"
0$
#1930
0!
0"
b1001011110111110 #
#1935
1!
1"
#1940
0!
0"
b1101111101010101 #
#1945
1!
1"
#1950
0!
0"
b11000010001100 #
#1955
1!
1"
1$
#1960
0!
0"
b1110111111111 #
#1965
1!
1"
#1970
0!
0"
b1011001100010011 #
#1975
1!
1"
0$
#1980
0!
0"
b1100010100110001 #
#1985
1!
1"
#1990
0!
0"
b100110001000101 #
#1995
1!
1"
1$
#2000
0!
0"
b111010111000 #
#2005
1!
1"
#2010
0!
0"
b1000101011110110 #
#2015
1!
1"
0$
#2020
0!
0"
b1110101011001111 #
#2025
1!
1"
#2030
0!
0"
b11100110110 #
#2035
1!
1"
1$
#2040
0!
0"
b11101000001000 #
#2045
1!
1"
#2050
0!
0"
b111000111110000 #
#2055
1!
1"
#2060
0!
0"
b111110010010100 #
#2065
1!
1"
#2070
0!
0"
b1101001001110000 #
#2075
1!
1"
0$
#2080
0!
0"
b100000011001111 #
#2085
1!
1"
1$
#2090
0!
0"
b1100100010111101 #
#2095
1!
1"
0$
#2100
0!
0"
b110001011000110 #
#2105
1!
1"
1$
#2110
0!
0"
b110011011011111 #
#2115
1!
1"
#2120
0!
0"
b11001100000111 #
#2125
1!
1"
#2130
0!
0"
b111110110111010 #
#2135
1!
1"
#2140
0!
0"
b1111001010011110 #
#2145
1!
1"
0$
#2150
0!
0"
b101011110000110 #
#2155
1!
1"
1$
#2160
0!
0"
b1100000111110011 #
#2165
1!
1"
0$
#2170
0!
0"
b110000111101011 #
#2175
1!
1"
1$
#2180
0!
0"
b11100100101101 #
#2185
1!
1"
#2190
0!
0"
b1101000000100 #
#2195
1!
1"
#2200
0!
0"
b1000101110111110 #
#2205
1!
1"
0$
#2210
0!
0"
b101011111101010 #
#2215
1!
1"
1$
#2220
0!
0"
b111001001110111 #
#2225
1!
1"
#2230
0!
0"
b11000100111110 #
#2235
1!
1"
#2240
0!
0"
b111010110110000 #
#2245
1!
1"
#2250
0!
0"
b1001110111010001 #
#2255
1!
1"
0$
#2260
0!
0"
b1111110111011010 #
#2265
1!
1"
#2270
0!
0"
b1111001001000110 #
#2275
1!
1"
#2280
0!
0"
b1100111011000111 #
#2285
1!
1"
#2290
0!
0"
b1000100101111100 #
#2295
1!
1"
#2300
0!
0"
b1011011100111000 #
#2305
1!
1"
#2310
0!
0"
b1100110010011001 #
#2315
1!
1"
#2320
0!
0"
b1110011111010000 #
#2325
1!
1"
#2330
0!
0"
b1000001110011001 #
#2335
1!
1"
#2340
0!
0"
b1010111001001010 #
#2345
1!
1"
#2350
0!
0"
b101111111010001 #
#2355
1!
1"
1$
#2360
0!
0"
b111010010011001 #
#2365
1!
1"
#2370
0!
0"
b1010000101101101 #
#2375
1!
1"
0$
#2380
0!
0"
b111111000001000 #
#2385
1!
1"
1$
#2390
0!
0"
b1111101001001001 #
#2395
1!
1"
0$
#2400
0!
0"
b100010100110101 #
#2405
1!
1"
1$
#2410
0!
0"
b1110011010101101 #
#2415
1!
1"
0$
#2420
0!
0"
b1110000011101001 #
#2425
1!
1"
#2430
0!
0"
b1111100111111010 #
#2435
1!
1"
#2440
0!
0"
b1100000101100001 #
#2445
1!
1"
#2450
0!
0"
b1000001111101111 #
#2455
1!
1"
#2460
0!
0"
b1000011000 #
#2465
1!
1"
1$
#2470
0!
0"
b1110110001011010 #
#2475
1!
1"
0$
#2480
0!
0"
b111001111100110 #
#2485
1!
1"
1$
#2490
0!
0"
b10100010010111 #
#2495
1!
1"
#2500
0!
0"
b1001001000101010 #
#2505
1!
1"
0$
#2510
0!
0"
b1011100011011101 #
#2515
1!
1"
#2520
0!
0"
b1111101001001001 #
#2525
1!
1"
#2530
0!
0"
b1110000110110001 #
#2535
1!
1"
#2540
0!
0"
b10110110000111 #
#2545
1!
1"
1$
#2550
0!
0"
b1000111000 #
#2555
1!
1"
#2560
0!
0"
b1001100001101010 #
#2565
1!
1"
0$
#2570
0!
0"
b1100100001000101 #
#2575
1!
1"
#2580
0!
0"
b1001000101010011 #
#2585
1!
1"
#2590
0!
0"
b1100111010111100 #
#2595
1!
1"
#2600
0!
0"
b111100001001010 #
#2605
1!
1"
1$
#2610
0!
0"
b1010110010101001 #
#2615
1!
1"
0$
#2620
0!
0"
b1011111000000110 #
#2625
1!
1"
#2630
0!
0"
b10011100101001 #
#2635
1!
1"
1$
#2640
0!
0"
b1111010111111 #
#2645
1!
1"
#2650
0!
0"
b1001110000010011 #
#2655
1!
1"
0$
#2660
0!
0"
b111010111111100 #
#2665
1!
1"
1$
#2670
0!
0"
b1101110011111001 #
#2675
1!
1"
0$
#2680
0!
0"
b100111101010001 #
#2685
1!
1"
1$
#2690
0!
0"
b111000001011000 #
#2695
1!
1"
#2700
0!
0"
b110001111111011 #
#2705
1!
1"
#2710
0!
0"
b10110110001010 #
#2715
1!
1"
#2720
0!
0"
b1110010010000011 #
#2725
1!
1"
0$
#2730
0!
0"
b1000000011110000 #
#2735
1!
1"
#2740
0!
0"
b101110110110001 #
#2745
1!
1"
1$
#2750
0!
0"
b1011111100101101 #
#2755
1!
1"
0$
#2760
0!
0"
b1010100110001001 #
#2765
1!
1"
#2770
0!
0"
b111111000110 #
#2775
1!
1"
1$
#2780
0!
0"
b110010001001010 #
#2785
1!
1"
#2790
0!
0"
b101010100010111 #
#2795
1!
1"
#2800
0!
0"
b1110100101110011 #
#2805
1!
1"
0$
#2810
0!
0"
b11110011011111 #
#2815
1!
1"
1$
#2820
0!
0"
b1011000010111110 #
#2825
1!
1"
0$
#2830
0!
0"
b1110010001000011 #
#2835
1!
1"
#2840
0!
0"
b1101111111111010 #
#2845
1!
1"
#2850
0!
0"
b1010110010111000 #
#2855
1!
1"
#2860
0!
0"
b100100111111111 #
#2865
1!
1"
1$
#2870
0!
0"
b1111000101000011 #
#2875
1!
1"
0$
#2880
0!
0"
b10001110010001 #
#2885
1!
1"
1$
#2890
0!
0"
b1000001111111001 #
#2895
1!
1"
0$
#2900
0!
0"
b11001010110010 #
#2905
1!
1"
1$
#2910
0!
0"
b1111011000100011 #
#2915
1!
1"
0$
#2920
0!
0"
b1001000001100111 #
#2925
1!
1"
#2930
0!
0"
b1111011100100000 #
#2935
1!
1"
#2940
0!
0"
b110010000100010 #
#2945
1!
1"
1$
#2950
0!
0"
b1000001101000111 #
#2955
1!
1"
0$
#2960
0!
0"
b1010001011101 #
#2965
1!
1"
1$
#2970
0!
0"
b10011101101101 #
#2975
1!
1"
#2980
0!
0"
b101101110101110 #
#2985
1!
1"
#2990
0!
0"
b1000011101000100 #
#2995
1!
1"
0$
#3000
0!
0"
b110000101100001 #
#3005
1!
1"
1$
#3010
0!
0"
b1110111111001100 #
#3015
1!
1"
0$
#3020
0!
0"
b1010011001110010 #
#3025
1!
1"
#3030
0!
0"
b1011111001000001 #
#3035
1!
1"
#3040
0!
0"
b110110101110101 #
#3045
1!
1"
1$
#3050
0!
0"
b100111011001000 #
#3055
1!
1"
#3060
0!
0"
b1000111101111110 #
#3065
1!
1"
0$
#3070
0!
0"
b1001111010010 #
#3075
1!
1"
1$
#3080
0!
0"
b1111000110011100 #
#3085
1!
1"
0$
#3090
0!
0"
b1011100101111001 #
#3095
1!
1"
#3100
0!
0"
b1110011110101101 #
#3105
1!
1"
#3110
0!
0"
b1001110111110110 #
#3115
1!
1"
#3120
0!
0"
b1101101101110 #
#3125
1!
1"
1$
#3130
0!
0"
b110000111010011 #
#3135
1!
1"
#3140
0!
0"
b100011110001010 #
#3145
1!
1"
#3150
0!
0"
b101001011111 #
#3155
1!
1"
#3160
0!
0"
b1000001000110110 #
#3165
1!
1"
0$
#3170
0!
0"
b1011001101010101 #
#3175
1!
1"
#3180
0!
0"
b1000011101010101 #
#3185
1!
1"
#3190
0!
0"
b1000010000011 #
#3195
1!
1"
1$
#3200
0!
0"
b1001100000110 #
#3205
1!
1"
#3210
0!
0"
b1111010101011001 #
#3215
1!
1"
0$
#3220
0!
0"
b111111111010001 #
#3225
1!
1"
1$
#3230
0!
0"
b1000101100101000 #
#3235
1!
1"
0$
#3240
0!
0"
b101111110001010 #
#3245
1!
1"
1$
#3250
0!
0"
b11100000101010 #
#3255
1!
1"
#3260
0!
0"
b11101011000110 #
#3265
1!
1"
#3270
0!
0"
b111100010011001 #
#3275
1!
1"
#3280
0!
0"
b1101010101110111 #
#3285
1!
1"
0$
#3290
0!
0"
b11001011110101 #
#3295
1!
1"
1$
#3300
0!
0"
b1010001111100110 #
#3305
1!
1"
0$
#3310
0!
0"
b101001001100000 #
#3315
1!
1"
1$
#3320
0!
0"
b11011010000110 #
#3325
1!
1"
#3330
0!
0"
b100100110001111 #
#3335
1!
1"
#3340
0!
0"
b1011110111010 #
#3345
1!
1"
#3350
0!
0"
b110101011001101 #
#3355
1!
1"
#3360
0!
0"
b1111110001100101 #
#3365
1!
1"
0$
#3370
0!
0"
b110010111011000 #
#3375
1!
1"
1$
#3380
0!
0"
b1101101100011100 #
#3385
1!
1"
0$
#3390
0!
0"
b100111110010101 #
#3395
1!
1"
1$
#3400
0!
0"
b1100100100001110 #
#3405
1!
1"
0$
#3410
0!
0"
b1001110111010001 #
#3415
1!
1"
#3420
0!
0"
b10111000010010 #
#3425
1!
1"
1$
#3430
0!
0"
b1110000110000 #
#3435
1!
1"
#3440
0!
0"
b1101010010000101 #
#3445
1!
1"
0$
#3450
0!
0"
b11001101010110 #
#3455
1!
1"
1$
#3460
0!
0"
b1010111111001111 #
#3465
1!
1"
0$
#3470
0!
0"
b11110111111001 #
#3475
1!
1"
1$
#3480
0!
0"
b1110011001010101 #
#3485
1!
1"
0$
#3490
0!
0"
b1100000110100111 #
#3495
1!
1"
#3500
0!
0"
b101110010101001 #
#3505
1!
1"
1$
#3510
0!
0"
b1011000001111100 #
#3515
1!
1"
0$
#3520
0!
0"
b11101010001110 #
#3525
1!
1"
1$
#3530
0!
0"
b10010111010 #
#3535
1!
1"
#3540
0!
0"
b1110000001101011 #
#3545
1!
1"
0$
#3550
0!
0"
b1011100110000011 #
#3555
1!
1"
#3560
0!
0"
b1100110000010010 #
#3565
1!
1"
#3570
0!
0"
b1101111101100101 #
#3575
1!
1"
#3580
0!
0"
b110110100010111 #
#3585
1!
1"
1$
#3590
0!
0"
b1001110011011000 #
#3595
1!
1"
0$
#3600
0!
0"
b1100100111010 #
#3605
1!
1"
1$
#3610
0!
0"
b1100001000001001 #
#3615
1!
1"
0$
#3620
0!
0"
b10101101111111 #
#3625
1!
1"
1$
#3630
0!
0"
b1101001010111010 #
#3635
1!
1"
0$
#3640
0!
0"
b111110100101110 #
#3645
1!
1"
1$
#3650
0!
0"
b1011111010011000 #
#3655
1!
1"
0$
#3660
0!
0"
b100100100101 #
#3665
1!
1"
1$
#3670
0!
0"
b101010100111100 #
#3675
1!
1"
#3680
0!
0"
b1001011101100011 #
#3685
1!
1"
0$
#3690
0!
0"
b100100010011 #
#3695
1!
1"
1$
#3700
0!
0"
b11001000001001 #
#3705
1!
1"
#3710
0!
0"
b1100110111 #
#3715
1!
1"
#3720
0!
0"
b1101010011110 #
#3725
1!
1"
#3730
0!
0"
b1101111001001 #
#3735
1!
1"
#3740
0!
0"
b100010111110011 #
#3745
1!
1"
#3750
0!
0"
b1010010011100010 #
#3755
1!
1"
0$
#3760
0!
0"
b1100111101011010 #
#3765
1!
1"
#3770
0!
0"
b1000010010100000 #
#3775
1!
1"
#3780
0!
0"
b1100011111010101 #
#3785
1!
1"
#3790
0!
0"
b101101110100010 #
#3795
1!
1"
1$
#3800
0!
0"
b1100000110001111 #
#3805
1!
1"
0$
#3810
0!
0"
b100100011010 #
#3815
1!
1"
1$
#3820
0!
0"
b101100001011111 #
#3825
1!
1"
#3830
0!
0"
b1100000010010110 #
#3835
1!
1"
0$
#3840
0!
0"
b101111101010000 #
#3845
1!
1"
1$
#3850
0!
0"
b110101010000 #
#3855
1!
1"
#3860
0!
0"
b100100000011001 #
#3865
1!
1"
#3870
0!
0"
b110111100000 #
#3875
1!
1"
#3880
0!
0"
b110111100001100 #
#3885
1!
1"
#3890
0!
0"
b1100011010001110 #
#3895
1!
1"
0$
#3900
0!
0"
b101111111111100 #
#3905
1!
1"
1$
#3910
0!
0"
b1101111111011001 #
#3915
1!
1"
0$
#3920
0!
0"
b110110110011010 #
#3925
1!
1"
1$
#3930
0!
0"
b1111110000100001 #
#3935
1!
1"
0$
#3940
0!
0"
b101001101000011 #
#3945
1!
1"
1$
#3950
0!
0"
b1110100111100101 #
#3955
1!
1"
0$
#3960
0!
0"
b100010100011110 #
#3965
1!
1"
1$
#3970
0!
0"
b1011100101100101 #
#3975
1!
1"
0$
#3980
0!
0"
b1110101000110011 #
#3985
1!
1"
#3990
0!
0"
b1101111110110 #
#3995
1!
1"
1$
#4000
0!
0"
b1111000000110010 #
#4005
1!
1"
0$
#4010
0!
0"
b110001011110 #
#4015
1!
1"
1$
#4020
0!
0"
b10001011101111 #
#4025
1!
1"
#4030
0!
0"
b111111010111111 #
#4035
1!
1"
#4040
0!
0"
b1111011111110111 #
#4045
1!
1"
0$
#4050
0!
0"
b1001000100110001 #
#4055
1!
1"
#4060
0!
0"
b1111110111011000 #
#4065
1!
1"
#4070
0!
0"
b11100011001110 #
#4075
1!
1"
1$
#4080
0!
0"
b10000101010110 #
#4085
1!
1"
#4090
0!
0"
b110110001000 #
#4095
1!
1"
#4100
0!
0"
b111011000101110 #
#4105
1!
1"
#4110
0!
0"
b1011000011100110 #
#4115
1!
1"
0$
#4120
0!
0"
b1001010100111000 #
#4125
1!
1"
#4130
0!
0"
b1101100100101101 #
#4135
1!
1"
#4140
0!
0"
b1101011110000110 #
#4145
1!
1"
#4150
0!
0"
b1111111010001111 #
#4155
1!
1"
#4160
0!
0"
b1011111010100000 #
#4165
1!
1"
#4170
0!
0"
b1001101100010110 #
#4175
1!
1"
#4180
0!
0"
b101011010001100 #
#4185
1!
1"
1$
#4190
0!
0"
b1100010110010010 #
#4195
1!
1"
0$
#4200
0!
0"
b1010000011111101 #
#4205
1!
1"
#4210
0!
0"
b1100100100100 #
#4215
1!
1"
1$
#4220
0!
0"
b1010101111010111 #
#4225
1!
1"
0$
#4230
0!
0"
b100101111110011 #
#4235
1!
1"
1$
#4240
0!
0"
b11110001001000 #
#4245
1!
1"
#4250
0!
0"
b100111110101101 #
#4255
1!
1"
#4260
0!
0"
b111000011101110 #
#4265
1!
1"
#4270
0!
0"
b1101100011101010 #
#4275
1!
1"
0$
#4280
0!
0"
b11000001110011 #
#4285
1!
1"
1$
#4290
0!
0"
b1111001011110101 #
#4295
1!
1"
0$
#4300
0!
0"
b1010101101001101 #
#4305
1!
1"
#4310
0!
0"
b10010111110010 #
#4315
1!
1"
1$
#4320
0!
0"
b1101010001111101 #
#4325
1!
1"
0$
#4330
0!
0"
b100001111110001 #
#4335
1!
1"
1$
#4340
0!
0"
b110101111001 #
#4345
1!
1"
#4350
0!
0"
b1111110011101110 #
#4355
1!
1"
0$
#4360
0!
0"
b11000010110 #
#4365
1!
1"
1$
#4370
0!
0"
b1111001011101 #
#4375
1!
1"
#4380
0!
0"
b1101101100110000 #
#4385
1!
1"
0$
#4390
0!
0"
b1001111111001010 #
#4395
1!
1"
#4400
0!
0"
b11001001001100 #
#4405
1!
1"
1$
#4410
0!
0"
b11001111110001 #
#4415
1!
1"
#4420
0!
0"
b1100000111010011 #
#4425
1!
1"
0$
#4430
0!
0"
b1110000011000000 #
#4435
1!
1"
#4440
0!
0"
b1011100010001001 #
#4445
1!
1"
#4450
0!
0"
b11000001011010 #
#4455
1!
1"
1$
#4460
0!
0"
b1000101110000000 #
#4465
1!
1"
0$
#4470
0!
0"
b1001101010001 #
#4475
1!
1"
1$
#4480
0!
0"
b101010000010110 #
#4485
1!
1"
#4490
0!
0"
b1101101001101111 #
#4495
1!
1"
0$
#4500
0!
0"
b110111111101100 #
#4505
1!
1"
1$
#4510
0!
0"
b10111100000100 #
#4515
1!
1"
#4520
0!
0"
b1110110100100000 #
#4525
1!
1"
0$
#4530
0!
0"
b100011001101110 #
#4535
1!
1"
1$
#4540
0!
0"
b1111110100000010 #
#4545
1!
1"
0$
#4550
0!
0"
b1101011101100110 #
#4555
1!
1"
#4560
0!
0"
b1011100111010011 #
#4565
1!
1"
#4570
0!
0"
b110101011010100 #
#4575
1!
1"
1$
#4580
0!
0"
b10000011100010 #
#4585
1!
1"
#4590
0!
0"
b100011010111110 #
#4595
1!
1"
#4600
0!
0"
b1011010011101010 #
#4605
1!
1"
0$
#4610
0!
0"
b1001000100101100 #
#4615
1!
1"
#4620
0!
0"
b101101101101 #
#4625
1!
1"
1$
#4630
0!
0"
b110010001111100 #
#4635
1!
1"
#4640
0!
0"
b1010111010011011 #
#4645
1!
1"
0$
#4650
0!
0"
b1000110100011101 #
#4655
1!
1"
#4660
0!
0"
b10000111110001 #
#4665
1!
1"
1$
#4670
0!
0"
b110011010100111 #
#4675
1!
1"
#4680
0!
0"
b110101100111000 #
#4685
1!
1"
#4690
0!
0"
b11100110111010 #
#4695
1!
1"
#4700
0!
0"
b110001001111101 #
#4705
1!
1"
#4710
0!
0"
b111010010110010 #
#4715
1!
1"
#4720
0!
0"
b10000110010110 #
#4725
1!
1"
#4730
0!
0"
b100110100011010 #
#4735
1!
1"
#4740
0!
0"
b1001110100011 #
#4745
1!
1"
#4750
0!
0"
b111110001000010 #
#4755
1!
1"
#4760
0!
0"
b1110101010000110 #
#4765
1!
1"
0$
#4770
0!
0"
b1110000101100001 #
#4775
1!
1"
#4780
0!
0"
b11111010111100 #
#4785
1!
1"
1$
#4790
0!
0"
b1011100111010011 #
#4795
1!
1"
0$
#4800
0!
0"
b1110101001010101 #
#4805
1!
1"
#4810
0!
0"
b1100011011110111 #
#4815
1!
1"
