Designs/climate_prediction_single_output/simple_tb/climate_prediction.vcd
$date
	Mon May  5 12:46:21 2025
$end
$version
	ModelSim Version 2019.4
$end
$timescale
	1ns
$end

$scope module tb_climate_prediction $end
$var reg 1 ! clk $end
$var reg 1 " rst_n $end
$var reg 8 # temperature [7:0] $end
$var reg 11 $ pressure [10:0] $end
$var reg 3 % climate_condition [2:0] $end
$var reg 1 & done $end

$scope module dut $end
$var wire 1 ' clk $end
$var wire 1 ( rst_n $end
$var wire 1 ) temperature [7] $end
$var wire 1 * temperature [6] $end
$var wire 1 + temperature [5] $end
$var wire 1 , temperature [4] $end
$var wire 1 - temperature [3] $end
$var wire 1 . temperature [2] $end
$var wire 1 / temperature [1] $end
$var wire 1 0 temperature [0] $end
$var wire 1 1 pressure [10] $end
$var wire 1 2 pressure [9] $end
$var wire 1 3 pressure [8] $end
$var wire 1 4 pressure [7] $end
$var wire 1 5 pressure [6] $end
$var wire 1 6 pressure [5] $end
$var wire 1 7 pressure [4] $end
$var wire 1 8 pressure [3] $end
$var wire 1 9 pressure [2] $end
$var wire 1 : pressure [1] $end
$var wire 1 ; pressure [0] $end
$var reg 3 < climate_condition [2:0] $end
$var reg 1 = done $end
$var reg 2 > current_state [1:0] $end
$var reg 2 ? next_state [1:0] $end
$var reg 8 @ reg_temperature [7:0] $end
$var reg 8 A prev_temperature [7:0] $end
$var reg 11 B reg_pressure [10:0] $end
$var reg 11 C prev_pressure [10:0] $end
$upscope $end
$upscope $end
$enddefinitions $end
#0
$dumpvars
0!
0"
b0 #
b0 $
b0 %
0&
b0 <
0=
b0 >
b0 ?
b0 @
b0 A
b0 B
b0 C
0;
0:
09
08
07
06
05
04
03
02
01
00
0/
0.
0-
0,
0+
0*
0)
0(
0'
$end
#5
1!
1'
#10
1"
0!
1(
0'
#15
1!
1'
#20
0!
0'
#25
1!
1'
#30
b1000 #
b1111000000 $
0!
15
14
13
12
1-
0'
b1 ?
#35
1!
1'
b1 >
b1000 @
b1111000000 B
b0 ?
#40
0!
0'
#45
1!
1'
b0 >
b1000 A
b1111000000 C
1=
b1 <
b1 %
1&
#50
0!
0'
#55
1!
1'
b0 <
0=
0&
b0 %
#60
0!
0'
#65
1!
1'
#70
0!
0'
#75
1!
1'
#80
b11111101 #
b1111001010 $
0!
1:
18
10
1.
1,
1+
1*
1)
0'
b1 ?
#85
1!
1'
b1 >
b11111101 @
b1111001010 B
b0 ?
#90
0!
0'
#95
1!
1'
b0 >
b11111101 A
b1111001010 C
1=
b1 <
b1 %
1&
#100
0!
0'
#105
1!
1'
b0 <
0=
0&
b0 %
#110
0!
0'
#115
1!
1'
#120
0!
0'
#125
1!
1'
#130
b10100 #
b1111110111 $
0!
1;
19
08
17
16
00
0-
0+
0*
0)
0'
b1 ?
#135
1!
1'
b1 >
b10100 @
b1111110111 B
b0 ?
#140
0!
0'
#145
1!
1'
b0 >
b10100 A
b1111110111 C
1=
b10 <
b10 %
1&
#150
0!
0'
#155
1!
1'
b0 <
0=
0&
b0 %
#160
0!
0'
#165
1!
1'
#170
0!
0'
#175
1!
1'
#180
b11110 #
b1110101100 $
0!
0;
0:
18
07
05
1/
1-
0'
b1 ?
#185
1!
1'
b1 >
b11110 @
b1110101100 B
b0 ?
#190
0!
0'
#195
1!
1'
b0 >
b11110 A
b1110101100 C
1=
b11 <
b11 %
1&
#200
0!
0'
#205
1!
1'
b0 <
0=
0&
b0 %
#210
0!
0'
#215
1!
1'
#220
0!
0'
#225
1!
1'
#230
b110010 #
b10000011010 $
0!
1:
09
17
06
04
03
02
11
0.
0-
1+
0'
b1 ?
#235
1!
1'
b1 >
b110010 @
b10000011010 B
b0 ?
#240
0!
0'
#245
1!
1'
b0 >
b110010 A
b10000011010 C
1=
b100 <
b100 %
1&
#250
0!
0'
#255
1!
1'
b0 <
0=
0&
b0 %
