Designs/sequence_generator/sequence_generator.vcd
$date
	Mon May  5 09:16:47 2025
$end
$version
	ModelSim Version 2019.4
$end
$timescale
	1ns
$end

$scope module tbench_top $end
$var reg 1 ! clk $end

$scope module t1 $end
$upscope $end

$scope module DUT $end
$var reg 2 " current_state [1:0] $end
$var reg 2 # next_state [1:0] $end
$var reg 32 $ current_value [31:0] $end
$upscope $end

$scope module intf $end
$var wire 1 % clk $end
$var reg 1 & rst_n $end
$var reg 1 ' enable $end
$var reg 32 ( start_value [31:0] $end
$var reg 32 ) step [31:0] $end
$var reg 32 * range_min [31:0] $end
$var reg 32 + range_max [31:0] $end
$var reg 32 , sequence_value [31:0] $end
$var reg 1 - done $end

$scope unknown dut $end
$upscope $end
$upscope $end
$upscope $end
$enddefinitions $end
#0
$dumpvars
0!
0&
0'
b0 (
b0 )
b0 *
b0 +
b0 ,
0-
b0 "
b0 #
b0 $
0%
$end
#5
1!
1%
#10
0!
0%
#15
1!
1%
#20
0!
0%
#25
1!
1%
#30
0!
0%
1&
#35
1!
1%
#40
0!
0%
1'
b11111111111111111111111110110000 (
b1001 )
b11111111111111111111111110101010 *
b11111111111111111111111111000000 +
b1 #
#45
1!
1%
b1 "
b10 #
#50
0!
0%
#55
1!
1%
b10 "
b11111111111111111111111110110000 $
b11111111111111111111111110110000 ,
#60
0!
0%
#65
1!
1%
b11111111111111111111111110111001 $
b11111111111111111111111110111001 ,
b11 #
#70
0!
0%
#75
1!
1%
b11 "
b11111111111111111111111111000010 $
b11111111111111111111111111000010 ,
#80
0!
0%
#85
1!
1%
1-
#90
0!
0%
0'
b0 #
#95
1!
1%
b0 "
#100
0!
0%
0&
b0 $
b0 ,
0-
#105
1!
1%
#110
0!
0%
#115
1!
1%
#120
0!
0%
1&
#125
1!
1%
#130
0!
0%
1'
b100000 (
b1000 )
b11111 *
b1001100 +
b1 #
#135
1!
1%
b1 "
b10 #
#140
0!
0%
#145
1!
1%
b10 "
b100000 $
b100000 ,
#150
0!
0%
#155
1!
1%
b101000 $
b101000 ,
#160
0!
0%
#165
1!
1%
b110000 $
b110000 ,
#170
0!
0%
#175
1!
1%
b111000 $
b111000 ,
#180
0!
0%
#185
1!
1%
b1000000 $
b1000000 ,
#190
0!
0%
#195
1!
1%
b1001000 $
b1001000 ,
b11 #
#200
0!
0%
#205
1!
1%
b11 "
b1010000 $
b1010000 ,
#210
0!
0%
#215
1!
1%
1-
#220
0!
0%
0'
b0 #
#225
1!
1%
b0 "
#230
0!
0%
0&
b0 $
b0 ,
0-
#235
1!
1%
#240
0!
0%
#245
1!
1%
#250
0!
0%
1&
#255
1!
1%
#260
0!
0%
1'
b110101 (
b11111111111111111111111111110111 )
b11111111111111111111111110011101 *
b1001111 +
b1 #
#265
1!
1%
b1 "
b10 #
#270
0!
0%
#275
1!
1%
b10 "
b110101 $
b110101 ,
#280
0!
0%
#285
1!
1%
b101100 $
b101100 ,
#290
0!
0%
#295
1!
1%
b100011 $
b100011 ,
#300
0!
0%
#305
1!
1%
b11010 $
b11010 ,
#310
0!
0%
#315
1!
1%
b10001 $
b10001 ,
#320
0!
0%
#325
1!
1%
b1000 $
b1000 ,
#330
0!
0%
#335
1!
1%
b11111111111111111111111111111111 $
b11111111111111111111111111111111 ,
#340
0!
0%
#345
1!
1%
b11111111111111111111111111110110 $
b11111111111111111111111111110110 ,
#350
0!
0%
#355
1!
1%
b11111111111111111111111111101101 $
b11111111111111111111111111101101 ,
#360
0!
0%
#365
1!
1%
b11111111111111111111111111100100 $
b11111111111111111111111111100100 ,
#370
0!
0%
#375
1!
1%
b11111111111111111111111111011011 $
b11111111111111111111111111011011 ,
#380
0!
0%
#385
1!
1%
b11111111111111111111111111010010 $
b11111111111111111111111111010010 ,
#390
0!
0%
#395
1!
1%
b11111111111111111111111111001001 $
b11111111111111111111111111001001 ,
#400
0!
0%
#405
1!
1%
b11111111111111111111111111000000 $
b11111111111111111111111111000000 ,
#410
0!
0%
#415
1!
1%
b11111111111111111111111110110111 $
b11111111111111111111111110110111 ,
#420
0!
0%
#425
1!
1%
b11111111111111111111111110101110 $
b11111111111111111111111110101110 ,
#430
0!
0%
#435
1!
1%
b11111111111111111111111110100101 $
b11111111111111111111111110100101 ,
b11 #
#440
0!
0%
#445
1!
1%
b11 "
b11111111111111111111111110011100 $
b11111111111111111111111110011100 ,
#450
0!
0%
#455
1!
1%
1-
#460
0!
0%
0'
b0 #
#465
1!
1%
b0 "
#470
0!
0%
0&
b0 $
b0 ,
0-
#475
1!
1%
#480
0!
0%
#485
1!
1%
#490
0!
0%
1&
#495
1!
1%
#500
0!
0%
1'
b1010010 (
b11111111111111111111111111111010 )
b1010001 *
b1010010 +
b1 #
#505
1!
1%
b1 "
b10 #
#510
0!
0%
#515
1!
1%
b10 "
b1010010 $
b1010010 ,
b11 #
#520
0!
0%
#525
1!
1%
b11 "
b1001100 $
b1001100 ,
#530
0!
0%
#535
1!
1%
1-
#540
0!
0%
0'
b0 #
#545
1!
1%
b0 "
#550
0!
0%
0&
b0 $
b0 ,
0-
#555
1!
1%
#560
0!
0%
#565
1!
1%
#570
0!
0%
1&
#575
1!
1%
#580
0!
0%
1'
b11111111111111111111111110111100 (
b11111111111111111111111111111101 )
b11111111111111111111111110101101 *
b11111111111111111111111111101101 +
b1 #
#585
1!
1%
b1 "
b10 #
#590
0!
0%
#595
1!
1%
b10 "
b11111111111111111111111110111100 $
b11111111111111111111111110111100 ,
#600
0!
0%
#605
1!
1%
b11111111111111111111111110111001 $
b11111111111111111111111110111001 ,
#610
0!
0%
#615
1!
1%
b11111111111111111111111110110110 $
b11111111111111111111111110110110 ,
#620
0!
0%
#625
1!
1%
b11111111111111111111111110110011 $
b11111111111111111111111110110011 ,
#630
0!
0%
#635
1!
1%
b11111111111111111111111110110000 $
b11111111111111111111111110110000 ,
#640
0!
0%
#645
1!
1%
b11111111111111111111111110101101 $
b11111111111111111111111110101101 ,
b11 #
#650
0!
0%
#655
1!
1%
b11 "
b11111111111111111111111110101010 $
b11111111111111111111111110101010 ,
#660
0!
0%
#665
1!
1%
1-
#670
0!
0%
0'
b0 #
#675
1!
1%
b0 "
#680
0!
0%
0&
b0 $
b0 ,
0-
#685
1!
1%
#690
0!
0%
#695
1!
1%
#700
0!
0%
1&
#705
1!
1%
#710
0!
0%
1'
b11111111111111111111111111110000 (
b1 )
b11111111111111111111111111011001 *
b1001111 +
b1 #
#715
1!
1%
b1 "
b10 #
#720
0!
0%
#725
1!
1%
b10 "
b11111111111111111111111111110000 $
b11111111111111111111111111110000 ,
#730
0!
0%
#735
1!
1%
b11111111111111111111111111110001 $
b11111111111111111111111111110001 ,
#740
0!
0%
#745
1!
1%
b11111111111111111111111111110010 $
b11111111111111111111111111110010 ,
#750
0!
0%
#755
1!
1%
b11111111111111111111111111110011 $
b11111111111111111111111111110011 ,
#760
0!
0%
#765
1!
1%
b11111111111111111111111111110100 $
b11111111111111111111111111110100 ,
#770
0!
0%
#775
1!
1%
b11111111111111111111111111110101 $
b11111111111111111111111111110101 ,
#780
0!
0%
#785
1!
1%
b11111111111111111111111111110110 $
b11111111111111111111111111110110 ,
#790
0!
0%
#795
1!
1%
b11111111111111111111111111110111 $
b11111111111111111111111111110111 ,
#800
0!
0%
#805
1!
1%
b11111111111111111111111111111000 $
b11111111111111111111111111111000 ,
#810
0!
0%
#815
1!
1%
b11111111111111111111111111111001 $
b11111111111111111111111111111001 ,
#820
0!
0%
#825
1!
1%
b11111111111111111111111111111010 $
b11111111111111111111111111111010 ,
#830
0!
0%
#835
1!
1%
b11111111111111111111111111111011 $
b11111111111111111111111111111011 ,
#840
0!
0%
#845
1!
1%
b11111111111111111111111111111100 $
b11111111111111111111111111111100 ,
#850
0!
0%
#855
1!
1%
b11111111111111111111111111111101 $
b11111111111111111111111111111101 ,
#860
0!
0%
#865
1!
1%
b11111111111111111111111111111110 $
b11111111111111111111111111111110 ,
#870
0!
0%
#875
1!
1%
b11111111111111111111111111111111 $
b11111111111111111111111111111111 ,
#880
0!
0%
#885
1!
1%
b0 $
b0 ,
#890
0!
0%
#895
1!
1%
b1 $
b1 ,
#900
0!
0%
#905
1!
1%
b10 $
b10 ,
#910
0!
0%
#915
1!
1%
b11 $
b11 ,
#920
0!
0%
#925
1!
1%
b100 $
b100 ,
#930
0!
0%
#935
1!
1%
b101 $
b101 ,
#940
0!
0%
#945
1!
1%
b110 $
b110 ,
#950
0!
0%
#955
1!
1%
b111 $
b111 ,
#960
0!
0%
#965
1!
1%
b1000 $
b1000 ,
#970
0!
0%
#975
1!
1%
b1001 $
b1001 ,
#980
0!
0%
#985
1!
1%
b1010 $
b1010 ,
#990
0!
0%
#995
1!
1%
b1011 $
b1011 ,
#1000
0!
0%
#1005
1!
1%
b1100 $
b1100 ,
#1010
0!
0%
#1015
1!
1%
b1101 $
b1101 ,
#1020
0!
0%
#1025
1!
1%
b1110 $
b1110 ,
#1030
0!
0%
#1035
1!
1%
b1111 $
b1111 ,
#1040
0!
0%
#1045
1!
1%
b10000 $
b10000 ,
#1050
0!
0%
#1055
1!
1%
b10001 $
b10001 ,
#1060
0!
0%
#1065
1!
1%
b10010 $
b10010 ,
#1070
0!
0%
#1075
1!
1%
b10011 $
b10011 ,
#1080
0!
0%
#1085
1!
1%
b10100 $
b10100 ,
#1090
0!
0%
#1095
1!
1%
b10101 $
b10101 ,
#1100
0!
0%
#1105
1!
1%
b10110 $
b10110 ,
#1110
0!
0%
#1115
1!
1%
b10111 $
b10111 ,
#1120
0!
0%
#1125
1!
1%
b11000 $
b11000 ,
#1130
0!
0%
#1135
1!
1%
b11001 $
b11001 ,
#1140
0!
0%
#1145
1!
1%
b11010 $
b11010 ,
#1150
0!
0%
#1155
1!
1%
b11011 $
b11011 ,
#1160
0!
0%
#1165
1!
1%
b11100 $
b11100 ,
#1170
0!
0%
#1175
1!
1%
b11101 $
b11101 ,
#1180
0!
0%
#1185
1!
1%
b11110 $
b11110 ,
#1190
0!
0%
#1195
1!
1%
b11111 $
b11111 ,
#1200
0!
0%
#1205
1!
1%
b100000 $
b100000 ,
#1210
0!
0%
#1215
1!
1%
b100001 $
b100001 ,
#1220
0!
0%
#1225
1!
1%
b100010 $
b100010 ,
#1230
0!
0%
#1235
1!
1%
b100011 $
b100011 ,
#1240
0!
0%
#1245
1!
1%
b100100 $
b100100 ,
#1250
0!
0%
#1255
1!
1%
b100101 $
b100101 ,
#1260
0!
0%
#1265
1!
1%
b100110 $
b100110 ,
#1270
0!
0%
#1275
1!
1%
b100111 $
b100111 ,
#1280
0!
0%
#1285
1!
1%
b101000 $
b101000 ,
#1290
0!
0%
#1295
1!
1%
b101001 $
b101001 ,
#1300
0!
0%
#1305
1!
1%
b101010 $
b101010 ,
#1310
0!
0%
#1315
1!
1%
b101011 $
b101011 ,
#1320
0!
0%
#1325
1!
1%
b101100 $
b101100 ,
#1330
0!
0%
#1335
1!
1%
b101101 $
b101101 ,
#1340
0!
0%
#1345
1!
1%
b101110 $
b101110 ,
#1350
0!
0%
#1355
1!
1%
b101111 $
b101111 ,
#1360
0!
0%
#1365
1!
1%
b110000 $
b110000 ,
#1370
0!
0%
#1375
1!
1%
b110001 $
b110001 ,
#1380
0!
0%
#1385
1!
1%
b110010 $
b110010 ,
#1390
0!
0%
#1395
1!
1%
b110011 $
b110011 ,
#1400
0!
0%
#1405
1!
1%
b110100 $
b110100 ,
#1410
0!
0%
#1415
1!
1%
b110101 $
b110101 ,
#1420
0!
0%
#1425
1!
1%
b110110 $
b110110 ,
#1430
0!
0%
#1435
1!
1%
b110111 $
b110111 ,
#1440
0!
0%
#1445
1!
1%
b111000 $
b111000 ,
#1450
0!
0%
#1455
1!
1%
b111001 $
b111001 ,
#1460
0!
0%
#1465
1!
1%
b111010 $
b111010 ,
#1470
0!
0%
#1475
1!
1%
b111011 $
b111011 ,
#1480
0!
0%
#1485
1!
1%
b111100 $
b111100 ,
#1490
0!
0%
#1495
1!
1%
b111101 $
b111101 ,
#1500
0!
0%
#1505
1!
1%
b111110 $
b111110 ,
#1510
0!
0%
#1515
1!
1%
b111111 $
b111111 ,
#1520
0!
0%
#1525
1!
1%
b1000000 $
b1000000 ,
#1530
0!
0%
#1535
1!
1%
b1000001 $
b1000001 ,
#1540
0!
0%
#1545
1!
1%
b1000010 $
b1000010 ,
#1550
0!
0%
#1555
1!
1%
b1000011 $
b1000011 ,
#1560
0!
0%
#1565
1!
1%
b1000100 $
b1000100 ,
#1570
0!
0%
#1575
1!
1%
b1000101 $
b1000101 ,
#1580
0!
0%
#1585
1!
1%
b1000110 $
b1000110 ,
#1590
0!
0%
#1595
1!
1%
b1000111 $
b1000111 ,
#1600
0!
0%
#1605
1!
1%
b1001000 $
b1001000 ,
#1610
0!
0%
#1615
1!
1%
b1001001 $
b1001001 ,
#1620
0!
0%
#1625
1!
1%
b1001010 $
b1001010 ,
#1630
0!
0%
#1635
1!
1%
b1001011 $
b1001011 ,
#1640
0!
0%
#1645
1!
1%
b1001100 $
b1001100 ,
#1650
0!
0%
#1655
1!
1%
b1001101 $
b1001101 ,
#1660
0!
0%
#1665
1!
1%
b1001110 $
b1001110 ,
#1670
0!
0%
#1675
1!
1%
b1001111 $
b1001111 ,
b11 #
#1680
0!
0%
#1685
1!
1%
b11 "
b1010000 $
b1010000 ,
#1690
0!
0%
#1695
1!
1%
1-
#1700
0!
0%
0'
b0 #
#1705
1!
1%
b0 "
#1710
0!
0%
0&
b0 $
b0 ,
0-
#1715
1!
1%
#1720
0!
0%
#1725
1!
1%
#1730
0!
0%
1&
#1735
1!
1%
#1740
0!
0%
1'
b1011000 (
b11111111111111111111111111110111 )
b11111111111111111111111111001000 *
b1011011 +
b1 #
#1745
1!
1%
b1 "
b10 #
#1750
0!
0%
#1755
1!
1%
b10 "
b1011000 $
b1011000 ,
#1760
0!
0%
#1765
1!
1%
b1001111 $
b1001111 ,
#1770
0!
0%
#1775
1!
1%
b1000110 $
b1000110 ,
#1780
0!
0%
#1785
1!
1%
b111101 $
b111101 ,
#1790
0!
0%
#1795
1!
1%
b110100 $
b110100 ,
#1800
0!
0%
#1805
1!
1%
b101011 $
b101011 ,
#1810
0!
0%
#1815
1!
1%
b100010 $
b100010 ,
#1820
0!
0%
#1825
1!
1%
b11001 $
b11001 ,
#1830
0!
0%
#1835
1!
1%
b10000 $
b10000 ,
#1840
0!
0%
#1845
1!
1%
b111 $
b111 ,
#1850
0!
0%
#1855
1!
1%
b11111111111111111111111111111110 $
b11111111111111111111111111111110 ,
#1860
0!
0%
#1865
1!
1%
b11111111111111111111111111110101 $
b11111111111111111111111111110101 ,
#1870
0!
0%
#1875
1!
1%
b11111111111111111111111111101100 $
b11111111111111111111111111101100 ,
#1880
0!
0%
#1885
1!
1%
b11111111111111111111111111100011 $
b11111111111111111111111111100011 ,
#1890
0!
0%
#1895
1!
1%
b11111111111111111111111111011010 $
b11111111111111111111111111011010 ,
#1900
0!
0%
#1905
1!
1%
b11111111111111111111111111010001 $
b11111111111111111111111111010001 ,
#1910
0!
0%
#1915
1!
1%
b11111111111111111111111111001000 $
b11111111111111111111111111001000 ,
b11 #
#1920
0!
0%
#1925
1!
1%
b11 "
b11111111111111111111111110111111 $
b11111111111111111111111110111111 ,
#1930
0!
0%
#1935
1!
1%
1-
#1940
0!
0%
0'
b0 #
#1945
1!
1%
b0 "
#1950
0!
0%
0&
b0 $
b0 ,
0-
#1955
1!
1%
#1960
0!
0%
#1965
1!
1%
#1970
0!
0%
1&
#1975
1!
1%
#1980
0!
0%
1'
b11111111111111111111111110111010 (
b1010 )
b11111111111111111111111110111001 *
b11111111111111111111111110111011 +
b1 #
#1985
1!
1%
b1 "
b10 #
#1990
0!
0%
#1995
1!
1%
b10 "
b11111111111111111111111110111010 $
b11111111111111111111111110111010 ,
b11 #
#2000
0!
0%
#2005
1!
1%
b11 "
b11111111111111111111111111000100 $
b11111111111111111111111111000100 ,
#2010
0!
0%
#2015
1!
1%
1-
#2020
0!
0%
0'
b0 #
#2025
1!
1%
b0 "
#2030
0!
0%
0&
b0 $
b0 ,
0-
#2035
1!
1%
#2040
0!
0%
#2045
1!
1%
#2050
0!
0%
1&
#2055
1!
1%
#2060
0!
0%
1'
b11111111111111111111111111111110 (
b11 )
b11111111111111111111111111100111 *
b101011 +
b1 #
#2065
1!
1%
b1 "
b10 #
#2070
0!
0%
#2075
1!
1%
b10 "
b11111111111111111111111111111110 $
b11111111111111111111111111111110 ,
#2080
0!
0%
#2085
1!
1%
b1 $
b1 ,
#2090
0!
0%
#2095
1!
1%
b100 $
b100 ,
#2100
0!
0%
#2105
1!
1%
b111 $
b111 ,
#2110
0!
0%
#2115
1!
1%
b1010 $
b1010 ,
#2120
0!
0%
#2125
1!
1%
b1101 $
b1101 ,
#2130
0!
0%
#2135
1!
1%
b10000 $
b10000 ,
#2140
0!
0%
#2145
1!
1%
b10011 $
b10011 ,
#2150
0!
0%
#2155
1!
1%
b10110 $
b10110 ,
#2160
0!
0%
#2165
1!
1%
b11001 $
b11001 ,
#2170
0!
0%
#2175
1!
1%
b11100 $
b11100 ,
#2180
0!
0%
#2185
1!
1%
b11111 $
b11111 ,
#2190
0!
0%
#2195
1!
1%
b100010 $
b100010 ,
#2200
0!
0%
#2205
1!
1%
b100101 $
b100101 ,
#2210
0!
0%
#2215
1!
1%
b101000 $
b101000 ,
#2220
0!
0%
#2225
1!
1%
b101011 $
b101011 ,
b11 #
#2230
0!
0%
#2235
1!
1%
b11 "
b101110 $
b101110 ,
#2240
0!
0%
#2245
1!
1%
1-
#2250
0!
0%
0'
b0 #
#2255
1!
1%
b0 "
#2260
0!
0%
0&
b0 $
b0 ,
0-
#2265
1!
1%
#2270
0!
0%
#2275
1!
1%
#2280
0!
0%
1&
#2285
1!
1%
#2290
0!
0%
1'
b10101 (
b110 )
b11111111111111111111111110101011 *
b1000010 +
b1 #
#2295
1!
1%
b1 "
b10 #
#2300
0!
0%
#2305
1!
1%
b10 "
b10101 $
b10101 ,
#2310
0!
0%
#2315
1!
1%
b11011 $
b11011 ,
#2320
0!
0%
#2325
1!
1%
b100001 $
b100001 ,
#2330
0!
0%
#2335
1!
1%
b100111 $
b100111 ,
#2340
0!
0%
#2345
1!
1%
b101101 $
b101101 ,
#2350
0!
0%
#2355
1!
1%
b110011 $
b110011 ,
#2360
0!
0%
#2365
1!
1%
b111001 $
b111001 ,
#2370
0!
0%
#2375
1!
1%
b111111 $
b111111 ,
b11 #
#2380
0!
0%
#2385
1!
1%
b11 "
b1000101 $
b1000101 ,
#2390
0!
0%
#2395
1!
1%
1-
#2400
0!
0%
0'
b0 #
#2405
1!
1%
b0 "
#2410
0!
0%
0&
b0 $
b0 ,
0-
#2415
1!
1%
#2420
0!
0%
#2425
1!
1%
#2430
0!
0%
1&
#2435
1!
1%
#2440
0!
0%
1'
b11111111111111111111111111000011 (
b11111111111111111111111111111000 )
b11111111111111111111111110100010 *
b11111111111111111111111111111110 +
b1 #
#2445
1!
1%
b1 "
b10 #
#2450
0!
0%
#2455
1!
1%
b10 "
b11111111111111111111111111000011 $
b11111111111111111111111111000011 ,
#2460
0!
0%
#2465
1!
1%
b11111111111111111111111110111011 $
b11111111111111111111111110111011 ,
#2470
0!
0%
#2475
1!
1%
b11111111111111111111111110110011 $
b11111111111111111111111110110011 ,
#2480
0!
0%
#2485
1!
1%
b11111111111111111111111110101011 $
b11111111111111111111111110101011 ,
#2490
0!
0%
#2495
1!
1%
b11111111111111111111111110100011 $
b11111111111111111111111110100011 ,
b11 #
#2500
0!
0%
#2505
1!
1%
b11 "
b11111111111111111111111110011011 $
b11111111111111111111111110011011 ,
#2510
0!
0%
#2515
1!
1%
1-
#2520
0!
0%
0'
b0 #
#2525
1!
1%
b0 "
#2530
0!
0%
0&
b0 $
b0 ,
0-
#2535
1!
1%
#2540
0!
0%
#2545
1!
1%
#2550
0!
0%
1&
#2555
1!
1%
#2560
0!
0%
1'
b11111111111111111111111111001111 (
b11111111111111111111111111111010 )
b11111111111111111111111111001101 *
b11111111111111111111111111001111 +
b1 #
#2565
1!
1%
b1 "
b10 #
#2570
0!
0%
#2575
1!
1%
b10 "
b11111111111111111111111111001111 $
b11111111111111111111111111001111 ,
b11 #
#2580
0!
0%
#2585
1!
1%
b11 "
b11111111111111111111111111001001 $
b11111111111111111111111111001001 ,
#2590
0!
0%
#2595
1!
1%
1-
#2600
0!
0%
0'
b0 #
#2605
1!
1%
b0 "
#2610
0!
0%
0&
b0 $
b0 ,
0-
#2615
1!
1%
#2620
0!
0%
#2625
1!
1%
#2630
0!
0%
1&
#2635
1!
1%
#2640
0!
0%
1'
b100000 (
b101 )
b11110 *
b101100 +
b1 #
#2645
1!
1%
b1 "
b10 #
#2650
0!
0%
#2655
1!
1%
b10 "
b100000 $
b100000 ,
#2660
0!
0%
#2665
1!
1%
b100101 $
b100101 ,
#2670
0!
0%
#2675
1!
1%
b101010 $
b101010 ,
b11 #
#2680
0!
0%
#2685
1!
1%
b11 "
b101111 $
b101111 ,
#2690
0!
0%
#2695
1!
1%
1-
#2700
0!
0%
0'
b0 #
#2705
1!
1%
b0 "
#2710
0!
0%
0&
b0 $
b0 ,
0-
#2715
1!
1%
#2720
0!
0%
#2725
1!
1%
#2730
0!
0%
1&
#2735
1!
1%
#2740
0!
0%
1'
b100100 (
b11111111111111111111111111111101 )
b1101 *
b100101 +
b1 #
#2745
1!
1%
b1 "
b10 #
#2750
0!
0%
#2755
1!
1%
b10 "
b100100 $
b100100 ,
#2760
0!
0%
#2765
1!
1%
b100001 $
b100001 ,
#2770
0!
0%
#2775
1!
1%
b11110 $
b11110 ,
#2780
0!
0%
#2785
1!
1%
b11011 $
b11011 ,
#2790
0!
0%
#2795
1!
1%
b11000 $
b11000 ,
#2800
0!
0%
#2805
1!
1%
b10101 $
b10101 ,
#2810
0!
0%
#2815
1!
1%
b10010 $
b10010 ,
#2820
0!
0%
#2825
1!
1%
b1111 $
b1111 ,
b11 #
#2830
0!
0%
#2835
1!
1%
b11 "
b1100 $
b1100 ,
#2840
0!
0%
#2845
1!
1%
1-
#2850
0!
0%
0'
b0 #
#2855
1!
1%
b0 "
#2860
0!
0%
0&
b0 $
b0 ,
0-
#2865
1!
1%
#2870
0!
0%
#2875
1!
1%
#2880
0!
0%
1&
#2885
1!
1%
#2890
0!
0%
1'
b11111111111111111111111110111111 (
b11111111111111111111111111111000 )
b11111111111111111111111110111000 *
b11111111111111111111111111000110 +
b1 #
#2895
1!
1%
b1 "
b10 #
#2900
0!
0%
#2905
1!
1%
b10 "
b11111111111111111111111110111111 $
b11111111111111111111111110111111 ,
b11 #
#2910
0!
0%
#2915
1!
1%
b11 "
b11111111111111111111111110110111 $
b11111111111111111111111110110111 ,
#2920
0!
0%
#2925
1!
1%
1-
#2930
0!
0%
0'
b0 #
#2935
1!
1%
b0 "
#2940
0!
0%
0&
b0 $
b0 ,
0-
#2945
1!
1%
#2950
0!
0%
#2955
1!
1%
#2960
0!
0%
1&
#2965
1!
1%
#2970
0!
0%
1'
b11111111111111111111111110110100 (
b110 )
b11111111111111111111111110100100 *
b1000101 +
b1 #
#2975
1!
1%
b1 "
b10 #
#2980
0!
0%
#2985
1!
1%
b10 "
b11111111111111111111111110110100 $
b11111111111111111111111110110100 ,
#2990
0!
0%
#2995
1!
1%
b11111111111111111111111110111010 $
b11111111111111111111111110111010 ,
#3000
0!
0%
#3005
1!
1%
b11111111111111111111111111000000 $
b11111111111111111111111111000000 ,
#3010
0!
0%
#3015
1!
1%
b11111111111111111111111111000110 $
b11111111111111111111111111000110 ,
#3020
0!
0%
#3025
1!
1%
b11111111111111111111111111001100 $
b11111111111111111111111111001100 ,
#3030
0!
0%
#3035
1!
1%
b11111111111111111111111111010010 $
b11111111111111111111111111010010 ,
#3040
0!
0%
#3045
1!
1%
b11111111111111111111111111011000 $
b11111111111111111111111111011000 ,
#3050
0!
0%
#3055
1!
1%
b11111111111111111111111111011110 $
b11111111111111111111111111011110 ,
#3060
0!
0%
#3065
1!
1%
b11111111111111111111111111100100 $
b11111111111111111111111111100100 ,
#3070
0!
0%
#3075
1!
1%
b11111111111111111111111111101010 $
b11111111111111111111111111101010 ,
#3080
0!
0%
#3085
1!
1%
b11111111111111111111111111110000 $
b11111111111111111111111111110000 ,
#3090
0!
0%
#3095
1!
1%
b11111111111111111111111111110110 $
b11111111111111111111111111110110 ,
#3100
0!
0%
#3105
1!
1%
b11111111111111111111111111111100 $
b11111111111111111111111111111100 ,
#3110
0!
0%
#3115
1!
1%
b10 $
b10 ,
#3120
0!
0%
#3125
1!
1%
b1000 $
b1000 ,
#3130
0!
0%
#3135
1!
1%
b1110 $
b1110 ,
#3140
0!
0%
#3145
1!
1%
b10100 $
b10100 ,
#3150
0!
0%
#3155
1!
1%
b11010 $
b11010 ,
#3160
0!
0%
#3165
1!
1%
b100000 $
b100000 ,
#3170
0!
0%
#3175
1!
1%
b100110 $
b100110 ,
#3180
0!
0%
#3185
1!
1%
b101100 $
b101100 ,
#3190
0!
0%
#3195
1!
1%
b110010 $
b110010 ,
#3200
0!
0%
#3205
1!
1%
b111000 $
b111000 ,
#3210
0!
0%
#3215
1!
1%
b111110 $
b111110 ,
#3220
0!
0%
#3225
1!
1%
b1000100 $
b1000100 ,
b11 #
#3230
0!
0%
#3235
1!
1%
b11 "
b1001010 $
b1001010 ,
#3240
0!
0%
#3245
1!
1%
1-
#3250
0!
0%
0'
b0 #
#3255
1!
1%
b0 "
#3260
0!
0%
0&
b0 $
b0 ,
0-
#3265
1!
1%
#3270
0!
0%
#3275
1!
1%
#3280
0!
0%
1&
#3285
1!
1%
#3290
0!
0%
1'
b11111111111111111111111111001000 (
b11111111111111111111111111110110 )
b11111111111111111111111111001000 *
b110001 +
b1 #
#3295
1!
1%
b1 "
b10 #
#3300
0!
0%
#3305
1!
1%
b10 "
b11111111111111111111111111001000 $
b11111111111111111111111111001000 ,
b11 #
#3310
0!
0%
#3315
1!
1%
b11 "
b11111111111111111111111110111110 $
b11111111111111111111111110111110 ,
#3320
0!
0%
#3325
1!
1%
1-
#3330
0!
0%
0'
b0 #
#3335
1!
1%
b0 "
#3340
0!
0%
0&
b0 $
b0 ,
0-
#3345
1!
1%
#3350
0!
0%
#3355
1!
1%
#3360
0!
0%
1&
#3365
1!
1%
#3370
0!
0%
1'
b11111111111111111111111110111001 (
b11111111111111111111111111111001 )
b11111111111111111111111110011110 *
b10100 +
b1 #
#3375
1!
1%
b1 "
b10 #
#3380
0!
0%
#3385
1!
1%
b10 "
b11111111111111111111111110111001 $
b11111111111111111111111110111001 ,
#3390
0!
0%
#3395
1!
1%
b11111111111111111111111110110010 $
b11111111111111111111111110110010 ,
#3400
0!
0%
#3405
1!
1%
b11111111111111111111111110101011 $
b11111111111111111111111110101011 ,
#3410
0!
0%
#3415
1!
1%
b11111111111111111111111110100100 $
b11111111111111111111111110100100 ,
b11 #
#3420
0!
0%
#3425
1!
1%
b11 "
b11111111111111111111111110011101 $
b11111111111111111111111110011101 ,
#3430
0!
0%
#3435
1!
1%
1-
#3440
0!
0%
0'
b0 #
#3445
1!
1%
b0 "
#3450
0!
0%
0&
b0 $
b0 ,
0-
#3455
1!
1%
#3460
0!
0%
#3465
1!
1%
#3470
0!
0%
1&
#3475
1!
1%
#3480
0!
0%
1'
b11111111111111111111111111000100 (
b1010 )
b11111111111111111111111110111011 *
b1000 +
b1 #
#3485
1!
1%
b1 "
b10 #
#3490
0!
0%
#3495
1!
1%
b10 "
b11111111111111111111111111000100 $
b11111111111111111111111111000100 ,
#3500
0!
0%
#3505
1!
1%
b11111111111111111111111111001110 $
b11111111111111111111111111001110 ,
#3510
0!
0%
#3515
1!
1%
b11111111111111111111111111011000 $
b11111111111111111111111111011000 ,
#3520
0!
0%
#3525
1!
1%
b11111111111111111111111111100010 $
b11111111111111111111111111100010 ,
#3530
0!
0%
#3535
1!
1%
b11111111111111111111111111101100 $
b11111111111111111111111111101100 ,
#3540
0!
0%
#3545
1!
1%
b11111111111111111111111111110110 $
b11111111111111111111111111110110 ,
#3550
0!
0%
#3555
1!
1%
b0 $
b0 ,
b11 #
#3560
0!
0%
#3565
1!
1%
b11 "
b1010 $
b1010 ,
#3570
0!
0%
#3575
1!
1%
1-
#3580
0!
0%
0'
b0 #
#3585
1!
1%
b0 "
#3590
0!
0%
0&
b0 $
b0 ,
0-
#3595
1!
1%
#3600
0!
0%
#3605
1!
1%
#3610
0!
0%
1&
#3615
1!
1%
#3620
0!
0%
1'
b110 (
b11111111111111111111111111101001 *
b1011 +
b1 #
#3625
1!
1%
b1 "
b10 #
#3630
0!
0%
#3635
1!
1%
b10 "
b110 $
b110 ,
b11 #
#3640
0!
0%
#3645
1!
1%
b11 "
b10000 $
b10000 ,
#3650
0!
0%
#3655
1!
1%
1-
#3660
0!
0%
0'
b0 #
#3665
1!
1%
b0 "
#3670
0!
0%
0&
b0 $
b0 ,
0-
#3675
1!
1%
#3680
0!
0%
#3685
1!
1%
#3690
0!
0%
1&
#3695
1!
1%
#3700
0!
0%
1'
b101 (
b11111111111111111111111111111110 )
b11111111111111111111111110100110 *
b1001000 +
b1 #
#3705
1!
1%
b1 "
b10 #
#3710
0!
0%
#3715
1!
1%
b10 "
b101 $
b101 ,
#3720
0!
0%
#3725
1!
1%
b11 $
b11 ,
#3730
0!
0%
#3735
1!
1%
b1 $
b1 ,
#3740
0!
0%
#3745
1!
1%
b11111111111111111111111111111111 $
b11111111111111111111111111111111 ,
#3750
0!
0%
#3755
1!
1%
b11111111111111111111111111111101 $
b11111111111111111111111111111101 ,
#3760
0!
0%
#3765
1!
1%
b11111111111111111111111111111011 $
b11111111111111111111111111111011 ,
