legacy/fdl26/tests/adder_8bit/6_testbench_generator/verified_adder_8bit_eq_256.vcd
$date
	Mon Aug 25 17:18:17 2025
$end
$version
	ModelSim Version 2019.4
$end
$timescale
	1ns
$end

$scope module test $end
$var reg 1 ! clk $end
$var reg 8 " a [7:0] $end
$var reg 8 # b [7:0] $end
$var reg 1 $ cin $end
$var reg 8 % sum [7:0] $end
$var reg 1 & cout $end

$scope module dut $end
$var wire 1 ' clk $end
$var wire 1 ( a [7] $end
$var wire 1 ) a [6] $end
$var wire 1 * a [5] $end
$var wire 1 + a [4] $end
$var wire 1 , a [3] $end
$var wire 1 - a [2] $end
$var wire 1 . a [1] $end
$var wire 1 / a [0] $end
$var wire 1 0 b [7] $end
$var wire 1 1 b [6] $end
$var wire 1 2 b [5] $end
$var wire 1 3 b [4] $end
$var wire 1 4 b [3] $end
$var wire 1 5 b [2] $end
$var wire 1 6 b [1] $end
$var wire 1 7 b [0] $end
$var wire 1 8 cin $end
$var wire 1 9 sum [7] $end
$var wire 1 : sum [6] $end
$var wire 1 ; sum [5] $end
$var wire 1 < sum [4] $end
$var wire 1 = sum [3] $end
$var wire 1 > sum [2] $end
$var wire 1 ? sum [1] $end
$var wire 1 @ sum [0] $end
$var wire 1 A cout $end
$var wire 1 B c [8] $end
$var wire 1 C c [7] $end
$var wire 1 D c [6] $end
$var wire 1 E c [5] $end
$var wire 1 F c [4] $end
$var wire 1 G c [3] $end
$var wire 1 H c [2] $end
$var wire 1 I c [1] $end
$var wire 1 J c [0] $end

$scope module FA0 $end
$var wire 1 / a $end
$var wire 1 7 b $end
$var wire 1 8 cin $end
$var wire 1 @ sum $end
$var wire 1 J cout $end
$upscope $end

$scope module FA1 $end
$var wire 1 . a $end
$var wire 1 6 b $end
$var wire 1 J cin $end
$var wire 1 ? sum $end
$var wire 1 I cout $end
$upscope $end

$scope module FA2 $end
$var wire 1 - a $end
$var wire 1 5 b $end
$var wire 1 I cin $end
$var wire 1 > sum $end
$var wire 1 H cout $end
$upscope $end

$scope module FA3 $end
$var wire 1 , a $end
$var wire 1 4 b $end
$var wire 1 H cin $end
$var wire 1 = sum $end
$var wire 1 G cout $end
$upscope $end

$scope module FA4 $end
$var wire 1 + a $end
$var wire 1 3 b $end
$var wire 1 G cin $end
$var wire 1 < sum $end
$var wire 1 F cout $end
$upscope $end

$scope module FA5 $end
$var wire 1 * a $end
$var wire 1 2 b $end
$var wire 1 F cin $end
$var wire 1 ; sum $end
$var wire 1 E cout $end
$upscope $end

$scope module FA6 $end
$var wire 1 ) a $end
$var wire 1 1 b $end
$var wire 1 E cin $end
$var wire 1 : sum $end
$var wire 1 D cout $end
$upscope $end

$scope module FA7 $end
$var wire 1 ( a $end
$var wire 1 0 b $end
$var wire 1 D cin $end
$var wire 1 9 sum $end
$var wire 1 C cout $end
$upscope $end
$upscope $end
$upscope $end
$enddefinitions $end
#0
$dumpvars
0!
b1110 "
b11110001 #
1$
b0 %
1&
1J
1I
1H
1G
1F
1E
1D
1C
zB
18
17
06
05
04
13
12
11
10
0/
1.
1-
1,
0+
0*
0)
0(
0'
0@
0?
0>
0=
0<
0;
0:
09
1A
$end
#5
1!
1'
#10
b1101000 "
b10010111 #
0!
16
15
02
01
0.
0-
1*
1)
0'
#15
1!
1'
#20
b11010000 "
b101111 #
0!
14
03
12
00
0,
1+
0*
1(
0'
#25
1!
1'
#30
b11101110 "
b10001 #
0!
06
05
04
13
02
1.
1-
1,
0+
1*
0'
#35
1!
1'
#40
b1001000 "
b10110111 #
0!
16
15
12
10
0.
0-
0*
0(
0'
#45
1!
1'
#50
b10111000 "
b1001000 #
0$
0!
07
06
05
14
03
02
11
00
1+
1*
0)
1(
08
0'
1=
1>
0H
1?
0I
0J
b1110 %
0?
0>
0=
b0 %
#55
1!
1'
#60
b1010111 "
b10101000 #
1$
0!
12
01
10
1/
1.
1-
0,
0*
1)
0(
18
0'
1=
0G
1>
1?
1J
b1110 %
0?
1I
1<
0F
b11100 %
1;
0E
0>
1H
b111000 %
0=
1G
1:
0D
b1110000 %
19
0C
0<
1F
0A
0&
b11100000 %
0;
1E
b11000000 %
0:
1D
b10000000 %
09
1C
1A
1&
b0 %
#65
1!
1'
#70
b11100101 "
b11010 #
0!
16
13
02
00
0.
0+
1*
1(
0'
#75
1!
1'
#80
b10111101 "
b1000010 #
0!
04
03
11
1,
1+
0)
0'
#85
1!
1'
#90
b11011001 "
b100110 #
0!
15
12
01
0-
0*
1)
0'
#95
1!
1'
#100
b11100000 "
b11111 #
0!
17
14
13
02
0/
0,
0+
1*
0'
#105
1!
1'
#110
b11101010 "
b10110 #
0$
0!
07
04
1.
1,
08
0'
1?
0J
b10 %
0?
b0 %
#115
1!
1'
#120
b11110100 "
b1011 #
1$
0!
17
05
14
03
0.
1-
0,
1+
18
0'
1?
0I
1J
b10 %
0?
1I
1>
0H
b100 %
1=
0G
0>
1H
b1000 %
0=
1G
1<
0F
b10000 %
1;
0E
0<
1F
b100000 %
0;
1E
1:
0D
b1000000 %
19
0C
0:
1D
0A
0&
b10000000 %
09
1C
1A
1&
b0 %
#125
1!
1'
#130
b1100110 "
b10011010 #
0$
0!
07
13
10
1.
0+
0(
08
0'
1?
0J
b10 %
0?
b0 %
#135
1!
1'
#140
b10000110 "
b1111010 #
0!
12
11
00
0*
0)
1(
0'
#145
1!
1'
#150
b1010001 "
b10101110 #
1$
0!
15
03
01
10
1/
0.
0-
1+
1)
0(
18
0'
1?
0I
1J
b10 %
0?
1I
1>
0H
b100 %
1=
0G
0>
1H
b1000 %
0=
1G
1<
0F
b10000 %
1;
0E
0<
1F
b100000 %
0;
1E
1:
0D
b1000000 %
19
0C
0:
1D
0A
0&
b10000000 %
09
1C
1A
1&
b0 %
#155
1!
1'
#160
b110101 "
b11001011 #
0$
0!
17
05
02
11
1-
1*
0)
08
0'
#165
1!
1'
#170
b11010111 "
b101001 #
0!
06
12
01
00
1.
0*
1)
1(
0'
#175
1!
1'
#180
b101110 "
b11010010 #
0!
07
16
04
13
02
11
10
0/
1,
0+
1*
0)
0(
0'
1?
0J
b10 %
0?
b0 %
#185
1!
1'
#190
b110101 "
b11001010 #
1$
0!
14
03
1/
0.
0,
1+
18
0'
1?
0I
1J
b10 %
0?
1I
1>
0H
b100 %
1=
0G
0>
1H
b1000 %
0=
1G
1<
0F
b10000 %
1;
0E
0<
1F
b100000 %
0;
1E
1:
0D
b1000000 %
19
0C
0:
1D
0A
0&
b10000000 %
09
1C
1A
1&
b0 %
#195
1!
1'
#200
b11111001 "
b110 #
0!
15
04
01
00
0-
1,
1)
1(
0'
#205
1!
1'
#210
b11100100 "
b11011 #
0!
17
05
14
13
0/
1-
0,
0+
0'
#215
1!
1'
#220
b11101111 "
b10000 #
0!
07
06
04
1/
1.
1,
0'
#225
1!
1'
#230
b10100001 "
b1011111 #
0$
0!
17
16
15
14
11
0.
0-
0,
0)
08
0'
#235
1!
1'
#240
b10011010 "
b1100101 #
1$
0!
06
04
03
12
0/
1.
1,
1+
0*
18
0'
#245
1!
1'
#250
b111 "
b11111000 #
0!
07
05
14
13
10
1/
1-
0,
0+
0(
0'
#255
1!
1'
#260
b11101100 "
b10100 #
0$
0!
15
04
02
01
00
0/
0.
1,
1*
1)
1(
08
0'
1?
0I
0J
1>
b110 %
0?
0>
b0 %
#265
1!
1'
#270
b1001100 "
b10110011 #
1$
0!
17
16
05
12
10
0*
0(
18
0'
1>
0H
1?
1J
b110 %
0?
1I
1=
0G
b1100 %
1<
0F
0>
1H
b11000 %
0=
1G
1;
0E
b110000 %
1:
0D
0<
1F
b1100000 %
0;
1E
19
0C
0A
0&
b11000000 %
0:
1D
b10000000 %
09
1C
1A
1&
b0 %
#275
1!
1'
#280
b111110 "
b11000010 #
0$
0!
07
03
02
11
1.
1+
1*
0)
08
0'
1?
0J
b10 %
0?
b0 %
#285
1!
1'
#290
b1011010 "
b10100101 #
1$
0!
17
06
15
12
01
0-
0*
1)
18
0'
1?
0I
1J
b10 %
0?
1I
1>
0H
b100 %
1=
0G
0>
1H
b1000 %
0=
1G
1<
0F
b10000 %
1;
0E
0<
1F
b100000 %
0;
1E
1:
0D
b1000000 %
19
0C
0:
1D
0A
0&
b10000000 %
09
1C
1A
1&
b0 %
#295
1!
1'
#300
b111001 "
b11000111 #
0$
0!
16
02
11
1/
0.
1*
0)
08
0'
#305
1!
1'
#310
b110100 "
b11001100 #
0!
07
06
14
0/
1-
0,
0'
1>
1?
0I
0J
b110 %
0?
0>
b0 %
#315
1!
1'
#320
b10010110 "
b1101001 #
1$
0!
17
05
12
00
1.
0*
1(
18
0'
1?
1>
0H
1J
b110 %
0?
1I
1=
0G
b1100 %
1<
0F
0>
1H
b11000 %
0=
1G
1;
0E
b110000 %
1:
0D
0<
1F
b1100000 %
0;
1E
19
0C
0A
0&
b11000000 %
0:
1D
b10000000 %
09
1C
1A
1&
b0 %
#325
1!
1'
#330
b11010010 "
b101110 #
0$
0!
07
16
15
01
0-
1)
08
0'
1?
0J
b10 %
0?
b0 %
#335
1!
1'
#340
b11001011 "
b110101 #
0!
17
06
04
13
1/
1,
0+
0'
1?
0I
1J
b10 %
0?
1I
1>
0H
b100 %
1=
0G
0>
1H
b1000 %
0=
1G
1<
0F
b10000 %
1;
0E
0<
1F
b100000 %
0;
1E
1:
0D
b1000000 %
19
0C
0:
1D
0A
0&
b10000000 %
09
1C
1A
1&
b0 %
#345
1!
1'
#350
b0 "
b11111111 #
1$
0!
16
14
11
10
0/
0.
0,
0)
0(
18
0'
#355
1!
1'
#360
b10010110 "
b1101001 #
0!
06
05
03
00
1.
1-
1+
1(
0'
#365
1!
1'
#370
b11000011 "
b111101 #
0$
0!
15
13
01
1/
0-
0+
1)
08
0'
#375
1!
1'
#380
b1100010 "
b10011110 #
0!
07
16
02
10
0/
1*
0(
0'
1?
0J
b10 %
0?
b0 %
#385
1!
1'
#390
b11101111 "
b10000 #
1$
0!
06
05
04
00
1/
1-
1,
1(
18
0'
1J
1?
0I
b10 %
1>
0H
0?
1I
b100 %
0>
1H
1=
0G
b1000 %
1<
0F
0=
1G
b10000 %
0<
1F
1;
0E
b100000 %
1:
0D
0;
1E
b1000000 %
0:
1D
19
0C
0A
0&
b10000000 %
09
1C
1A
1&
b0 %
#395
1!
1'
#400
b1111 "
b11110000 #
0!
12
11
10
0*
0)
0(
0'
#405
1!
1'
#410
b1110111 "
b10001000 #
0!
14
03
02
01
0,
1+
1*
1)
0'
#415
1!
1'
#420
b10111110 "
b1000010 #
0$
0!
16
04
11
00
0/
1,
0)
1(
08
0'
0J
1?
b10 %
0?
b0 %
#425
1!
1'
#430
b10001101 "
b1110011 #
0!
17
13
12
1/
0.
0+
0*
0'
1?
0I
1J
b10 %
0?
1I
1>
0H
b100 %
1=
0G
0>
1H
b1000 %
0=
1G
1<
0F
b10000 %
1;
0E
0<
1F
b100000 %
0;
1E
1:
0D
b1000000 %
19
0C
0:
1D
0A
0&
b10000000 %
09
1C
1A
1&
b0 %
#435
1!
1'
#440
b111010 "
b11000101 #
1$
0!
06
15
03
02
10
0/
1.
0-
1+
1*
0(
18
0'
#445
1!
1'
#450
b101011 "
b11010100 #
0!
07
13
1/
0+
0'
#455
1!
1'
#460
b11010011 "
b101101 #
0$
0!
17
14
03
12
01
00
0,
1+
0*
1)
1(
08
0'
#465
1!
1'
#470
b10000 "
b11101111 #
1$
0!
16
11
10
0/
0.
0)
0(
18
0'
#475
1!
1'
#480
b11011011 "
b100100 #
0!
07
06
04
01
00
1/
1.
1,
1)
1(
0'
#485
1!
1'
#490
b1010111 "
b10101000 #
0!
05
14
10
1-
0,
0(
0'
#495
1!
1'
#500
b1100110 "
b10011010 #
0$
0!
16
13
02
0/
0+
1*
08
0'
0J
1?
b10 %
0?
b0 %
#505
1!
1'
#510
b10 "
b11111101 #
1$
0!
17
06
15
12
11
0-
0*
0)
18
0'
1?
0I
1J
b10 %
0?
1I
1>
0H
b100 %
1=
0G
0>
1H
b1000 %
0=
1G
1<
0F
b10000 %
1;
0E
0<
1F
b100000 %
0;
1E
1:
0D
b1000000 %
19
0C
0:
1D
0A
0&
b10000000 %
09
1C
1A
1&
b0 %
#515
1!
1'
#520
b101100 "
b11010100 #
0$
0!
07
04
02
0.
1-
1,
1*
08
0'
1>
1?
0I
0J
b110 %
0?
0>
b0 %
#525
1!
1'
#530
b1111110 "
b10000010 #
0!
16
05
03
01
1.
1+
1)
0'
1>
0H
1I
b100 %
0>
1H
1=
0G
b1000 %
1<
0F
0=
1G
b10000 %
0<
1F
1;
0E
b100000 %
1:
0D
0;
1E
b1000000 %
0:
1D
19
0C
0A
0&
b10000000 %
09
1C
1A
1&
b0 %
#535
1!
1'
#540
b1000 "
b11111000 #
0!
06
14
13
12
11
0.
0-
0+
0*
0)
0'
1>
0H
1=
0I
b1100 %
0>
0=
b0 %
#545
1!
1'
#550
b11110100 "
b1100 #
0!
15
03
02
01
00
1-
0,
1+
1*
1)
1(
0'
1=
0G
1H
b1000 %
0=
1G
1<
0F
b10000 %
1;
0E
0<
1F
b100000 %
0;
1E
1:
0D
b1000000 %
19
0C
0:
1D
0A
0&
b10000000 %
09
1C
1A
1&
b0 %
#555
1!
1'
#560
b1110000 "
b10001111 #
1$
0!
17
16
10
0-
0(
18
0'
1>
0H
1?
1J
b110 %
0?
1I
1=
0G
b1100 %
1<
0F
0>
1H
b11000 %
0=
1G
1;
0E
b110000 %
1:
0D
0<
1F
b1100000 %
0;
1E
19
0C
0A
0&
b11000000 %
0:
1D
b10000000 %
09
1C
1A
1&
b0 %
#565
1!
1'
#570
b10000100 "
b1111100 #
0$
0!
07
06
13
12
11
00
1-
0+
0*
0)
1(
08
0'
1>
1?
0I
0J
b110 %
0?
0>
b0 %
#575
1!
1'
#580
b11110110 "
b1010 #
0!
16
05
03
02
01
1.
1+
1*
1)
0'
1>
0H
1I
b100 %
0>
1H
1=
0G
b1000 %
1<
0F
0=
1G
b10000 %
0<
1F
1;
0E
b100000 %
1:
0D
0;
1E
b1000000 %
0:
1D
19
0C
0A
0&
b10000000 %
09
1C
1A
1&
b0 %
#585
1!
1'
#590
b10 "
b11111110 #
0!
15
13
12
11
10
0-
0+
0*
0)
0(
0'
#595
1!
1'
#600
b10001101 "
b1110011 #
0!
17
05
04
00
1/
0.
1-
1,
1(
0'
1?
0I
1J
b10 %
0?
1I
1>
0H
b100 %
1=
0G
0>
1H
b1000 %
0=
1G
1<
0F
b10000 %
1;
0E
0<
1F
b100000 %
0;
1E
1:
0D
b1000000 %
19
0C
0:
1D
0A
0&
b10000000 %
09
1C
1A
1&
b0 %
#605
1!
1'
#610
b101101 "
b11010011 #
0!
02
10
1*
0(
0'
#615
1!
1'
#620
b1001 "
b11110111 #
0!
15
12
0-
0*
0'
#625
1!
1'
#630
b11011101 "
b100010 #
1$
0!
07
05
03
01
00
1-
1+
1)
1(
18
0'
#635
1!
1'
#640
b100111 "
b11011000 #
0!
06
14
13
02
11
10
1.
0,
0+
1*
0)
0(
0'
#645
1!
1'
#650
b1011110 "
b10100001 #
0!
17
04
03
12
01
0/
1,
1+
0*
1)
0'
#655
1!
1'
#660
b11110011 "
b1101 #
0$
0!
15
14
02
00
1/
0-
0,
1*
1(
08
0'
#665
1!
1'
#670
b11000 "
b11100111 #
1$
0!
16
04
12
11
10
0/
0.
1,
0*
0)
0(
18
0'
#675
1!
1'
#680
b10000100 "
b1111011 #
0!
05
14
13
00
1-
0,
0+
1(
0'
#685
1!
1'
#690
b1000110 "
b10111010 #
0$
0!
07
01
10
1.
1)
0(
08
0'
1?
0J
b10 %
0?
b0 %
#695
1!
1'
#700
b11110000 "
b1111 #
1$
0!
17
15
03
02
00
0.
0-
1+
1*
1(
18
0'
1?
0I
1J
b10 %
0?
1I
1>
0H
b100 %
1=
0G
0>
1H
b1000 %
0=
1G
1<
0F
b10000 %
1;
0E
0<
1F
b100000 %
0;
1E
1:
0D
b1000000 %
19
0C
0:
1D
0A
0&
b10000000 %
09
1C
1A
1&
b0 %
#705
1!
1'
#710
b11001 "
b11100111 #
0$
0!
04
12
11
10
1/
1,
0*
0)
0(
08
0'
#715
1!
1'
#720
b1111101 "
b10000010 #
1$
0!
07
05
02
01
1-
1*
1)
18
0'
#725
1!
1'
#730
b10010010 "
b1101110 #
0$
0!
15
14
12
11
00
0/
1.
0-
0,
0*
0)
1(
08
0'
1?
0J
b10 %
0?
b0 %
#735
1!
1'
#740
b10011001 "
b1100110 #
1$
0!
04
1/
0.
1,
18
0'
1?
0I
1J
b10 %
0?
1I
1>
0H
b100 %
1=
0G
0>
1H
b1000 %
0=
1G
1<
0F
b10000 %
1;
0E
0<
1F
b100000 %
0;
1E
1:
0D
b1000000 %
19
0C
0:
1D
0A
0&
b10000000 %
09
1C
1A
1&
b0 %
#745
1!
1'
#750
b1 "
b11111110 #
0!
14
13
10
0,
0+
0(
0'
#755
1!
1'
#760
b101011 "
b11010101 #
0$
0!
17
06
04
02
1.
1,
1*
08
0'
#765
1!
1'
#770
b11000010 "
b111110 #
0!
07
16
14
12
01
00
0/
0,
0*
1)
1(
0'
1?
0J
b10 %
0?
b0 %
#775
1!
1'
#780
b10111110 "
b1000010 #
0!
05
04
03
02
11
1-
1,
1+
1*
0)
0'
#785
1!
1'
#790
b10111101 "
b1000011 #
0!
17
1/
0.
0'
1?
0I
1J
b10 %
0?
1I
1>
0H
b100 %
1=
0G
0>
1H
b1000 %
0=
1G
1<
0F
b10000 %
1;
0E
0<
1F
b100000 %
0;
1E
1:
0D
b1000000 %
19
0C
0:
1D
0A
0&
b10000000 %
09
1C
1A
1&
b0 %
#795
1!
1'
#800
b1100101 "
b10011010 #
1$
0!
07
14
13
01
10
0,
0+
1)
0(
18
0'
#805
1!
1'
#810
b10000001 "
b1111110 #
0!
15
12
11
00
0-
0*
0)
1(
0'
#815
1!
1'
#820
b11001111 "
b110000 #
0!
06
05
04
01
1.
1-
1,
1)
0'
#825
1!
1'
#830
b1010011 "
b10101100 #
0!
15
14
03
10
0-
0,
1+
0(
0'
#835
1!
1'
#840
b10110001 "
b1001110 #
0!
16
02
11
00
0.
1*
0)
1(
0'
#845
1!
1'
#850
b10101101 "
b1010011 #
0$
0!
17
05
04
13
1-
1,
0+
08
0'
#855
1!
1'
#860
b1101101 "
b10010011 #
0!
01
10
1)
0(
0'
#865
1!
1'
#870
b11111100 "
b11 #
1$
0!
03
00
0/
1+
1(
18
0'
#875
1!
1'
#880
b11011000 "
b100111 #
0!
15
12
0-
0*
0'
#885
1!
1'
#890
b11011110 "
b100001 #
0!
06
05
1.
1-
0'
#895
1!
1'
#900
b110101 "
b11001011 #
0$
0!
16
14
02
11
10
1/
0.
0,
1*
0)
0(
08
0'
#905
1!
1'
#910
b11101100 "
b10100 #
0!
07
06
15
04
13
01
00
0/
1,
0+
1)
1(
0'
1>
1?
0I
0J
b110 %
0?
0>
b0 %
#915
1!
1'
#920
b1000100 "
b10111100 #
0!
14
12
10
0,
0*
0(
0'
#925
1!
1'
#930
b1110110 "
b10001010 #
0!
16
05
03
02
1.
1+
1*
0'
1>
0H
1I
b100 %
0>
1H
1=
0G
b1000 %
1<
0F
0=
1G
b10000 %
0<
1F
1;
0E
b100000 %
1:
0D
0;
1E
b1000000 %
0:
1D
19
0C
0A
0&
b10000000 %
09
1C
1A
1&
b0 %
#935
1!
1'
#940
b11000110 "
b111001 #
1$
0!
17
06
13
12
00
0+
0*
1(
18
0'
1?
0I
1J
b10 %
0?
1I
1>
0H
b100 %
1=
0G
0>
1H
b1000 %
0=
1G
1<
0F
b10000 %
1;
0E
0<
1F
b100000 %
0;
1E
1:
0D
b1000000 %
19
0C
0:
1D
0A
0&
b10000000 %
09
1C
1A
1&
b0 %
#945
1!
1'
#950
b10110001 "
b1001111 #
0$
0!
16
15
03
02
11
1/
0.
0-
1+
1*
0)
08
0'
#955
1!
1'
#960
b11111010 "
b101 #
1$
0!
06
04
01
0/
1.
1,
1)
18
0'
#965
1!
1'
#970
b1101111 "
b10010001 #
0$
0!
05
13
10
1/
1-
0+
0(
08
0'
#975
1!
1'
#980
b10100101 "
b1011010 #
1$
0!
07
16
14
11
00
0.
0,
0)
1(
18
0'
#985
1!
1'
#990
b1110011 "
b10001100 #
0!
06
15
03
01
10
1.
0-
1+
1)
0(
0'
#995
1!
1'
#1000
b11011101 "
b100011 #
0$
0!
17
16
05
04
12
00
0.
1-
1,
0*
1(
08
0'
#1005
1!
1'
#1010
b10000100 "
b1111011 #
1$
0!
14
13
11
0/
0,
0+
0)
18
0'
#1015
1!
1'
#1020
b10010111 "
b1101000 #
0!
07
06
03
1/
1.
1+
0'
#1025
1!
1'
#1030
b10000110 "
b1111010 #
0$
0!
16
13
0/
0+
08
0'
0J
1?
b10 %
0?
b0 %
#1035
1!
1'
#1040
b1100010 "
b10011110 #
0!
15
02
01
10
0-
1*
1)
0(
0'
#1045
1!
1'
#1050
b1100111 "
b10011001 #
0!
17
06
05
1/
1-
0'
1?
0I
1J
b10 %
0?
1I
1>
0H
b100 %
1=
0G
0>
1H
b1000 %
0=
1G
1<
0F
b10000 %
1;
0E
0<
1F
b100000 %
0;
1E
1:
0D
b1000000 %
19
0C
0:
1D
0A
0&
b10000000 %
09
1C
1A
1&
b0 %
#1055
1!
1'
#1060
b1001100 "
b10110011 #
1$
0!
16
04
12
0/
0.
1,
0*
18
0'
#1065
1!
1'
#1070
b10100111 "
b1011001 #
0$
0!
06
14
02
11
00
1/
1.
0,
1*
0)
1(
08
0'
#1075
1!
1'
#1080
b1000111 "
b10111001 #
0!
12
01
10
0*
1)
0(
0'
#1085
1!
1'
#1090
b1100100 "
b10011011 #
1$
0!
16
02
0/
0.
1*
18
0'
#1095
1!
1'
#1100
b1100101 "
0$
0!
1/
08
0'
#1105
1!
1'
#1110
b1010101 "
b10101011 #
0!
03
12
1+
0*
0'
#1115
1!
1'
#1120
b110000 "
b11001111 #
1$
0!
15
02
11
0/
0-
1*
0)
18
0'
#1125
1!
1'
#1130
b1100 "
b11110011 #
0!
05
04
13
12
1-
1,
0+
0*
0'
#1135
1!
1'
#1140
b11110111 "
b1000 #
0!
07
06
14
03
02
01
00
1/
1.
0,
1+
1*
1)
1(
0'
#1145
1!
1'
#1150
b10111101 "
b1000011 #
0$
0!
17
16
04
11
0.
1,
0)
08
0'
#1155
1!
1'
#1160
b11101101 "
b10011 #
0!
13
01
0+
1)
0'
#1165
1!
1'
#1170
b10101010 "
b1010101 #
1$
0!
06
15
11
0/
1.
0-
0)
18
0'
#1175
1!
1'
#1180
b1000111 "
b10111000 #
0!
07
05
14
12
01
10
1/
1-
0,
0*
1)
0(
0'
#1185
1!
1'
#1190
b10100011 "
b1011101 #
0$
0!
17
15
02
11
00
0-
1*
0)
1(
08
0'
#1195
1!
1'
#1200
b10111000 "
b1001000 #
0!
07
05
03
0/
0.
1,
1+
0'
1=
1?
0I
1>
0H
0J
b1110 %
0?
0=
0>
b0 %
#1205
1!
1'
#1210
b10101111 "
b1010000 #
1$
0!
04
13
1/
1.
1-
0+
18
0'
1>
1?
1J
1=
0G
b1110 %
1<
0F
0?
1I
b11100 %
0>
1H
1;
0E
b111000 %
1:
0D
0=
1G
b1110000 %
0<
1F
19
0C
0A
0&
b11100000 %
0;
1E
b11000000 %
0:
1D
b10000000 %
09
1C
1A
1&
b0 %
#1215
1!
1'
#1220
b1 "
b11111111 #
0$
0!
17
16
15
14
12
10
0.
0-
0,
0*
0(
08
0'
#1225
1!
1'
#1230
b10011000 "
b1101000 #
0!
07
06
05
03
00
0/
1,
1+
1(
0'
1=
1>
0H
1?
0I
0J
b1110 %
0?
0>
0=
b0 %
#1235
1!
1'
#1240
b10101 "
b11101010 #
1$
0!
16
10
1/
1-
0,
0(
18
0'
1=
0G
1>
1J
1?
b1110 %
0?
1I
1<
0F
b11100 %
1;
0E
0>
1H
b111000 %
0=
1G
1:
0D
b1110000 %
19
0C
0<
1F
0A
0&
b11100000 %
0;
1E
b11000000 %
0:
1D
b10000000 %
09
1C
1A
1&
b0 %
#1245
1!
1'
#1250
b1100100 "
b10011011 #
0!
17
13
02
01
0/
0+
1*
1)
0'
#1255
1!
1'
#1260
b10000000 "
b10000000 #
0$
0!
07
06
04
03
0-
0*
0)
1(
08
0'
19
1:
0D
1;
0E
1>
0H
1<
0F
1=
0G
1?
0I
0J
b11111110 %
0?
0>
0<
0;
0=
0:
09
b0 %
#1265
1!
1'
#1270
b11010 "
b11100101 #
1$
0!
17
15
12
11
1.
1,
1+
0(
18
0'
19
0C
1<
1=
1?
1:
1;
1>
1J
0A
0&
b11111110 %
0?
1I
b11111100 %
0>
1H
b11111000 %
0=
1G
b11110000 %
0<
1F
b11100000 %
0;
1E
b11000000 %
0:
1D
b10000000 %
09
1C
1A
1&
b0 %
#1275
1!
1'
#1280
b11110011 "
b1100 #
0!
07
14
02
01
00
1/
0,
1*
1)
1(
0'
#1285
1!
1'
#1290
b10101001 "
b1010110 #
0!
16
04
13
11
0.
1,
0+
0)
0'
#1295
1!
1'
#1300
b100010 "
b11011110 #
0$
0!
14
10
0/
1.
0,
0(
08
0'
1?
0J
b10 %
0?
b0 %
#1305
1!
1'
#1310
b10100 "
b11101011 #
1$
0!
17
05
03
12
0.
1-
1+
0*
18
0'
1?
0I
1J
b10 %
0?
1I
1>
0H
b100 %
1=
0G
0>
1H
b1000 %
0=
1G
1<
0F
b10000 %
1;
0E
0<
1F
b100000 %
0;
1E
1:
0D
b1000000 %
19
0C
0:
1D
0A
0&
b10000000 %
09
1C
1A
1&
b0 %
#1315
1!
1'
#1320
b11011000 "
b100111 #
0!
15
04
01
00
0-
1,
1)
1(
0'
#1325
1!
1'
#1330
b11000 "
b11100111 #
0!
11
10
0)
0(
0'
#1335
1!
1'
#1340
b1101010 "
b10010110 #
0$
0!
07
13
02
01
1.
0+
1*
1)
08
0'
1?
0J
b10 %
0?
b0 %
#1345
1!
1'
#1350
b11101000 "
b11000 #
0!
06
05
14
00
0.
1(
0'
1=
1>
0H
0I
b1100 %
0>
0=
b0 %
#1355
1!
1'
#1360
b1011111 "
b10100000 #
1$
0!
04
03
12
10
1/
1.
1-
1+
0*
0(
18
0'
1>
1?
1J
1=
0G
b1110 %
1<
0F
0?
1I
b11100 %
0>
1H
1;
0E
b111000 %
1:
0D
0=
1G
b1110000 %
0<
1F
19
0C
0A
0&
b11100000 %
0;
1E
b11000000 %
0:
1D
b10000000 %
09
1C
1A
1&
b0 %
#1365
1!
1'
#1370
b1011001 "
b10100111 #
0$
0!
17
16
15
0.
0-
08
0'
#1375
1!
1'
#1380
b11110001 "
b1110 #
1$
0!
07
14
02
00
0,
1*
1(
18
0'
#1385
1!
1'
#1390
b1111111 "
b10000000 #
0!
06
05
04
10
1.
1-
1,
0(
0'
#1395
1!
1'
#1400
b1010111 "
b10101001 #
0$
0!
17
14
12
0,
0*
08
0'
#1405
1!
1'
#1410
b11011001 "
b100111 #
0!
16
15
04
00
0.
0-
1,
1(
0'
#1415
1!
1'
#1420
b1110001 "
b10001111 #
0!
14
02
10
0,
1*
0(
0'
#1425
1!
1'
#1430
b1010010 "
b10101110 #
0!
07
12
0/
1.
0*
0'
1?
0J
b10 %
0?
b0 %
#1435
1!
1'
#1440
b11100111 "
b11000 #
1$
0!
06
05
13
02
00
1/
1-
0+
1*
1(
18
0'
1J
1?
0I
b10 %
1>
0H
0?
1I
b100 %
0>
1H
1=
0G
b1000 %
1<
0F
0=
1G
b10000 %
0<
1F
1;
0E
b100000 %
1:
0D
0;
1E
b1000000 %
0:
1D
19
0C
0A
0&
b10000000 %
09
1C
1A
1&
b0 %
#1445
1!
1'
#1450
b10011111 "
b1100000 #
0!
04
03
12
11
1,
1+
0*
0)
0'
#1455
1!
1'
#1460
b1100011 "
b10011100 #
0!
15
14
13
02
01
10
0-
0,
0+
1*
1)
0(
0'
#1465
1!
1'
#1470
b10000101 "
b1111011 #
0$
0!
17
16
05
12
11
00
0.
1-
0*
0)
1(
08
0'
#1475
1!
1'
#1480
b10111100 "
b1000100 #
0!
07
06
15
04
03
02
0/
1,
1+
1*
0'
1>
1?
0I
0J
b110 %
0?
0>
b0 %
#1485
1!
1'
#1490
b10110 "
b11101001 #
1$
0!
17
05
14
12
10
1.
0,
0*
0(
18
0'
1?
1>
0H
1J
b110 %
0?
1I
1=
0G
b1100 %
1<
0F
0>
1H
b11000 %
0=
1G
1;
0E
b110000 %
1:
0D
0<
1F
b1100000 %
0;
1E
19
0C
0A
0&
b11000000 %
0:
1D
b10000000 %
09
1C
1A
1&
b0 %
#1495
1!
1'
#1500
b1111010 "
b10000110 #
0$
0!
07
16
15
04
02
01
0-
1,
1*
1)
08
0'
1?
0J
b10 %
0?
b0 %
#1505
1!
1'
#1510
b10111000 "
b1000111 #
1$
0!
17
11
00
0.
0)
1(
18
0'
1?
0I
1J
b10 %
0?
1I
1>
0H
b100 %
1=
0G
0>
1H
b1000 %
0=
1G
1<
0F
b10000 %
1;
0E
0<
1F
b100000 %
0;
1E
1:
0D
b1000000 %
19
0C
0:
1D
0A
0&
b10000000 %
09
1C
1A
1&
b0 %
#1515
1!
1'
#1520
b1000010 "
b10111110 #
0$
0!
07
14
13
12
01
10
1.
0,
0+
0*
1)
0(
08
0'
1?
0J
b10 %
0?
b0 %
#1525
1!
1'
#1530
b11010000 "
b101111 #
1$
0!
17
03
00
0.
1+
1(
18
0'
1?
0I
1J
b10 %
0?
1I
1>
0H
b100 %
1=
0G
0>
1H
b1000 %
0=
1G
1<
0F
b10000 %
1;
0E
0<
1F
b100000 %
0;
1E
1:
0D
b1000000 %
19
0C
0:
1D
0A
0&
b10000000 %
09
1C
1A
1&
b0 %
#1535
1!
1'
