Designs/mutex/hif/injected/build/traces/golden.vcd
$date
    Mar 24, 2025 01:33:52
$end
$version
    Tracer 3.0.0 - By Enrico Fraccaroli <enry.frak@gmail.com> --- 2022/02/15
$end
$timescale
    1ns
$end
$scope module mutex_bench $end
$scope module mutexf_ $end
    $var wire 1 ;0 clk $end
    $var wire 1 ;1 in $end
    $var wire 1 ;2 positive_flag $end
    $var wire 1 ;3 negative_flag $end
$upscope $end
$upscope $end
$enddefinitions $end
#0
$dumpvars
1;0
0;1
0;2
0;3
$end
#1
0;0
1;1
#2
1;0
1;2
#3
0;0
0;1
#4
1;0
0;2
#5
0;0
1;1
#6
1;0
1;2
#7
0;0
#8
1;0
#9
0;0
#10
1;0
#11
0;0
#12
1;0
#13
0;0
0;1
#14
1;0
0;2
#15
0;0
#16
1;0
#17
0;0
1;1
#18
1;0
1;2
#19
0;0
#20
1;0
#21
0;0
0;1
#22
1;0
0;2
#23
0;0
1;1
#24
1;0
1;2
#25
0;0
0;1
#26
1;0
0;2
#27
0;0
1;1
#28
1;0
1;2
#29
0;0
#30
1;0
#31
0;0
0;1
#32
1;0
0;2
#33
0;0
#34
1;0
#35
0;0
#36
1;0
#37
0;0
#38
1;0
#39
0;0
#40
1;0
#41
0;0
1;1
#42
1;0
1;2
#43
0;0
0;1
#44
1;0
0;2
#45
0;0
1;1
#46
1;0
1;2
#47
0;0
#48
1;0
#49
0;0
0;1
#50
1;0
0;2
#51
0;0
#52
1;0
#53
0;0
#54
1;0
#55
0;0
1;1
#56
1;0
1;2
#57
0;0
#58
1;0
#59
0;0
#60
1;0
#61
0;0
#62
1;0
#63
0;0
0;1
#64
1;0
0;2
#65
0;0
#66
1;0
#67
0;0
#68
1;0
#69
0;0
1;1
#70
1;0
1;2
#71
0;0
#72
1;0
#73
0;0
#74
1;0
#75
0;0
0;1
#76
1;0
0;2
#77
0;0
1;1
#78
1;0
1;2
#79
0;0
0;1
#80
1;0
0;2
#81
0;0
1;1
#82
1;0
1;2
#83
0;0
#84
1;0
#85
0;0
#86
1;0
#87
0;0
#88
1;0
#89
0;0
0;1
#90
1;0
0;2
#91
0;0
1;1
#92
1;0
1;2
#93
0;0
0;1
#94
1;0
0;2
#95
0;0
#96
1;0
#97
0;0
1;1
#98
1;0
1;2
#99
0;0
0;1
#100
1;0
0;2
#101
0;0
1;1
#102
1;0
1;2
#103
0;0
0;1
#104
1;0
0;2
#105
0;0
1;1
#106
1;0
1;2
#107
0;0
0;1
#108
1;0
0;2
#109
0;0
#110
1;0
#111
0;0
1;1
#112
1;0
1;2
#113
0;0
0;1
#114
1;0
0;2
#115
0;0
#116
1;0
#117
0;0
#118
1;0
#119
0;0
1;1
#120
1;0
1;2
#121
0;0
#122
1;0
#123
0;0
#124
1;0
#125
0;0
0;1
#126
1;0
0;2
#127
0;0
1;1
#128
1;0
1;2
#129
0;0
0;1
#130
1;0
0;2
#131
0;0
1;1
#132
1;0
1;2
#133
0;0
0;1
#134
1;0
0;2
#135
0;0
1;1
#136
1;0
1;2
#137
0;0
#138
1;0
#139
0;0
#140
1;0
#141
0;0
0;1
#142
1;0
0;2
#143
0;0
1;1
#144
1;0
1;2
#145
0;0
0;1
#146
1;0
0;2
#147
0;0
1;1
#148
1;0
1;2
#149
0;0
0;1
#150
1;0
0;2
#151
0;0
1;1
#152
1;0
1;2
#153
0;0
0;1
#154
1;0
0;2
#155
0;0
#156
1;0
#157
0;0
1;1
#158
1;0
1;2
#159
0;0
0;1
#160
1;0
0;2
#161
0;0
1;1
#162
1;0
1;2
#163
0;0
0;1
#164
1;0
0;2
#165
0;0
#166
1;0
#167
0;0
#168
1;0
#169
0;0
#170
1;0
#171
0;0
#172
1;0
#173
0;0
1;1
#174
1;0
1;2
#175
0;0
#176
1;0
#177
0;0
0;1
#178
1;0
0;2
#179
0;0
1;1
#180
1;0
1;2
#181
0;0
0;1
#182
1;0
0;2
#183
0;0
#184
1;0
#185
0;0
#186
1;0
#187
0;0
#188
1;0
#189
0;0
1;1
#190
1;0
1;2
#191
0;0
0;1
#192
1;0
0;2
#193
0;0
#194
1;0
#195
0;0
#196
1;0
#197
0;0
#198
1;0
#199
0;0
1;1
#200
1;0
1;2
#201
0;0
#202
1;0
#203
0;0
0;1
#204
1;0
0;2
#205
0;0
#206
1;0
#207
0;0
#208
1;0
#209
0;0
1;1
#210
1;0
1;2
#211
0;0
#212
1;0
#213
0;0
#214
1;0
#215
0;0
0;1
#216
1;0
0;2
#217
0;0
1;1
#218
1;0
1;2
#219
0;0
0;1
#220
1;0
0;2
#221
0;0
#222
1;0
#223
0;0
#224
1;0
#225
0;0
1;1
#226
1;0
1;2
#227
0;0
0;1
#228
1;0
0;2
#229
0;0
#230
1;0
#231
0;0
1;1
#232
1;0
1;2
#233
0;0
#234
1;0
#235
0;0
#236
1;0
#237
0;0
0;1
#238
1;0
0;2
#239
0;0
1;1
#240
1;0
1;2
#241
0;0
0;1
#242
1;0
0;2
#243
0;0
1;1
#244
1;0
1;2
#245
0;0
#246
1;0
#247
0;0
#248
1;0
#249
0;0
#250
1;0
#251
0;0
#252
1;0
#253
0;0
#254
1;0
#255
0;0
#256
1;0
#257
0;0
#258
1;0
#259
0;0
#260
1;0
#261
0;0
#262
1;0
#263
0;0
0;1
#264
1;0
0;2
#265
0;0
1;1
#266
1;0
1;2
#267
0;0
#268
1;0
#269
0;0
0;1
#270
1;0
0;2
#271
0;0
1;1
#272
1;0
1;2
#273
0;0
0;1
#274
1;0
0;2
#275
0;0
1;1
#276
1;0
1;2
#277
0;0
#278
1;0
#279
0;0
0;1
#280
1;0
0;2
#281
0;0
#282
1;0
#283
0;0
1;1
#284
1;0
1;2
#285
0;0
0;1
#286
1;0
0;2
#287
0;0
1;1
#288
1;0
1;2
#289
0;0
#290
1;0
#291
0;0
#292
1;0
#293
0;0
0;1
#294
1;0
0;2
#295
0;0
#296
1;0
#297
0;0
#298
1;0
#299
0;0
1;1
#300
1;0
1;2
#301
0;0
0;1
#302
1;0
0;2
#303
0;0
1;1
#304
1;0
1;2
#305
0;0
0;1
#306
1;0
0;2
#307
0;0
1;1
#308
1;0
1;2
#309
0;0
0;1
#310
1;0
0;2
#311
0;0
1;1
#312
1;0
1;2
#313
0;0
0;1
#314
1;0
0;2
#315
0;0
1;1
#316
1;0
1;2
#317
0;0
#318
1;0
#319
0;0
#320
1;0
#321
0;0
#322
1;0
#323
0;0
0;1
#324
1;0
0;2
#325
0;0
#326
1;0
#327
0;0
#328
1;0
#329
0;0
1;1
#330
1;0
1;2
#331
0;0
0;1
#332
1;0
0;2
#333
0;0
1;1
#334
1;0
1;2
#335
0;0
0;1
#336
1;0
0;2
#337
0;0
#338
1;0
#339
0;0
#340
1;0
#341
0;0
#342
1;0
#343
0;0
#344
1;0
#345
0;0
1;1
#346
1;0
1;2
#347
0;0
0;1
#348
1;0
0;2
#349
0;0
1;1
#350
1;0
1;2
#351
0;0
#352
1;0
#353
0;0
#354
1;0
#355
0;0
#356
1;0
#357
0;0
#358
1;0
#359
0;0
0;1
#360
1;0
0;2
#361
0;0
#362
1;0
#363
0;0
1;1
#364
1;0
1;2
#365
0;0
#366
1;0
#367
0;0
0;1
#368
1;0
0;2
#369
0;0
1;1
#370
1;0
1;2
#371
0;0
#372
1;0
#373
0;0
0;1
#374
1;0
0;2
#375
0;0
1;1
#376
1;0
1;2
#377
0;0
0;1
#378
1;0
0;2
#379
0;0
1;1
#380
1;0
1;2
#381
0;0
#382
1;0
#383
0;0
#384
1;0
#385
0;0
#386
1;0
#387
0;0
#388
1;0
#389
0;0
0;1
#390
1;0
0;2
#391
0;0
#392
1;0
#393
0;0
1;1
#394
1;0
1;2
#395
0;0
#396
1;0
#397
0;0
0;1
#398
1;0
0;2
#399
0;0
1;1
#400
1;0
1;2
#401
0;0
0;1
#402
1;0
0;2
#403
0;0
#404
1;0
#405
0;0
1;1
#406
1;0
1;2
#407
0;0
#408
1;0
#409
0;0
#410
1;0
#411
0;0
0;1
#412
1;0
0;2
#413
0;0
#414
1;0
#415
0;0
#416
1;0
#417
0;0
#418
1;0
#419
0;0
#420
1;0
#421
0;0
#422
1;0
#423
0;0
#424
1;0
#425
0;0
1;1
#426
1;0
1;2
#427
0;0
#428
1;0
#429
0;0
#430
1;0
#431
0;0
0;1
#432
1;0
0;2
#433
0;0
#434
1;0
#435
0;0
1;1
#436
1;0
1;2
#437
0;0
0;1
#438
1;0
0;2
#439
0;0
1;1
#440
1;0
1;2
#441
0;0
0;1
#442
1;0
0;2
#443
0;0
1;1
#444
1;0
1;2
#445
0;0
0;1
#446
1;0
0;2
#447
0;0
1;1
#448
1;0
1;2
#449
0;0
0;1
#450
1;0
0;2
#451
0;0
#452
1;0
#453
0;0
1;1
#454
1;0
1;2
#455
0;0
#456
1;0
#457
0;0
0;1
#458
1;0
0;2
#459
0;0
#460
1;0
#461
0;0
1;1
#462
1;0
1;2
#463
0;0
0;1
#464
1;0
0;2
#465
0;0
#466
1;0
#467
0;0
#468
1;0
#469
0;0
1;1
#470
1;0
1;2
#471
0;0
#472
1;0
#473
0;0
#474
1;0
#475
0;0
0;1
#476
1;0
0;2
#477
0;0
#478
1;0
#479
0;0
1;1
#480
1;0
1;2
#481
0;0
0;1
#482
1;0
0;2
#483
0;0
#484
1;0
#485
0;0
1;1
#486
1;0
1;2
#487
0;0
#488
1;0
#489
0;0
0;1
#490
1;0
0;2
#491
0;0
#492
1;0
#493
0;0
#494
1;0
#495
0;0
#496
1;0
#497
0;0
1;1
#498
1;0
1;2
#499
0;0
0;1
#500
1;0
0;2
#501
0;0
1;1
#502
1;0
1;2
#503
0;0
#504
1;0
#505
0;0
#506
1;0
#507
0;0
0;1
#508
1;0
0;2
#509
0;0
#510
1;0
#511
0;0
1;1
#512
1;0
1;2
#513
0;0
0;1
#514
1;0
0;2
#515
0;0
#516
1;0
#517
0;0
#518
1;0
#519
0;0
#520
1;0
#521
0;0
#522
1;0
#523
0;0
1;1
#524
1;0
1;2
#525
0;0
0;1
#526
1;0
0;2
#527
0;0
#528
1;0
#529
0;0
#530
1;0
#531
0;0
#532
1;0
#533
0;0
#534
1;0
#535
0;0
1;1
#536
1;0
1;2
#537
0;0
0;1
#538
1;0
0;2
#539
0;0
#540
1;0
#541
0;0
#542
1;0
#543
0;0
#544
1;0
#545
0;0
#546
1;0
#547
0;0
1;1
#548
1;0
1;2
#549
0;0
#550
1;0
#551
0;0
0;1
#552
1;0
0;2
#553
0;0
#554
1;0
#555
0;0
1;1
#556
1;0
1;2
#557
0;0
#558
1;0
#559
0;0
#560
1;0
#561
0;0
#562
1;0
#563
0;0
0;1
#564
1;0
0;2
#565
0;0
1;1
#566
1;0
1;2
#567
0;0
0;1
#568
1;0
0;2
#569
0;0
#570
1;0
#571
0;0
1;1
#572
1;0
1;2
#573
0;0
#574
1;0
#575
0;0
#576
1;0
#577
0;0
#578
1;0
#579
0;0
0;1
#580
1;0
0;2
#581
0;0
1;1
#582
1;0
1;2
#583
0;0
#584
1;0
#585
0;0
#586
1;0
#587
0;0
0;1
#588
1;0
0;2
#589
0;0
#590
1;0
#591
0;0
1;1
#592
1;0
1;2
#593
0;0
0;1
#594
1;0
0;2
#595
0;0
#596
1;0
#597
0;0
#598
1;0
#599
0;0
#600
1;0
#601
0;0
#602
1;0
#603
0;0
#604
1;0
#605
0;0
#606
1;0
#607
0;0
#608
1;0
#609
0;0
#610
1;0
#611
0;0
1;1
#612
1;0
1;2
#613
0;0
#614
1;0
#615
0;0
0;1
#616
1;0
0;2
#617
0;0
1;1
#618
1;0
1;2
#619
0;0
0;1
#620
1;0
0;2
#621
0;0
1;1
#622
1;0
1;2
#623
0;0
0;1
#624
1;0
0;2
#625
0;0
#626
1;0
#627
0;0
#628
1;0
#629
0;0
1;1
#630
1;0
1;2
#631
0;0
#632
1;0
#633
0;0
0;1
#634
1;0
0;2
#635
0;0
#636
1;0
#637
0;0
#638
1;0
#639
0;0
1;1
#640
1;0
1;2
#641
0;0
0;1
#642
1;0
0;2
#643
0;0
1;1
#644
1;0
1;2
#645
0;0
#646
1;0
#647
0;0
0;1
#648
1;0
0;2
#649
0;0
1;1
#650
1;0
1;2
#651
0;0
#652
1;0
#653
0;0
#654
1;0
#655
0;0
#656
1;0
#657
0;0
#658
1;0
#659
0;0
0;1
#660
1;0
0;2
#661
0;0
1;1
#662
1;0
1;2
#663
0;0
#664
1;0
#665
0;0
0;1
#666
1;0
0;2
#667
0;0
1;1
#668
1;0
1;2
#669
0;0
#670
1;0
#671
0;0
0;1
#672
1;0
0;2
#673
0;0
1;1
#674
1;0
1;2
#675
0;0
0;1
#676
1;0
0;2
#677
0;0
#678
1;0
#679
0;0
#680
1;0
#681
0;0
#682
1;0
#683
0;0
#684
1;0
#685
0;0
#686
1;0
#687
0;0
1;1
#688
1;0
1;2
#689
0;0
0;1
#690
1;0
0;2
#691
0;0
1;1
#692
1;0
1;2
#693
0;0
0;1
#694
1;0
0;2
#695
0;0
#696
1;0
#697
0;0
#698
1;0
#699
0;0
#700
1;0
#701
0;0
#702
1;0
#703
0;0
#704
1;0
#705
0;0
1;1
#706
1;0
1;2
#707
0;0
#708
1;0
#709
0;0
0;1
#710
1;0
0;2
#711
0;0
1;1
#712
1;0
1;2
#713
0;0
0;1
#714
1;0
0;2
#715
0;0
#716
1;0
#717
0;0
#718
1;0
#719
0;0
1;1
#720
1;0
1;2
#721
0;0
0;1
#722
1;0
0;2
#723
0;0
#724
1;0
#725
0;0
#726
1;0
#727
0;0
#728
1;0
#729
0;0
1;1
#730
1;0
1;2
#731
0;0
#732
1;0
#733
0;0
#734
1;0
#735
0;0
0;1
#736
1;0
0;2
#737
0;0
#738
1;0
#739
0;0
1;1
#740
1;0
1;2
#741
0;0
0;1
#742
1;0
0;2
#743
0;0
#744
1;0
#745
0;0
1;1
#746
1;0
1;2
#747
0;0
#748
1;0
#749
0;0
#750
1;0
#751
0;0
0;1
#752
1;0
0;2
#753
0;0
#754
1;0
#755
0;0
1;1
#756
1;0
1;2
#757
0;0
0;1
#758
1;0
0;2
#759
0;0
#760
1;0
#761
0;0
1;1
#762
1;0
1;2
#763
0;0
0;1
#764
1;0
0;2
#765
0;0
1;1
#766
1;0
1;2
#767
0;0
#768
1;0
#769
0;0
#770
1;0
#771
0;0
#772
1;0
#773
0;0
0;1
#774
1;0
0;2
#775
0;0
1;1
#776
1;0
1;2
#777
0;0
#778
1;0
#779
0;0
0;1
#780
1;0
0;2
#781
0;0
#782
1;0
#783
0;0
1;1
#784
1;0
1;2
#785
0;0
0;1
#786
1;0
0;2
#787
0;0
#788
1;0
#789
0;0
#790
1;0
#791
0;0
#792
1;0
#793
0;0
#794
1;0
#795
0;0
1;1
#796
1;0
1;2
#797
0;0
0;1
#798
1;0
0;2
#799
0;0
#800
1;0
#801
0;0
#802
1;0
#803
0;0
1;1
#804
1;0
1;2
#805
0;0
0;1
#806
1;0
0;2
#807
0;0
#808
1;0
#809
0;0
#810
1;0
#811
0;0
#812
1;0
#813
0;0
#814
1;0
#815
0;0
#816
1;0
#817
0;0
1;1
#818
1;0
1;2
#819
0;0
0;1
#820
1;0
0;2
#821
0;0
1;1
#822
1;0
1;2
#823
0;0
#824
1;0
#825
0;0
#826
1;0
#827
0;0
0;1
#828
1;0
0;2
#829
0;0
#830
1;0
#831
0;0
#832
1;0
#833
0;0
1;1
#834
1;0
1;2
#835
0;0
0;1
#836
1;0
0;2
#837
0;0
#838
1;0
#839
0;0
1;1
#840
1;0
1;2
#841
0;0
0;1
#842
1;0
0;2
#843
0;0
#844
1;0
#845
0;0
#846
1;0
#847
0;0
1;1
#848
1;0
1;2
#849
0;0
#850
1;0
#851
0;0
0;1
#852
1;0
0;2
#853
0;0
1;1
#854
1;0
1;2
#855
0;0
#856
1;0
#857
0;0
#858
1;0
#859
0;0
#860
1;0
#861
0;0
#862
1;0
#863
0;0
0;1
#864
1;0
0;2
#865
0;0
#866
1;0
#867
0;0
1;1
#868
1;0
1;2
#869
0;0
0;1
#870
1;0
0;2
#871
0;0
#872
1;0
#873
0;0
1;1
#874
1;0
1;2
#875
0;0
0;1
#876
1;0
0;2
#877
0;0
1;1
#878
1;0
1;2
#879
0;0
#880
1;0
#881
0;0
0;1
#882
1;0
0;2
#883
0;0
#884
1;0
#885
0;0
#886
1;0
#887
0;0
1;1
#888
1;0
1;2
#889
0;0
0;1
#890
1;0
0;2
#891
0;0
#892
1;0
#893
0;0
#894
1;0
#895
0;0
1;1
#896
1;0
1;2
#897
0;0
0;1
#898
1;0
0;2
#899
0;0
#900
1;0
#901
0;0
#902
1;0
#903
0;0
#904
1;0
#905
0;0
#906
1;0
#907
0;0
1;1
#908
1;0
1;2
#909
0;0
#910
1;0
#911
0;0
#912
1;0
#913
0;0
#914
1;0
#915
0;0
0;1
#916
1;0
0;2
#917
0;0
#918
1;0
#919
0;0
1;1
#920
1;0
1;2
#921
0;0
0;1
#922
1;0
0;2
#923
0;0
1;1
#924
1;0
1;2
#925
0;0
#926
1;0
#927
0;0
0;1
#928
1;0
0;2
#929
0;0
1;1
#930
1;0
1;2
#931
0;0
#932
1;0
#933
0;0
#934
1;0
#935
0;0
0;1
#936
1;0
0;2
#937
0;0
1;1
#938
1;0
1;2
#939
0;0
0;1
#940
1;0
0;2
#941
0;0
1;1
#942
1;0
1;2
#943
0;0
#944
1;0
#945
0;0
0;1
#946
1;0
0;2
#947
0;0
1;1
#948
1;0
1;2
#949
0;0
#950
1;0
#951
0;0
0;1
#952
1;0
0;2
#953
0;0
1;1
#954
1;0
1;2
#955
0;0
#956
1;0
#957
0;0
#958
1;0
#959
0;0
#960
1;0
#961
0;0
#962
1;0
#963
0;0
0;1
#964
1;0
0;2
#965
0;0
#966
1;0
#967
0;0
1;1
#968
1;0
1;2
#969
0;0
#970
1;0
#971
0;0
#972
1;0
#973
0;0
#974
1;0
#975
0;0
0;1
#976
1;0
0;2
#977
0;0
#978
1;0
#979
0;0
1;1
#980
1;0
1;2
#981
0;0
#982
1;0
#983
0;0
0;1
#984
1;0
0;2
#985
0;0
1;1
#986
1;0
1;2
#987
0;0
0;1
#988
1;0
0;2
#989
0;0
#990
1;0
#991
0;0
#992
1;0
#993
0;0
1;1
#994
1;0
1;2
#995
0;0
#996
1;0
#997
0;0
0;1
#998
1;0
0;2
#999
0;0
#1000
1;0
#1001
0;0
1;1
#1002
1;0
1;2
#1003
0;0
0;1
#1004
1;0
0;2
#1005
0;0
#1006
1;0
#1007
0;0
1;1
#1008
1;0
1;2
#1009
0;0
#1010
1;0
#1011
0;0
#1012
1;0
#1013
0;0
#1014
1;0
#1015
0;0
#1016
1;0
#1017
0;0
0;1
#1018
1;0
0;2
#1019
0;0
1;1
#1020
1;0
1;2
#1021
0;0
0;1
#1022
1;0
0;2
#1023
0;0
1;1
#1024
1;0
1;2
#1025
0;0
#1026
1;0
#1027
0;0
0;1
#1028
1;0
0;2
#1029
0;0
#1030
1;0
#1031
0;0
#1032
1;0
#1033
0;0
#1034
1;0
#1035
0;0
1;1
#1036
1;0
1;2
#1037
0;0
0;1
#1038
1;0
0;2
#1039
0;0
#1040
1;0
#1041
0;0
1;1
#1042
1;0
1;2
#1043
0;0
0;1
#1044
1;0
0;2
#1045
0;0
#1046
1;0
#1047
0;0
#1048
1;0
#1049
0;0
#1050
1;0
#1051
0;0
#1052
1;0
#1053
0;0
#1054
1;0
#1055
0;0
#1056
1;0
#1057
0;0
#1058
1;0
#1059
0;0
#1060
1;0
#1061
0;0
#1062
1;0
#1063
0;0
1;1
#1064
1;0
1;2
#1065
0;0
0;1
#1066
1;0
0;2
#1067
0;0
#1068
1;0
#1069
0;0
1;1
#1070
1;0
1;2
#1071
0;0
0;1
#1072
1;0
0;2
#1073
0;0
1;1
#1074
1;0
1;2
#1075
0;0
0;1
#1076
1;0
0;2
#1077
0;0
1;1
#1078
1;0
1;2
#1079
0;0
#1080
1;0
#1081
0;0
#1082
1;0
#1083
0;0
#1084
1;0
#1085
0;0
0;1
#1086
1;0
0;2
#1087
0;0
#1088
1;0
#1089
0;0
#1090
1;0
#1091
0;0
1;1
#1092
1;0
1;2
#1093
0;0
0;1
#1094
1;0
0;2
#1095
0;0
#1096
1;0
#1097
0;0
#1098
1;0
#1099
0;0
1;1
#1100
1;0
1;2
#1101
0;0
0;1
#1102
1;0
0;2
#1103
0;0
1;1
#1104
1;0
1;2
#1105
0;0
#1106
1;0
#1107
0;0
0;1
#1108
1;0
0;2
#1109
0;0
1;1
#1110
1;0
1;2
#1111
0;0
#1112
1;0
#1113
0;0
0;1
#1114
1;0
0;2
#1115
0;0
1;1
#1116
1;0
1;2
#1117
0;0
#1118
1;0
#1119
0;0
0;1
#1120
1;0
0;2
#1121
0;0
#1122
1;0
#1123
0;0
#1124
1;0
#1125
0;0
#1126
1;0
#1127
0;0
#1128
1;0
#1129
0;0
#1130
1;0
#1131
0;0
1;1
#1132
1;0
1;2
#1133
0;0
0;1
#1134
1;0
0;2
#1135
0;0
#1136
1;0
#1137
0;0
1;1
#1138
1;0
1;2
#1139
0;0
#1140
1;0
#1141
0;0
#1142
1;0
#1143
0;0
#1144
1;0
#1145
0;0
#1146
1;0
#1147
0;0
0;1
#1148
1;0
0;2
#1149
0;0
1;1
#1150
1;0
1;2
#1151
0;0
#1152
1;0
#1153
0;0
#1154
1;0
#1155
0;0
0;1
#1156
1;0
0;2
#1157
0;0
1;1
#1158
1;0
1;2
#1159
0;0
#1160
1;0
#1161
0;0
#1162
1;0
#1163
0;0
#1164
1;0
#1165
0;0
#1166
1;0
#1167
0;0
0;1
#1168
1;0
0;2
#1169
0;0
1;1
#1170
1;0
1;2
#1171
0;0
0;1
#1172
1;0
0;2
#1173
0;0
1;1
#1174
1;0
1;2
#1175
0;0
#1176
1;0
#1177
0;0
0;1
#1178
1;0
0;2
#1179
0;0
1;1
#1180
1;0
1;2
#1181
0;0
0;1
#1182
1;0
0;2
#1183
0;0
#1184
1;0
#1185
0;0
1;1
#1186
1;0
1;2
#1187
0;0
0;1
#1188
1;0
0;2
#1189
0;0
#1190
1;0
#1191
0;0
1;1
#1192
1;0
1;2
#1193
0;0
#1194
1;0
#1195
0;0
#1196
1;0
#1197
0;0
#1198
1;0
#1199
0;0
0;1
#1200
1;0
0;2
#1201
0;0
#1202
1;0
#1203
0;0
1;1
#1204
1;0
1;2
#1205
0;0
#1206
1;0
#1207
0;0
#1208
1;0
#1209
0;0
#1210
1;0
#1211
0;0
#1212
1;0
#1213
0;0
0;1
#1214
1;0
0;2
#1215
0;0
#1216
1;0
#1217
0;0
1;1
#1218
1;0
1;2
#1219
0;0
#1220
1;0
#1221
0;0
#1222
1;0
#1223
0;0
0;1
#1224
1;0
0;2
#1225
0;0
#1226
1;0
#1227
0;0
#1228
1;0
#1229
0;0
#1230
1;0
#1231
0;0
1;1
#1232
1;0
1;2
#1233
0;0
#1234
1;0
#1235
0;0
#1236
1;0
#1237
0;0
#1238
1;0
#1239
0;0
#1240
1;0
#1241
0;0
0;1
#1242
1;0
0;2
#1243
0;0
1;1
#1244
1;0
1;2
#1245
0;0
#1246
1;0
#1247
0;0
#1248
1;0
#1249
0;0
#1250
1;0
#1251
0;0
#1252
1;0
#1253
0;0
#1254
1;0
#1255
0;0
0;1
#1256
1;0
0;2
#1257
0;0
#1258
1;0
#1259
0;0
#1260
1;0
#1261
0;0
#1262
1;0
#1263
0;0
1;1
#1264
1;0
1;2
#1265
0;0
#1266
1;0
#1267
0;0
0;1
#1268
1;0
0;2
#1269
0;0
#1270
1;0
#1271
0;0
#1272
1;0
#1273
0;0
1;1
#1274
1;0
1;2
#1275
0;0
#1276
1;0
#1277
0;0
0;1
#1278
1;0
0;2
#1279
0;0
#1280
1;0
#1281
0;0
#1282
1;0
#1283
0;0
#1284
1;0
#1285
0;0
#1286
1;0
#1287
0;0
1;1
#1288
1;0
1;2
#1289
0;0
0;1
#1290
1;0
0;2
#1291
0;0
#1292
1;0
#1293
0;0
#1294
1;0
#1295
0;0
1;1
#1296
1;0
1;2
#1297
0;0
#1298
1;0
#1299
0;0
#1300
1;0
#1301
0;0
0;1
#1302
1;0
0;2
#1303
0;0
#1304
1;0
#1305
0;0
#1306
1;0
#1307
0;0
1;1
#1308
1;0
1;2
#1309
0;0
#1310
1;0
#1311
0;0
#1312
1;0
#1313
0;0
#1314
1;0
#1315
0;0
0;1
#1316
1;0
0;2
#1317
0;0
1;1
#1318
1;0
1;2
#1319
0;0
#1320
1;0
#1321
0;0
#1322
1;0
#1323
0;0
0;1
#1324
1;0
0;2
#1325
0;0
#1326
1;0
#1327
0;0
#1328
1;0
#1329
0;0
#1330
1;0
#1331
0;0
1;1
#1332
1;0
1;2
#1333
0;0
#1334
1;0
#1335
0;0
#1336
1;0
#1337
0;0
0;1
#1338
1;0
0;2
#1339
0;0
1;1
#1340
1;0
1;2
#1341
0;0
#1342
1;0
#1343
0;0
0;1
#1344
1;0
0;2
#1345
0;0
1;1
#1346
1;0
1;2
#1347
0;0
#1348
1;0
#1349
0;0
#1350
1;0
#1351
0;0
0;1
#1352
1;0
0;2
#1353
0;0
1;1
#1354
1;0
1;2
#1355
0;0
0;1
#1356
1;0
0;2
#1357
0;0
1;1
#1358
1;0
1;2
#1359
0;0
0;1
#1360
1;0
0;2
#1361
0;0
1;1
#1362
1;0
1;2
#1363
0;0
0;1
#1364
1;0
0;2
#1365
0;0
#1366
1;0
#1367
0;0
#1368
1;0
#1369
0;0
1;1
#1370
1;0
1;2
#1371
0;0
0;1
#1372
1;0
0;2
#1373
0;0
1;1
#1374
1;0
1;2
#1375
0;0
0;1
#1376
1;0
0;2
#1377
0;0
#1378
1;0
#1379
0;0
1;1
#1380
1;0
1;2
#1381
0;0
0;1
#1382
1;0
0;2
#1383
0;0
1;1
#1384
1;0
1;2
#1385
0;0
#1386
1;0
#1387
0;0
0;1
#1388
1;0
0;2
#1389
0;0
#1390
1;0
#1391
0;0
1;1
#1392
1;0
1;2
#1393
0;0
#1394
1;0
#1395
0;0
#1396
1;0
#1397
0;0
0;1
#1398
1;0
0;2
#1399
0;0
1;1
#1400
1;0
1;2
#1401
0;0
0;1
#1402
1;0
0;2
#1403
0;0
1;1
#1404
1;0
1;2
#1405
0;0
0;1
#1406
1;0
0;2
#1407
0;0
#1408
1;0
#1409
0;0
#1410
1;0
#1411
0;0
1;1
#1412
1;0
1;2
#1413
0;0
0;1
#1414
1;0
0;2
#1415
0;0
1;1
#1416
1;0
1;2
#1417
0;0
#1418
1;0
#1419
0;0
#1420
1;0
#1421
0;0
#1422
1;0
#1423
0;0
#1424
1;0
#1425
0;0
#1426
1;0
#1427
0;0
0;1
#1428
1;0
0;2
#1429
0;0
1;1
#1430
1;0
1;2
#1431
0;0
#1432
1;0
#1433
0;0
0;1
#1434
1;0
0;2
#1435
0;0
#1436
1;0
#1437
0;0
1;1
#1438
1;0
1;2
#1439
0;0
0;1
#1440
1;0
0;2
#1441
0;0
1;1
#1442
1;0
1;2
#1443
0;0
#1444
1;0
#1445
0;0
0;1
#1446
1;0
0;2
#1447
0;0
#1448
1;0
#1449
0;0
#1450
1;0
#1451
0;0
#1452
1;0
#1453
0;0
1;1
#1454
1;0
1;2
#1455
0;0
#1456
1;0
#1457
0;0
#1458
1;0
#1459
0;0
#1460
1;0
#1461
0;0
#1462
1;0
#1463
0;0
#1464
1;0
#1465
0;0
0;1
#1466
1;0
0;2
#1467
0;0
1;1
#1468
1;0
1;2
#1469
0;0
#1470
1;0
#1471
0;0
0;1
#1472
1;0
0;2
#1473
0;0
#1474
1;0
#1475
0;0
1;1
#1476
1;0
1;2
#1477
0;0
#1478
1;0
#1479
0;0
0;1
#1480
1;0
0;2
#1481
0;0
1;1
#1482
1;0
1;2
#1483
0;0
#1484
1;0
#1485
0;0
#1486
1;0
#1487
0;0
0;1
#1488
1;0
0;2
#1489
0;0
1;1
#1490
1;0
1;2
#1491
0;0
0;1
#1492
1;0
0;2
#1493
0;0
1;1
#1494
1;0
1;2
#1495
0;0
#1496
1;0
#1497
0;0
0;1
#1498
1;0
0;2
#1499
0;0
1;1
#1500
1;0
1;2
#1501
0;0
#1502
1;0
#1503
0;0
0;1
#1504
1;0
0;2
#1505
0;0
#1506
1;0
#1507
0;0
1;1
#1508
1;0
1;2
#1509
0;0
0;1
#1510
1;0
0;2
#1511
0;0
#1512
1;0
#1513
0;0
1;1
#1514
1;0
1;2
#1515
0;0
0;1
#1516
1;0
0;2
#1517
0;0
#1518
1;0
#1519
0;0
#1520
1;0
#1521
0;0
1;1
#1522
1;0
1;2
#1523
0;0
#1524
1;0
#1525
0;0
0;1
#1526
1;0
0;2
#1527
0;0
#1528
1;0
#1529
0;0
#1530
1;0
#1531
0;0
1;1
#1532
1;0
1;2
#1533
0;0
0;1
#1534
1;0
0;2
#1535
0;0
#1536
1;0
#1537
0;0
1;1
#1538
1;0
1;2
#1539
0;0
0;1
#1540
1;0
0;2
#1541
0;0
#1542
1;0
#1543
0;0
#1544
1;0
#1545
0;0
1;1
#1546
1;0
1;2
#1547
0;0
#1548
1;0
#1549
0;0
0;1
#1550
1;0
0;2
#1551
0;0
#1552
1;0
#1553
0;0
1;1
#1554
1;0
1;2
#1555
0;0
0;1
#1556
1;0
0;2
#1557
0;0
1;1
#1558
1;0
1;2
#1559
0;0
0;1
#1560
1;0
0;2
#1561
0;0
1;1
#1562
1;0
1;2
#1563
0;0
0;1
#1564
1;0
0;2
#1565
0;0
#1566
1;0
#1567
0;0
1;1
#1568
1;0
1;2
#1569
0;0
0;1
#1570
1;0
0;2
#1571
0;0
#1572
1;0
#1573
0;0
#1574
1;0
#1575
0;0
1;1
#1576
1;0
1;2
