Designs/subplatform/sim/vcd/bl_slave1.vcd
$date
	Mon May 19 14:20:10 2025
$end
$version
	ModelSim Version 2019.4
$end
$timescale
	1ps
$end

$scope module sim1 $end

$scope module p $end

$scope module slave_1 $end

$scope module slave_interface $end
$var wire 1 ! wb_clk $end
$var wire 1 " wb_rst $end
$var wire 1 # wb_cyc $end
$var wire 1 $ wb_stb $end
$var wire 1 % wb_we $end
$var wire 1 & wb_sel [3] $end
$var wire 1 ' wb_sel [2] $end
$var wire 1 ( wb_sel [1] $end
$var wire 1 ) wb_sel [0] $end
$var wire 1 * wb_dat_i [31] $end
$var wire 1 + wb_dat_i [30] $end
$var wire 1 , wb_dat_i [29] $end
$var wire 1 - wb_dat_i [28] $end
$var wire 1 . wb_dat_i [27] $end
$var wire 1 / wb_dat_i [26] $end
$var wire 1 0 wb_dat_i [25] $end
$var wire 1 1 wb_dat_i [24] $end
$var wire 1 2 wb_dat_i [23] $end
$var wire 1 3 wb_dat_i [22] $end
$var wire 1 4 wb_dat_i [21] $end
$var wire 1 5 wb_dat_i [20] $end
$var wire 1 6 wb_dat_i [19] $end
$var wire 1 7 wb_dat_i [18] $end
$var wire 1 8 wb_dat_i [17] $end
$var wire 1 9 wb_dat_i [16] $end
$var wire 1 : wb_dat_i [15] $end
$var wire 1 ; wb_dat_i [14] $end
$var wire 1 < wb_dat_i [13] $end
$var wire 1 = wb_dat_i [12] $end
$var wire 1 > wb_dat_i [11] $end
$var wire 1 ? wb_dat_i [10] $end
$var wire 1 @ wb_dat_i [9] $end
$var wire 1 A wb_dat_i [8] $end
$var wire 1 B wb_dat_i [7] $end
$var wire 1 C wb_dat_i [6] $end
$var wire 1 D wb_dat_i [5] $end
$var wire 1 E wb_dat_i [4] $end
$var wire 1 F wb_dat_i [3] $end
$var wire 1 G wb_dat_i [2] $end
$var wire 1 H wb_dat_i [1] $end
$var wire 1 I wb_dat_i [0] $end
$var wire 1 J wb_adr [31] $end
$var wire 1 K wb_adr [30] $end
$var wire 1 L wb_adr [29] $end
$var wire 1 M wb_adr [28] $end
$var wire 1 N wb_adr [27] $end
$var wire 1 O wb_adr [26] $end
$var wire 1 P wb_adr [25] $end
$var wire 1 Q wb_adr [24] $end
$var wire 1 R wb_adr [23] $end
$var wire 1 S wb_adr [22] $end
$var wire 1 T wb_adr [21] $end
$var wire 1 U wb_adr [20] $end
$var wire 1 V wb_adr [19] $end
$var wire 1 W wb_adr [18] $end
$var wire 1 X wb_adr [17] $end
$var wire 1 Y wb_adr [16] $end
$var wire 1 Z wb_adr [15] $end
$var wire 1 [ wb_adr [14] $end
$var wire 1 \ wb_adr [13] $end
$var wire 1 ] wb_adr [12] $end
$var wire 1 ^ wb_adr [11] $end
$var wire 1 _ wb_adr [10] $end
$var wire 1 ` wb_adr [9] $end
$var wire 1 a wb_adr [8] $end
$var wire 1 b wb_adr [7] $end
$var wire 1 c wb_adr [6] $end
$var wire 1 d wb_adr [5] $end
$var wire 1 e wb_adr [4] $end
$var wire 1 f wb_adr [3] $end
$var wire 1 g wb_adr [2] $end
$var wire 1 h wb_adr [1] $end
$var wire 1 i wb_adr [0] $end
$var reg 1 j wb_ack $end
$var reg 1 k wb_err $end
$var reg 1 l wb_stall $end
$var reg 32 m wb_dat_o [31:0] $end
$var reg 1 n request $end
$var reg 1 o write $end
$var reg 1 p reset $end
$var reg 32 q address [31:0] $end
$var reg 32 r data_from_bus [31:0] $end
$var reg 4 s byte_sel [3:0] $end
$var wire 1 t data_to_bus [31] $end
$var wire 1 u data_to_bus [30] $end
$var wire 1 v data_to_bus [29] $end
$var wire 1 w data_to_bus [28] $end
$var wire 1 x data_to_bus [27] $end
$var wire 1 y data_to_bus [26] $end
$var wire 1 z data_to_bus [25] $end
$var wire 1 { data_to_bus [24] $end
$var wire 1 | data_to_bus [23] $end
$var wire 1 } data_to_bus [22] $end
$var wire 1 ~ data_to_bus [21] $end
$var wire 1 !! data_to_bus [20] $end
$var wire 1 "! data_to_bus [19] $end
$var wire 1 #! data_to_bus [18] $end
$var wire 1 $! data_to_bus [17] $end
$var wire 1 %! data_to_bus [16] $end
$var wire 1 &! data_to_bus [15] $end
$var wire 1 '! data_to_bus [14] $end
$var wire 1 (! data_to_bus [13] $end
$var wire 1 )! data_to_bus [12] $end
$var wire 1 *! data_to_bus [11] $end
$var wire 1 +! data_to_bus [10] $end
$var wire 1 ,! data_to_bus [9] $end
$var wire 1 -! data_to_bus [8] $end
$var wire 1 .! data_to_bus [7] $end
$var wire 1 /! data_to_bus [6] $end
$var wire 1 0! data_to_bus [5] $end
$var wire 1 1! data_to_bus [4] $end
$var wire 1 2! data_to_bus [3] $end
$var wire 1 3! data_to_bus [2] $end
$var wire 1 4! data_to_bus [1] $end
$var wire 1 5! data_to_bus [0] $end
$var wire 1 6! done $end
$var wire 1 7! err $end
$upscope $end
$upscope $end
$upscope $end
$upscope $end
$enddefinitions $end
#0
$dumpvars
0j
0k
0l
b0 m
0n
xo
1p
bx q
bx r
bx s
05!
04!
03!
02!
01!
00!
0/!
0.!
0-!
0,!
0+!
0*!
0)!
0(!
0'!
0&!
0%!
0$!
0#!
0"!
0!!
0~
0}
0|
0{
0z
0y
0x
0w
0v
0u
0t
06!
07!
xi
xh
xg
xf
xe
xd
xc
xb
xa
x`
x_
x^
x]
x\
x[
xZ
xY
xX
xW
xV
xU
xT
xS
xR
xQ
xP
xO
xN
xM
xL
xK
xJ
xI
xH
xG
xF
xE
xD
xC
xB
xA
x@
x?
x>
x=
x<
x;
x:
x9
x8
x7
x6
x5
x4
x3
x2
x1
x0
x/
x.
x-
x,
x+
x*
x)
x(
x'
x&
x%
0$
0#
1"
0!
$end
#5000
1!
0o
b0 s
b0 q
b0 r
0%
0)
0(
0'
0&
0i
0h
0g
0f
0e
0d
0c
0b
0a
0`
0_
0^
0]
0\
0[
0Z
0Y
0X
0W
0V
0U
0T
0S
0R
0Q
0P
0O
0N
0M
0L
0K
0J
0I
0H
0G
0F
0E
0D
0C
0B
0A
0@
0?
0>
0=
0<
0;
0:
09
08
07
06
05
04
03
02
01
00
0/
0.
0-
0,
0+
0*
#10000
0!
#15000
1!
#20000
0!
0"
0p
#25000
1!
#30000
0!
#35000
1!
#40000
0!
#45000
1!
1d
1I
#50000
0!
#55000
1!
b100000 q
b1 r
#60000
0!
#65000
1!
#70000
0!
#75000
1!
#80000
0!
#85000
1!
0d
1H
1G
1D
1C
1A
1?
1;
19
18
14
11
1-
#90000
0!
#95000
1!
b0 q
b10001001000110100010101100111 r
#100000
0!
#105000
1!
#110000
0!
#115000
1!
#120000
0!
#125000
1!
1g
1F
1B
1>
1:
16
12
1.
0-
1*
#130000
0!
#135000
1!
b100 q
b10001001101010111100110111101111 r
#140000
0!
#145000
1!
#150000
0!
#155000
1!
#160000
0!
#165000
1!
0g
1f
0F
0D
0C
0?
1<
0;
04
13
1/
1,
1+
#170000
0!
#175000
1!
b1000 q
b11101101110010111010100110000111 r
#180000
0!
#185000
1!
#190000
0!
#195000
1!
#200000
0!
#205000
1!
1g
0I
0H
0G
1E
0B
0A
1@
0>
1=
0:
09
08
17
06
15
02
01
10
0.
1-
0*
#210000
0!
#215000
1!
b1100 q
b1110110010101000011001000010000 r
#220000
0!
#225000
1!
#230000
0!
#235000
1!
#240000
0!
#245000
1!
0g
0f
1d
1I
0E
0@
0=
0<
07
05
03
00
0/
0-
0,
0+
#250000
0!
#255000
1!
b100000 q
b1 r
#260000
0!
#265000
1!
#270000
0!
#275000
1!
#280000
0!
#285000
1!
1g
1e
#290000
0!
#295000
1!
b110100 q
#300000
0!
#305000
1!
#310000
0!
#315000
1!
#320000
0!
#325000
1!
#330000
0!
#335000
1!
#340000
0!
#345000
1!
#350000
0!
#355000
1!
#360000
0!
#365000
1!
#370000
0!
#375000
1!
#380000
0!
#385000
1!
0g
0d
0I
1C
1;
13
1+
#390000
0!
#395000
1!
b10000 q
b1000000010000000100000001000000 r
#400000
0!
#405000
1!
#410000
0!
#415000
1!
#420000
0!
#425000
1!
1g
1E
1D
0C
1=
1<
0;
15
14
03
1-
1,
0+
#430000
0!
#435000
1!
b10100 q
b110000001100000011000000110000 r
#440000
0!
#445000
1!
#450000
0!
#455000
1!
#460000
0!
#465000
1!
0g
1f
0E
0=
05
0-
#470000
0!
#475000
1!
b11000 q
b100000001000000010000000100000 r
#480000
0!
#485000
1!
#490000
0!
#495000
1!
#500000
0!
#505000
1!
1g
1E
0D
1=
0<
15
04
1-
0,
#510000
0!
#515000
1!
b11100 q
b10000000100000001000000010000 r
#520000
0!
#525000
1!
#530000
0!
#535000
1!
#540000
0!
#545000
1!
0g
0f
0e
1d
1I
0E
0=
05
0-
#550000
0!
#555000
1!
b100000 q
b1 r
#560000
0!
#565000
1!
#570000
0!
#575000
1!
#580000
0!
#585000
1!
1g
1e
#590000
0!
#595000
1!
b110100 q
