Designs/subplatform/sim/vcd/bl_slave0.vcd
$date
	Mon Jun 16 15:36:06 2025
$end
$version
	ModelSim Version 2019.4
$end
$timescale
	1ps
$end

$scope module sim1 $end

$scope module p $end

$scope module slave_0 $end

$scope module slave_interface $end
$var wire 1 ! wb_clk $end
$var wire 1 " wb_rst $end
$var wire 1 # wb_cyc $end
$var wire 1 $ wb_stb $end
$var wire 1 % wb_we $end
$var wire 1 & wb_sel [3] $end
$var wire 1 ' wb_sel [2] $end
$var wire 1 ( wb_sel [1] $end
$var wire 1 ) wb_sel [0] $end
$var wire 1 * wb_dat_i [31] $end
$var wire 1 + wb_dat_i [30] $end
$var wire 1 , wb_dat_i [29] $end
$var wire 1 - wb_dat_i [28] $end
$var wire 1 . wb_dat_i [27] $end
$var wire 1 / wb_dat_i [26] $end
$var wire 1 0 wb_dat_i [25] $end
$var wire 1 1 wb_dat_i [24] $end
$var wire 1 2 wb_dat_i [23] $end
$var wire 1 3 wb_dat_i [22] $end
$var wire 1 4 wb_dat_i [21] $end
$var wire 1 5 wb_dat_i [20] $end
$var wire 1 6 wb_dat_i [19] $end
$var wire 1 7 wb_dat_i [18] $end
$var wire 1 8 wb_dat_i [17] $end
$var wire 1 9 wb_dat_i [16] $end
$var wire 1 : wb_dat_i [15] $end
$var wire 1 ; wb_dat_i [14] $end
$var wire 1 < wb_dat_i [13] $end
$var wire 1 = wb_dat_i [12] $end
$var wire 1 > wb_dat_i [11] $end
$var wire 1 ? wb_dat_i [10] $end
$var wire 1 @ wb_dat_i [9] $end
$var wire 1 A wb_dat_i [8] $end
$var wire 1 B wb_dat_i [7] $end
$var wire 1 C wb_dat_i [6] $end
$var wire 1 D wb_dat_i [5] $end
$var wire 1 E wb_dat_i [4] $end
$var wire 1 F wb_dat_i [3] $end
$var wire 1 G wb_dat_i [2] $end
$var wire 1 H wb_dat_i [1] $end
$var wire 1 I wb_dat_i [0] $end
$var wire 1 J wb_adr [31] $end
$var wire 1 K wb_adr [30] $end
$var wire 1 L wb_adr [29] $end
$var wire 1 M wb_adr [28] $end
$var wire 1 N wb_adr [27] $end
$var wire 1 O wb_adr [26] $end
$var wire 1 P wb_adr [25] $end
$var wire 1 Q wb_adr [24] $end
$var wire 1 R wb_adr [23] $end
$var wire 1 S wb_adr [22] $end
$var wire 1 T wb_adr [21] $end
$var wire 1 U wb_adr [20] $end
$var wire 1 V wb_adr [19] $end
$var wire 1 W wb_adr [18] $end
$var wire 1 X wb_adr [17] $end
$var wire 1 Y wb_adr [16] $end
$var wire 1 Z wb_adr [15] $end
$var wire 1 [ wb_adr [14] $end
$var wire 1 \ wb_adr [13] $end
$var wire 1 ] wb_adr [12] $end
$var wire 1 ^ wb_adr [11] $end
$var wire 1 _ wb_adr [10] $end
$var wire 1 ` wb_adr [9] $end
$var wire 1 a wb_adr [8] $end
$var wire 1 b wb_adr [7] $end
$var wire 1 c wb_adr [6] $end
$var wire 1 d wb_adr [5] $end
$var wire 1 e wb_adr [4] $end
$var wire 1 f wb_adr [3] $end
$var wire 1 g wb_adr [2] $end
$var wire 1 h wb_adr [1] $end
$var wire 1 i wb_adr [0] $end
$var reg 1 j wb_ack $end
$var reg 1 k wb_err $end
$var reg 1 l wb_stall $end
$var reg 32 m wb_dat_o [31:0] $end
$var reg 1 n request $end
$var reg 1 o write $end
$var reg 1 p reset $end
$var reg 32 q address [31:0] $end
$var reg 32 r data_from_bus [31:0] $end
$var reg 4 s byte_sel [3:0] $end
$var wire 1 t data_to_bus [31] $end
$var wire 1 u data_to_bus [30] $end
$var wire 1 v data_to_bus [29] $end
$var wire 1 w data_to_bus [28] $end
$var wire 1 x data_to_bus [27] $end
$var wire 1 y data_to_bus [26] $end
$var wire 1 z data_to_bus [25] $end
$var wire 1 { data_to_bus [24] $end
$var wire 1 | data_to_bus [23] $end
$var wire 1 } data_to_bus [22] $end
$var wire 1 ~ data_to_bus [21] $end
$var wire 1 !! data_to_bus [20] $end
$var wire 1 "! data_to_bus [19] $end
$var wire 1 #! data_to_bus [18] $end
$var wire 1 $! data_to_bus [17] $end
$var wire 1 %! data_to_bus [16] $end
$var wire 1 &! data_to_bus [15] $end
$var wire 1 '! data_to_bus [14] $end
$var wire 1 (! data_to_bus [13] $end
$var wire 1 )! data_to_bus [12] $end
$var wire 1 *! data_to_bus [11] $end
$var wire 1 +! data_to_bus [10] $end
$var wire 1 ,! data_to_bus [9] $end
$var wire 1 -! data_to_bus [8] $end
$var wire 1 .! data_to_bus [7] $end
$var wire 1 /! data_to_bus [6] $end
$var wire 1 0! data_to_bus [5] $end
$var wire 1 1! data_to_bus [4] $end
$var wire 1 2! data_to_bus [3] $end
$var wire 1 3! data_to_bus [2] $end
$var wire 1 4! data_to_bus [1] $end
$var wire 1 5! data_to_bus [0] $end
$var wire 1 6! done $end
$var wire 1 7! err $end
$upscope $end
$upscope $end
$upscope $end
$upscope $end
$enddefinitions $end
#0
$dumpvars
0j
0k
0l
b0 m
0n
xo
1p
bx q
bx r
bx s
15!
14!
13!
12!
11!
10!
1/!
1.!
1-!
1,!
1+!
1*!
1)!
1(!
1'!
1&!
1%!
1$!
1#!
1"!
1!!
1~
1}
1|
1{
1z
1y
1x
1w
1v
1u
1t
06!
07!
xi
xh
xg
xf
xe
xd
xc
xb
xa
x`
x_
x^
x]
x\
x[
xZ
xY
xX
xW
xV
xU
xT
xS
xR
xQ
xP
xO
xN
xM
xL
xK
xJ
xI
xH
xG
xF
xE
xD
xC
xB
xA
x@
x?
x>
x=
x<
x;
x:
x9
x8
x7
x6
x5
x4
x3
x2
x1
x0
x/
x.
x-
x,
x+
x*
x)
x(
x'
x&
x%
0$
0#
1"
0!
$end
#5000
1!
0o
b0 s
b0 q
b0 r
0%
0)
0(
0'
0&
0i
0h
0g
0f
0e
0d
0c
0b
0a
0`
0_
0^
0]
0\
0[
0Z
0Y
0X
0W
0V
0U
0T
0S
0R
0Q
0P
0O
0N
0M
0L
0K
0J
0I
0H
0G
0F
0E
0D
0C
0B
0A
0@
0?
0>
0=
0<
0;
0:
09
08
07
06
05
04
03
02
01
00
0/
0.
0-
0,
0+
0*
#10000
0!
#15000
1!
#20000
0!
0"
0p
#25000
1!
#30000
0!
#35000
1!
#40000
0!
#45000
1!
1%
1)
1d
1I
1$
1#
#50000
0!
#55000
1!
1o
b1 s
b100000 q
b1 r
b11111111111111111111111111111111 m
1n
1l
16!
1j
0l
#60000
0!
#65000
1!
0n
0$
0#
0j
b0 m
06!
#70000
0!
#75000
1!
0o
b0 s
b0 q
b0 r
0%
0)
#80000
0!
#85000
1!
b100000 q
b1 r
1%
1)
1(
1'
1&
0d
1H
1G
1D
1C
1A
1?
1;
19
18
14
11
1-
1$
1#
#90000
0!
#95000
1!
1o
b1111 s
b0 q
b10001001000110100010101100111 r
b11111111111111111111111111111111 m
1n
1l
16!
1j
0l
#100000
0!
#105000
1!
0n
0$
0#
0j
b0 m
06!
#110000
0!
#115000
1!
0o
b0 s
b0 r
0%
0)
0(
0'
0&
#120000
0!
#125000
1!
b10001001000110100010101100111 r
1%
1)
1(
1'
1&
1g
1F
1B
1>
1:
16
12
1.
0-
1*
1$
1#
#130000
0!
#135000
1!
1o
b1111 s
b100 q
b10001001101010111100110111101111 r
b11111111111111111111111111111111 m
1n
1l
16!
1j
0l
#140000
0!
#145000
1!
0n
0$
0#
0j
b0 m
06!
#150000
0!
#155000
1!
0o
b0 s
b0 q
b0 r
0%
0)
0(
0'
0&
#160000
0!
#165000
1!
b100 q
b10001001101010111100110111101111 r
1%
1)
1(
1'
1&
0g
1f
0F
0D
0C
0?
1<
0;
04
13
1/
1,
1+
1$
1#
#170000
0!
#175000
1!
1o
b1111 s
b1000 q
b11101101110010111010100110000111 r
b11111111111111111111111111111111 m
1n
1l
16!
1j
0l
#180000
0!
#185000
1!
0n
0$
0#
0j
b0 m
06!
#190000
0!
#195000
1!
0o
b0 s
b0 q
b0 r
0%
0)
0(
0'
0&
#200000
0!
#205000
1!
b1000 q
b11101101110010111010100110000111 r
1%
1)
1(
1'
1&
1g
0I
0H
0G
1E
0B
0A
1@
0>
1=
0:
09
08
17
06
15
02
01
10
0.
1-
0*
1$
1#
#210000
0!
#215000
1!
1o
b1111 s
b1100 q
b1110110010101000011001000010000 r
b11111111111111111111111111111111 m
1n
1l
16!
1j
0l
#220000
0!
#225000
1!
0n
0$
0#
0j
b0 m
06!
#230000
0!
#235000
1!
0o
b0 s
b0 q
b0 r
0%
0)
0(
0'
0&
#240000
0!
#245000
1!
b1100 q
b1110110010101000011001000010000 r
1%
1&
0g
0f
1d
1I
0E
0@
0=
0<
07
05
03
00
0/
0-
0,
0+
1$
1#
#250000
0!
#255000
1!
1o
b1000 s
b100000 q
b1 r
b11111111111111111111111111111111 m
1n
1l
16!
1j
0l
#260000
0!
#265000
1!
0n
0$
0#
0j
b0 m
06!
#270000
0!
#275000
1!
0o
b0 s
b0 q
b0 r
0%
0&
#280000
0!
#285000
1!
b100000 q
b1 r
1)
1g
1e
1$
1#
#290000
0!
#295000
1!
b1 s
b110100 q
b11111111111111111111111111111111 m
1n
1l
16!
04!
03!
02!
01!
00!
0/!
0.!
0-!
0,!
0+!
0*!
0)!
0(!
0'!
0&!
0%!
0$!
0#!
0"!
0!!
0~
0}
0|
0{
0z
0y
0x
0w
0v
0u
0t
1j
b1 m
0l
#300000
0!
#305000
1!
0n
0$
0#
0j
b0 m
06!
14!
13!
12!
11!
10!
1/!
1.!
1-!
1,!
1+!
1*!
1)!
1(!
1'!
1&!
1%!
1$!
1#!
1"!
1!!
1~
1}
1|
1{
1z
1y
1x
1w
1v
1u
1t
#310000
0!
#315000
1!
b0 s
b0 q
b0 r
0)
#320000
0!
#325000
1!
b110100 q
b1 r
#330000
0!
#335000
1!
1)
1$
1#
#340000
0!
#345000
1!
b1 s
b11111111111111111111111111111111 m
1n
1l
16!
05!
04!
03!
02!
01!
00!
0/!
0.!
0-!
0,!
0+!
0*!
0)!
0(!
0'!
0&!
0%!
0$!
0#!
0"!
0!!
0~
0}
0|
0{
0z
0y
0x
0w
0v
0u
0t
1j
b0 m
0l
#350000
0!
#355000
1!
0n
0$
0#
0j
06!
15!
14!
13!
12!
11!
10!
1/!
1.!
1-!
1,!
1+!
1*!
1)!
1(!
1'!
1&!
1%!
1$!
1#!
1"!
1!!
1~
1}
1|
1{
1z
1y
1x
1w
1v
1u
1t
#360000
0!
#365000
1!
b0 s
b0 q
b0 r
0)
#370000
0!
#375000
1!
b110100 q
b1 r
#380000
0!
#385000
1!
1%
1)
1(
1'
1&
0g
0d
0I
1C
1;
13
1+
1$
1#
#390000
0!
#395000
1!
1o
b1111 s
b10000 q
b1000000010000000100000001000000 r
b11111111111111111111111111111111 m
1n
1l
16!
1j
0l
#400000
0!
#405000
1!
0n
0$
0#
0j
b0 m
06!
#410000
0!
#415000
1!
0o
b0 s
b0 q
b0 r
0%
0)
0(
0'
0&
#420000
0!
#425000
1!
b10000 q
b1000000010000000100000001000000 r
1%
1)
1(
1'
1&
1g
1E
1D
0C
1=
1<
0;
15
14
03
1-
1,
0+
1$
1#
#430000
0!
#435000
1!
1o
b1111 s
b10100 q
b110000001100000011000000110000 r
b11111111111111111111111111111111 m
1n
1l
16!
1j
0l
#440000
0!
#445000
1!
0n
0$
0#
0j
b0 m
06!
#450000
0!
#455000
1!
0o
b0 s
b0 q
b0 r
0%
0)
0(
0'
0&
#460000
0!
#465000
1!
b10100 q
b110000001100000011000000110000 r
1%
1)
1(
1'
1&
0g
1f
0E
0=
05
0-
1$
1#
#470000
0!
#475000
1!
1o
b1111 s
b11000 q
b100000001000000010000000100000 r
b11111111111111111111111111111111 m
1n
1l
16!
1j
0l
#480000
0!
#485000
1!
0n
0$
0#
0j
b0 m
06!
#490000
0!
#495000
1!
0o
b0 s
b0 q
b0 r
0%
0)
0(
0'
0&
#500000
0!
#505000
1!
b11000 q
b100000001000000010000000100000 r
1%
1)
1(
1'
1&
1g
1E
0D
1=
0<
15
04
1-
0,
1$
1#
#510000
0!
#515000
1!
1o
b1111 s
b11100 q
b10000000100000001000000010000 r
b11111111111111111111111111111111 m
1n
1l
16!
1j
0l
#520000
0!
#525000
1!
0n
0$
0#
0j
b0 m
06!
#530000
0!
#535000
1!
0o
b0 s
b0 q
b0 r
0%
0)
0(
0'
0&
#540000
0!
#545000
1!
b11100 q
b10000000100000001000000010000 r
1%
1'
0g
0f
0e
1d
1I
0E
0=
05
0-
1$
1#
#550000
0!
#555000
1!
1o
b100 s
b100000 q
b1 r
b11111111111111111111111111111111 m
1n
1l
16!
1j
0l
#560000
0!
#565000
1!
0n
0$
0#
0j
b0 m
06!
#570000
0!
#575000
1!
0o
b0 s
b0 q
b0 r
0%
0'
#580000
0!
#585000
1!
b100000 q
b1 r
1)
1g
1e
1$
1#
#590000
0!
#595000
1!
b1 s
b110100 q
b11111111111111111111111111111111 m
1n
1l
16!
04!
03!
02!
01!
00!
0/!
0.!
0-!
0,!
0+!
0*!
0)!
0(!
0'!
0&!
0%!
0$!
0#!
0"!
0!!
0~
0}
0|
0{
0z
0y
0x
0w
0v
0u
0t
1j
b1 m
0l
#600000
0!
#605000
1!
0n
0$
0#
0j
b0 m
06!
14!
13!
12!
11!
10!
1/!
1.!
1-!
1,!
1+!
1*!
1)!
1(!
1'!
1&!
1%!
1$!
1#!
1"!
1!!
1~
1}
1|
1{
1z
1y
1x
1w
1v
1u
1t
#610000
0!
#615000
1!
b0 s
b0 q
b0 r
0)
#620000
0!
#625000
1!
b110100 q
b1 r
#630000
0!
#635000
1!
1)
1$
1#
#640000
0!
#645000
1!
b1 s
b11111111111111111111111111111111 m
1n
1l
16!
04!
03!
02!
01!
00!
0/!
0.!
0-!
0,!
0+!
0*!
0)!
0(!
0'!
0&!
0%!
0$!
0#!
0"!
0!!
0~
0}
0|
0{
0z
0y
0x
0w
0v
0u
0t
1j
b1 m
0l
#650000
0!
#655000
1!
0n
0$
0#
0j
b0 m
06!
14!
13!
12!
11!
10!
1/!
1.!
1-!
1,!
1+!
1*!
1)!
1(!
1'!
1&!
1%!
1$!
1#!
1"!
1!!
1~
1}
1|
1{
1z
1y
1x
1w
1v
1u
1t
#660000
0!
#665000
1!
b0 s
b0 q
b0 r
0)
#670000
0!
#675000
1!
b110100 q
b1 r
#680000
0!
#685000
1!
1)
1$
1#
#690000
0!
#695000
1!
b1 s
b11111111111111111111111111111111 m
1n
1l
16!
04!
03!
02!
01!
00!
0/!
0.!
0-!
0,!
0+!
0*!
0)!
0(!
0'!
0&!
0%!
0$!
0#!
0"!
0!!
0~
0}
0|
0{
0z
0y
0x
0w
0v
0u
0t
1j
b1 m
0l
#700000
0!
#705000
1!
0n
0$
0#
0j
b0 m
06!
14!
13!
12!
11!
10!
1/!
1.!
1-!
1,!
1+!
1*!
1)!
1(!
1'!
1&!
1%!
1$!
1#!
1"!
1!!
1~
1}
1|
1{
1z
1y
1x
1w
1v
1u
1t
#710000
0!
#715000
1!
b0 s
b0 q
b0 r
0)
#720000
0!
#725000
1!
b110100 q
b1 r
#730000
0!
#735000
1!
1)
1$
1#
#740000
0!
#745000
1!
b1 s
b11111111111111111111111111111111 m
1n
1l
16!
04!
03!
02!
01!
00!
0/!
0.!
0-!
0,!
0+!
0*!
0)!
0(!
0'!
0&!
0%!
0$!
0#!
0"!
0!!
0~
0}
0|
0{
0z
0y
0x
0w
0v
0u
0t
1j
b1 m
0l
#750000
0!
#755000
1!
0n
0$
0#
0j
b0 m
06!
14!
13!
12!
11!
10!
1/!
1.!
1-!
1,!
1+!
1*!
1)!
1(!
1'!
1&!
1%!
1$!
1#!
1"!
1!!
1~
1}
1|
1{
1z
1y
1x
1w
1v
1u
1t
#760000
0!
#765000
1!
b0 s
b0 q
b0 r
0)
#770000
0!
#775000
1!
b110100 q
b1 r
#780000
0!
#785000
1!
1)
1$
1#
#790000
0!
#795000
1!
b1 s
b11111111111111111111111111111111 m
1n
1l
16!
04!
03!
02!
01!
00!
0/!
0.!
0-!
0,!
0+!
0*!
0)!
0(!
0'!
0&!
0%!
0$!
0#!
0"!
0!!
0~
0}
0|
0{
0z
0y
0x
0w
0v
0u
0t
1j
b1 m
0l
#800000
0!
#805000
1!
0n
0$
0#
0j
b0 m
06!
14!
13!
12!
11!
10!
1/!
1.!
1-!
1,!
1+!
1*!
1)!
1(!
1'!
1&!
1%!
1$!
1#!
1"!
1!!
1~
1}
1|
1{
1z
1y
1x
1w
1v
1u
1t
#810000
0!
#815000
1!
b0 s
b0 q
b0 r
0)
#820000
0!
#825000
1!
b110100 q
b1 r
#830000
0!
#835000
1!
1)
1$
1#
#840000
0!
#845000
1!
b1 s
b11111111111111111111111111111111 m
1n
1l
16!
05!
04!
03!
02!
01!
00!
0/!
0.!
0-!
0,!
0+!
0*!
0)!
0(!
0'!
0&!
0%!
0$!
0#!
0"!
0!!
0~
0}
0|
0{
0z
0y
0x
0w
0v
0u
0t
1j
b0 m
0l
#850000
0!
#855000
1!
0n
0$
0#
0j
06!
15!
14!
13!
12!
11!
10!
1/!
1.!
1-!
1,!
1+!
1*!
1)!
1(!
1'!
1&!
1%!
1$!
1#!
1"!
1!!
1~
1}
1|
1{
1z
1y
1x
1w
1v
1u
1t
#860000
0!
#865000
1!
b0 s
b0 q
b0 r
0)
#870000
0!
#875000
1!
b110100 q
b1 r
#880000
0!
#885000
1!
1)
1(
1'
1&
0e
1$
1#
#890000
0!
#895000
1!
b1111 s
b100100 q
b11111111111111111111111111111111 m
1n
1l
16!
05!
03!
02!
00!
0-!
0,!
0*!
0(!
0%!
0$!
0!!
0y
0x
0v
0u
0t
1j
b10011111011001101010011010010 m
0l
#900000
0!
#905000
1!
0n
0$
0#
0j
b0 m
06!
15!
13!
12!
10!
1-!
1,!
1*!
1(!
1%!
1$!
1!!
1y
1x
1v
1u
1t
#910000
0!
#915000
1!
b0 s
b0 q
b0 r
0)
0(
0'
0&
#920000
0!
#925000
1!
b100100 q
b1 r
#930000
0!
#935000
1!
1)
1(
1'
1&
0g
1f
1$
1#
#940000
0!
#945000
1!
b1111 s
b101000 q
b11111111111111111111111111111111 m
1n
1l
16!
05!
04!
01!
0,!
0'!
0&!
0%!
0$!
0#!
0"!
0~
0}
0|
0{
0y
0w
0v
0u
1j
b10001010000100000011110111101100 m
0l
#950000
0!
#955000
1!
0n
0$
0#
0j
b0 m
06!
15!
14!
11!
1,!
1'!
1&!
1%!
1$!
1#!
1"!
1~
1}
1|
1{
1y
1w
1v
1u
#960000
0!
#965000
1!
b0 s
b0 q
b0 r
0)
0(
0'
0&
#970000
0!
#975000
1!
b101000 q
b1 r
#980000
0!
#985000
1!
1)
1(
1'
1&
1g
1$
1#
#990000
0!
#995000
1!
b1111 s
b101100 q
b11111111111111111111111111111111 m
1n
1l
16!
05!
0.!
0'!
0&!
0"!
0!!
0~
0}
0|
0y
0x
0w
0u
0t
1j
b100011000001110011111101111110 m
0l
#1000000
0!
#1005000
1!
0n
0$
0#
0j
b0 m
06!
15!
1.!
1'!
1&!
1"!
1!!
1~
1}
1|
1y
1x
1w
1u
1t
#1010000
0!
#1015000
1!
b0 s
b0 q
b0 r
0)
0(
0'
0&
#1020000
0!
#1025000
1!
b101100 q
b1 r
#1030000
0!
#1035000
1!
1)
1(
1'
1&
0g
0f
1e
1$
1#
#1040000
0!
#1045000
1!
b1111 s
b110000 q
b11111111111111111111111111111111 m
1n
1l
16!
03!
02!
01!
00!
0/!
0-!
0+!
0)!
0'!
0#!
0"!
0!!
0~
0|
0{
0z
0x
0v
0t
1j
b1010100010000111010101010000011 m
0l
#1050000
0!
#1055000
1!
0n
0$
0#
0j
b0 m
06!
13!
12!
11!
10!
1/!
1-!
1+!
1)!
1'!
1#!
1"!
1!!
1~
1|
1{
1z
1x
1v
1t
#1060000
0!
#1065000
1!
b0 s
b0 q
b0 r
0)
0(
0'
0&
#1070000
0!
#1075000
1!
b110000 q
b1 r
#1080000
0!
#1085000
1!
1%
1)
0e
1c
0)
0%
0I
1H
1E
1C
1B
#1090000
0!
#1095000
1!
b1100000 q
b11010010 r
#1100000
0!
#1105000
1!
#1110000
0!
#1115000
1!
#1120000
0!
#1125000
1!
#1130000
0!
#1135000
1!
#1140000
0!
#1145000
1!
#1150000
0!
#1155000
1!
#1160000
0!
#1165000
1!
#1170000
0!
#1175000
1!
#1180000
0!
#1185000
1!
0d
0c
0H
0E
0C
0B
1#
0#
#1190000
0!
#1195000
1!
b0 q
b0 r
1d
1c
1H
1E
1C
1B
#1200000
0!
#1205000
1!
b1100000 q
b11010010 r
0H
1G
#1210000
0!
#1215000
1!
b11010100 r
#1220000
0!
#1225000
1!
#1230000
0!
#1235000
1!
#1240000
0!
#1245000
1!
#1250000
0!
#1255000
1!
#1260000
0!
#1265000
1!
#1270000
0!
#1275000
1!
#1280000
0!
#1285000
1!
#1290000
0!
#1295000
1!
#1300000
0!
#1305000
1!
0d
0c
0G
0E
0C
0B
1#
0#
#1310000
0!
#1315000
1!
b0 q
b0 r
1d
1c
1G
1E
1C
1B
#1320000
0!
#1325000
1!
b1100000 q
b11010100 r
1F
0E
1D
#1330000
0!
#1335000
1!
b11101100 r
#1340000
0!
#1345000
1!
#1350000
0!
#1355000
1!
#1360000
0!
#1365000
1!
#1370000
0!
#1375000
1!
#1380000
0!
#1385000
1!
#1390000
0!
#1395000
1!
#1400000
0!
#1405000
1!
#1410000
0!
#1415000
1!
#1420000
0!
#1425000
1!
0d
0c
0G
0F
0D
0C
0B
1#
0#
#1430000
0!
#1435000
1!
b0 q
b0 r
1d
1c
1G
1F
1D
1C
1B
#1440000
0!
#1445000
1!
b1100000 q
b11101100 r
1I
1H
0G
0F
1E
0D
0C
0B
#1450000
0!
#1455000
1!
b10011 r
#1460000
0!
#1465000
1!
#1470000
0!
#1475000
1!
#1480000
0!
#1485000
1!
#1490000
0!
#1495000
1!
#1500000
0!
#1505000
1!
#1510000
0!
#1515000
1!
#1520000
0!
#1525000
1!
#1530000
0!
#1535000
1!
#1540000
0!
#1545000
1!
0d
0c
0I
0H
0E
1#
0#
#1550000
0!
#1555000
1!
b0 q
b0 r
1d
1c
1I
1H
1E
#1560000
0!
#1565000
1!
b1100000 q
b10011 r
0I
0H
1G
1F
0E
1D
1C
1B
#1570000
0!
#1575000
1!
b11101100 r
#1580000
0!
#1585000
1!
#1590000
0!
#1595000
1!
#1600000
0!
#1605000
1!
#1610000
0!
#1615000
1!
#1620000
0!
#1625000
1!
#1630000
0!
#1635000
1!
#1640000
0!
#1645000
1!
#1650000
0!
#1655000
1!
#1660000
0!
#1665000
1!
0d
0c
0G
0F
0D
0C
0B
1#
0#
#1670000
0!
#1675000
1!
b0 q
b0 r
1d
1c
1G
1F
1D
1C
1B
#1680000
0!
#1685000
1!
b1100000 q
b11101100 r
1I
1E
0C
0B
#1690000
0!
#1695000
1!
b111101 r
#1700000
0!
#1705000
1!
#1710000
0!
#1715000
1!
#1720000
0!
#1725000
1!
#1730000
0!
#1735000
1!
#1740000
0!
#1745000
1!
#1750000
0!
#1755000
1!
#1760000
0!
#1765000
1!
#1770000
0!
#1775000
1!
#1780000
0!
#1785000
1!
0d
0c
0I
0G
0F
0E
0D
1#
0#
#1790000
0!
#1795000
1!
b0 q
b0 r
1d
1c
1I
1G
1F
1E
1D
#1800000
0!
#1805000
1!
b1100000 q
b111101 r
0I
0G
0F
0D
#1810000
0!
#1815000
1!
b10000 r
#1820000
0!
#1825000
1!
#1830000
0!
#1835000
1!
#1840000
0!
#1845000
1!
#1850000
0!
#1855000
1!
#1860000
0!
#1865000
1!
#1870000
0!
#1875000
1!
#1880000
0!
#1885000
1!
#1890000
0!
#1895000
1!
#1900000
0!
#1905000
1!
0d
0c
0E
1#
0#
#1910000
0!
#1915000
1!
b0 q
b0 r
1d
1c
1E
#1920000
0!
#1925000
1!
b1100000 q
b10000 r
1H
1F
0E
1B
#1930000
0!
#1935000
1!
b10001010 r
#1940000
0!
#1945000
1!
#1950000
0!
#1955000
1!
#1960000
0!
#1965000
1!
#1970000
0!
#1975000
1!
#1980000
0!
#1985000
1!
#1990000
0!
#1995000
1!
#2000000
0!
#2005000
1!
#2010000
0!
#2015000
1!
#2020000
0!
#2025000
1!
0d
0c
0H
0F
0B
1#
0#
#2030000
0!
#2035000
1!
b0 q
b0 r
1d
1c
1H
1F
1B
#2040000
0!
#2045000
1!
b1100000 q
b10001010 r
1G
1E
1D
1C
0B
#2050000
0!
#2055000
1!
b1111110 r
#2060000
0!
#2065000
1!
#2070000
0!
#2075000
1!
#2080000
0!
#2085000
1!
#2090000
0!
#2095000
1!
#2100000
0!
#2105000
1!
#2110000
0!
#2115000
1!
#2120000
0!
#2125000
1!
#2130000
0!
#2135000
1!
#2140000
0!
#2145000
1!
0d
0c
0H
0G
0F
0E
0D
0C
1#
0#
#2150000
0!
#2155000
1!
b0 q
b0 r
1d
1c
1H
1G
1F
1E
1D
1C
#2160000
0!
#2165000
1!
b1100000 q
b1111110 r
1I
0C
#2170000
0!
#2175000
1!
b111111 r
#2180000
0!
#2185000
1!
#2190000
0!
#2195000
1!
#2200000
0!
#2205000
1!
#2210000
0!
#2215000
1!
#2220000
0!
#2225000
1!
#2230000
0!
#2235000
1!
#2240000
0!
#2245000
1!
#2250000
0!
#2255000
1!
#2260000
0!
#2265000
1!
0d
0c
0I
0H
0G
0F
0E
0D
1#
0#
#2270000
0!
#2275000
1!
b0 q
b0 r
1d
1c
1I
1H
1G
1F
1E
1D
#2280000
0!
#2285000
1!
b1100000 q
b111111 r
0F
0E
0D
#2290000
0!
#2295000
1!
b111 r
#2300000
0!
#2305000
1!
#2310000
0!
#2315000
1!
#2320000
0!
#2325000
1!
#2330000
0!
#2335000
1!
#2340000
0!
#2345000
1!
#2350000
0!
#2355000
1!
#2360000
0!
#2365000
1!
#2370000
0!
#2375000
1!
#2380000
0!
#2385000
1!
0d
0c
0I
0H
0G
1#
0#
#2390000
0!
#2395000
1!
b0 q
b0 r
1d
1c
1I
1H
1G
#2400000
0!
#2405000
1!
b1100000 q
b111 r
0G
1D
#2410000
0!
#2415000
1!
b100011 r
#2420000
0!
#2425000
1!
#2430000
0!
#2435000
1!
#2440000
0!
#2445000
1!
#2450000
0!
#2455000
1!
#2460000
0!
#2465000
1!
#2470000
0!
#2475000
1!
#2480000
0!
#2485000
1!
#2490000
0!
#2495000
1!
#2500000
0!
#2505000
1!
0d
0c
0I
0H
0D
1#
0#
#2510000
0!
#2515000
1!
b0 q
b0 r
1d
1c
1I
1H
1D
#2520000
0!
#2525000
1!
b1100000 q
b100011 r
0D
1B
#2530000
0!
#2535000
1!
b10000011 r
#2540000
0!
#2545000
1!
#2550000
0!
#2555000
1!
#2560000
0!
#2565000
1!
#2570000
0!
#2575000
1!
#2580000
0!
#2585000
1!
#2590000
0!
#2595000
1!
#2600000
0!
#2605000
1!
#2610000
0!
#2615000
1!
#2620000
0!
#2625000
1!
0d
0c
0I
0H
0B
1#
0#
#2630000
0!
#2635000
1!
b0 q
b0 r
1d
1c
1I
1H
1B
#2640000
0!
#2645000
1!
b1100000 q
b10000011 r
0I
1F
1D
#2650000
0!
#2655000
1!
b10101010 r
#2660000
0!
#2665000
1!
#2670000
0!
#2675000
1!
#2680000
0!
#2685000
1!
#2690000
0!
#2695000
1!
#2700000
0!
#2705000
1!
#2710000
0!
#2715000
1!
#2720000
0!
#2725000
1!
#2730000
0!
#2735000
1!
#2740000
0!
#2745000
1!
0d
0c
0H
0F
0D
0B
1#
0#
#2750000
0!
#2755000
1!
b0 q
b0 r
1d
1c
1H
1F
1D
1B
#2760000
0!
#2765000
1!
b1100000 q
b10101010 r
1I
0F
0D
1C
0B
#2770000
0!
#2775000
1!
b1000011 r
#2780000
0!
#2785000
1!
#2790000
0!
#2795000
1!
#2800000
0!
#2805000
1!
#2810000
0!
#2815000
1!
#2820000
0!
#2825000
1!
#2830000
0!
#2835000
1!
#2840000
0!
#2845000
1!
#2850000
0!
#2855000
1!
#2860000
0!
#2865000
1!
0d
0c
0I
0H
0C
1#
0#
#2870000
0!
#2875000
1!
b0 q
b0 r
1d
1c
1I
1H
1C
#2880000
0!
#2885000
1!
b1100000 q
b1000011 r
0I
0H
1G
1E
#2890000
0!
#2895000
1!
b1010100 r
#2900000
0!
#2905000
1!
#2910000
0!
#2915000
1!
#2920000
0!
#2925000
1!
#2930000
0!
#2935000
1!
#2940000
0!
#2945000
1!
#2950000
0!
#2955000
1!
#2960000
0!
#2965000
1!
#2970000
0!
#2975000
1!
#2980000
0!
#2985000
1!
0d
0c
0G
0E
0C
1#
0#
#2990000
0!
#2995000
1!
b0 q
b0 r
1d
1c
1G
1E
1C
#3000000
0!
#3005000
1!
b1100000 q
b1010100 r
1e
0d
0c
1)
1(
1'
1&
1%
1H
0G
1B
1?
1=
1;
1:
17
16
14
13
12
11
10
1-
1$
1#
#3010000
0!
#3015000
1!
1o
b1111 s
b10000 q
b10011111011001101010011010010 r
b11111111111111111111111111111111 m
1n
1l
16!
1j
0l
#3020000
0!
#3025000
1!
0n
0$
0#
0j
b0 m
06!
#3030000
0!
#3035000
1!
0o
b0 s
b0 q
b0 r
0%
0)
0(
0'
0&
#3040000
0!
#3045000
1!
b10000 q
b10011111011001101010011010010 r
1%
1)
1(
1'
1&
1g
0H
1G
1F
0E
1D
1A
1>
1<
0;
0:
07
06
15
04
03
02
01
1.
0-
1*
1$
1#
#3050000
0!
#3055000
1!
1o
b1111 s
b10100 q
b10001010000100000011110111101100 r
b11111111111111111111111111111111 m
1n
1l
16!
1j
0l
#3060000
0!
#3065000
1!
0n
0$
0#
0j
b0 m
06!
#3070000
0!
