Designs/climate_prediction/climate_prediction.vcd
$date
	Fri May 16 14:40:53 2025
$end
$version
	ModelSim Version 2019.4
$end
$timescale
	1ns
$end

$scope module tbench_top $end
$var reg 1 ! clk $end

$scope module t1 $end
$upscope $end

$scope module DUT $end
$var reg 32 " current_state [31:0] $end
$var reg 32 # next_state [31:0] $end
$var reg 32 $ reg_temperature [31:0] $end
$var reg 32 % prev_temperature [31:0] $end
$var reg 32 & reg_pressure [31:0] $end
$var reg 32 ' prev_pressure [31:0] $end
$upscope $end

$scope module intf $end
$var wire 1 ( clk $end
$var reg 1 ) rst_n $end
$var reg 32 * temperature [31:0] $end
$var reg 32 + pressure [31:0] $end
$var reg 1 , snow $end
$var reg 1 - sunny $end
$var reg 1 . storm $end
$var reg 1 / error $end
$var reg 1 0 done $end

$upscope $end
$upscope $end
$upscope $end
$enddefinitions $end
#0
$dumpvars
0!
0)
b0 *
b0 +
0,
0-
0.
0/
00
b0 "
b1 #
b0 $
b0 %
b0 &
b0 '
0(
$end
#5
1!
1(
#10
0!
0(
#15
1!
1(
#20
0!
0(
1)
b11111111111111111111111111110001 *
b10001000101 +
#25
1!
1(
b1 "
b11111111111111111111111111110001 $
b10001000101 &
b0 #
#30
0!
0(
#35
1!
1(
b0 "
b11111111111111111111111111110001 %
b10001000101 '
10
1/
b1 #
#40
0!
0(
#45
1!
1(
b1 "
0/
00
b0 #
0)
b0 $
b0 &
b0 "
b1 #
#50
0!
0(
#55
1!
1(
#60
0!
0(
1)
b110000 *
b1110000011 +
#65
1!
1(
b1 "
b110000 $
b1110000011 &
b0 #
#70
0!
0(
#75
1!
1(
b0 "
b110000 %
b1110000011 '
10
1/
b1 #
#80
0!
0(
#85
1!
1(
b1 "
0/
00
b0 #
0)
b0 $
b0 &
b0 "
b1 #
#90
0!
0(
#95
1!
1(
#100
0!
0(
1)
b11000 *
b1111111111 +
#105
1!
1(
b1 "
b11000 $
b1111111111 &
b0 #
#110
0!
0(
#115
1!
1(
b0 "
b11000 %
b1111111111 '
10
1/
b1 #
#120
0!
0(
#125
1!
1(
b1 "
0/
00
b0 #
0)
b0 $
b0 &
b0 "
b1 #
#130
0!
0(
#135
1!
1(
#140
0!
0(
1)
b100110 *
b1110101111 +
#145
1!
1(
b1 "
b100110 $
b1110101111 &
b0 #
#150
0!
0(
#155
1!
1(
b0 "
b100110 %
b1110101111 '
10
1/
b1 #
#160
0!
0(
#165
1!
1(
b1 "
0/
00
b0 #
0)
b0 $
b0 &
b0 "
b1 #
#170
0!
0(
#175
1!
1(
#180
0!
0(
1)
b110110 *
b1111000011 +
#185
1!
1(
b1 "
b110110 $
b1111000011 &
b0 #
#190
0!
0(
#195
1!
1(
b0 "
b110110 %
b1111000011 '
10
1/
b1 #
#200
0!
0(
#205
1!
1(
b1 "
0/
00
b0 #
0)
b0 $
b0 &
b0 "
b1 #
#210
0!
0(
#215
1!
1(
#220
0!
0(
1)
b11111111111111111111111111101111 *
b10001111110 +
#225
1!
1(
b1 "
b11111111111111111111111111101111 $
b10001111110 &
b0 #
#230
0!
0(
#235
1!
1(
b0 "
b11111111111111111111111111101111 %
b10001111110 '
10
1/
b1 #
#240
0!
0(
#245
1!
1(
b1 "
0/
00
b0 #
0)
b0 $
b0 &
b0 "
b1 #
#250
0!
0(
#255
1!
1(
#260
0!
0(
1)
b111010 *
b1110100100 +
#265
1!
1(
b1 "
b111010 $
b1110100100 &
b0 #
#270
0!
0(
#275
1!
1(
b0 "
b111010 %
b1110100100 '
10
1/
b1 #
#280
0!
0(
#285
1!
1(
b1 "
0/
00
b0 #
0)
b0 $
b0 &
b0 "
b1 #
#290
0!
0(
#295
1!
1(
#300
0!
0(
1)
b110110 *
b10001110101 +
#305
1!
1(
b1 "
b110110 $
b10001110101 &
b0 #
#310
0!
0(
#315
1!
1(
b0 "
b110110 %
b10001110101 '
10
1/
b1 #
#320
0!
0(
#325
1!
1(
b1 "
0/
00
b0 #
0)
b0 $
b0 &
b0 "
b1 #
#330
0!
0(
#335
1!
1(
#340
0!
0(
1)
b110100 *
b10000010101 +
#345
1!
1(
b1 "
b110100 $
b10000010101 &
b0 #
#350
0!
0(
#355
1!
1(
b0 "
b110100 %
b10000010101 '
10
1/
b1 #
#360
0!
0(
#365
1!
1(
b1 "
0/
00
b0 #
0)
b0 $
b0 &
b0 "
b1 #
#370
0!
0(
#375
1!
1(
#380
0!
0(
1)
b1111 *
b1111111011 +
#385
1!
1(
b1 "
b1111 $
b1111111011 &
b0 #
#390
0!
0(
#395
1!
1(
b0 "
b1111 %
b1111111011 '
10
1/
b1 #
#400
0!
0(
#405
1!
1(
b1 "
0/
00
b0 #
0)
b0 $
b0 &
b0 "
b1 #
#410
0!
0(
#415
1!
1(
#420
0!
0(
1)
b11111111111111111111111111110001 *
b10000101110 +
#425
1!
1(
b1 "
b11111111111111111111111111110001 $
b10000101110 &
b0 #
#430
0!
0(
#435
1!
1(
b0 "
b11111111111111111111111111110001 %
b10000101110 '
10
1/
b1 #
#440
0!
0(
#445
1!
1(
b1 "
0/
00
b0 #
0)
b0 $
b0 &
b0 "
b1 #
#450
0!
0(
#455
1!
1(
#460
0!
0(
1)
b10110 *
b10001001001 +
#465
1!
1(
b1 "
b10110 $
b10001001001 &
b0 #
#470
0!
0(
#475
1!
1(
b0 "
b10110 %
b10001001001 '
10
1-
b1 #
#480
0!
0(
#485
1!
1(
b1 "
0-
00
b0 #
0)
b0 $
b0 &
b0 "
b1 #
#490
0!
0(
#495
1!
1(
#500
0!
0(
1)
b1000 *
b10001100011 +
#505
1!
1(
b1 "
b1000 $
b10001100011 &
b0 #
#510
0!
0(
#515
1!
1(
b0 "
b1000 %
b10001100011 '
10
1/
b1 #
#520
0!
0(
#525
1!
1(
b1 "
0/
00
b0 #
0)
b0 $
b0 &
b0 "
b1 #
#530
0!
0(
#535
1!
1(
#540
0!
0(
1)
b11111111111111111111111111111000 *
b10001011100 +
#545
1!
1(
b1 "
b11111111111111111111111111111000 $
b10001011100 &
b0 #
#550
0!
0(
#555
1!
1(
b0 "
b11111111111111111111111111111000 %
b10001011100 '
10
1/
b1 #
#560
0!
0(
#565
1!
1(
b1 "
0/
00
b0 #
0)
b0 $
b0 &
b0 "
b1 #
#570
0!
0(
#575
1!
1(
#580
0!
0(
1)
b100001 *
b10000001000 +
#585
1!
1(
b1 "
b100001 $
b10000001000 &
b0 #
#590
0!
0(
#595
1!
1(
b0 "
b100001 %
b10000001000 '
10
1/
b1 #
#600
0!
0(
#605
1!
1(
b1 "
0/
00
b0 #
0)
b0 $
b0 &
b0 "
b1 #
#610
0!
0(
#615
1!
1(
#620
0!
0(
1)
b101101 *
b1111100000 +
#625
1!
1(
b1 "
b101101 $
b1111100000 &
b0 #
#630
0!
0(
#635
1!
1(
b0 "
b101101 %
b1111100000 '
10
1/
b1 #
#640
0!
0(
#645
1!
1(
b1 "
0/
00
b0 #
0)
b0 $
b0 &
b0 "
b1 #
#650
0!
0(
#655
1!
1(
#660
0!
0(
1)
b101111 *
b1111010011 +
#665
1!
1(
b1 "
b101111 $
b1111010011 &
b0 #
#670
0!
0(
#675
1!
1(
b0 "
b101111 %
b1111010011 '
10
1/
b1 #
#680
0!
0(
#685
1!
1(
b1 "
0/
00
b0 #
0)
b0 $
b0 &
b0 "
b1 #
#690
0!
0(
#695
1!
1(
#700
0!
0(
1)
b100111 *
b1111110010 +
#705
1!
1(
b1 "
b100111 $
b1111110010 &
b0 #
#710
0!
0(
#715
1!
1(
b0 "
b100111 %
b1111110010 '
10
1/
b1 #
#720
0!
0(
#725
1!
1(
b1 "
0/
00
b0 #
0)
b0 $
b0 &
b0 "
b1 #
#730
0!
0(
#735
1!
1(
#740
0!
0(
1)
b10110 *
b1101111110 +
#745
1!
1(
b1 "
b10110 $
b1101111110 &
b0 #
#750
0!
0(
#755
1!
1(
b0 "
b10110 %
b1101111110 '
10
1/
b1 #
#760
0!
0(
#765
1!
1(
b1 "
0/
00
b0 #
0)
b0 $
b0 &
b0 "
b1 #
#770
0!
0(
#775
1!
1(
#780
0!
0(
1)
b100111 *
b10001111110 +
#785
1!
1(
b1 "
b100111 $
b10001111110 &
b0 #
#790
0!
0(
#795
1!
1(
b0 "
b100111 %
b10001111110 '
10
1/
b1 #
#800
0!
0(
#805
1!
1(
b1 "
0/
00
b0 #
0)
b0 $
b0 &
b0 "
b1 #
#810
0!
0(
#815
1!
1(
#820
0!
0(
1)
b11111111111111111111111111110011 *
b1111010001 +
#825
1!
1(
b1 "
b11111111111111111111111111110011 $
b1111010001 &
b0 #
#830
0!
0(
#835
1!
1(
b0 "
b11111111111111111111111111110011 %
b1111010001 '
10
1,
b1 #
#840
0!
0(
#845
1!
1(
b1 "
0,
00
b0 #
0)
b0 $
b0 &
b0 "
b1 #
#850
0!
0(
#855
1!
1(
#860
0!
0(
1)
b101100 *
b10001000101 +
#865
1!
1(
b1 "
b101100 $
b10001000101 &
b0 #
#870
0!
0(
#875
1!
1(
b0 "
b101100 %
b10001000101 '
10
1-
b1 #
#880
0!
0(
#885
1!
1(
b1 "
0-
00
b0 #
0)
b0 $
b0 &
b0 "
b1 #
#890
0!
0(
#895
1!
1(
#900
0!
0(
1)
b101110 *
b10000010000 +
#905
1!
1(
b1 "
b101110 $
b10000010000 &
b0 #
#910
0!
0(
#915
1!
1(
b0 "
b101110 %
b10000010000 '
10
1/
b1 #
#920
0!
0(
#925
1!
1(
b1 "
0/
00
b0 #
0)
b0 $
b0 &
b0 "
b1 #
#930
0!
0(
#935
1!
1(
#940
0!
0(
1)
b11111111111111111111111111100101 *
b10000000000 +
#945
1!
1(
b1 "
b11111111111111111111111111100101 $
b10000000000 &
b0 #
#950
0!
0(
#955
1!
1(
b0 "
b11111111111111111111111111100101 %
b10000000000 '
10
1/
b1 #
#960
0!
0(
#965
1!
1(
b1 "
0/
00
b0 #
0)
b0 $
b0 &
b0 "
b1 #
#970
0!
0(
#975
1!
1(
#980
0!
0(
1)
b101111 *
b1110110100 +
#985
1!
1(
b1 "
b101111 $
b1110110100 &
b0 #
#990
0!
0(
#995
1!
1(
b0 "
b101111 %
b1110110100 '
10
1/
b1 #
#1000
0!
0(
#1005
1!
1(
b1 "
0/
00
b0 #
0)
b0 $
b0 &
b0 "
b1 #
#1010
0!
0(
#1015
1!
1(
#1020
0!
0(
1)
b11111111111111111111111111100010 *
b10000100101 +
#1025
1!
1(
b1 "
b11111111111111111111111111100010 $
b10000100101 &
b0 #
#1030
0!
0(
#1035
1!
1(
b0 "
b11111111111111111111111111100010 %
b10000100101 '
10
1/
b1 #
#1040
0!
0(
#1045
1!
1(
b1 "
0/
00
b0 #
0)
b0 $
b0 &
b0 "
b1 #
#1050
0!
0(
#1055
1!
1(
#1060
0!
0(
1)
b11111111111111111111111111110110 *
b10000011111 +
#1065
1!
1(
b1 "
b11111111111111111111111111110110 $
b10000011111 &
b0 #
#1070
0!
0(
#1075
1!
1(
b0 "
b11111111111111111111111111110110 %
b10000011111 '
10
1/
b1 #
#1080
0!
0(
#1085
1!
1(
b1 "
0/
00
b0 #
0)
b0 $
b0 &
b0 "
b1 #
#1090
0!
0(
#1095
1!
1(
#1100
0!
0(
1)
b101001 *
b1111010111 +
#1105
1!
1(
b1 "
b101001 $
b1111010111 &
b0 #
#1110
0!
0(
#1115
1!
1(
b0 "
b101001 %
b1111010111 '
10
1/
b1 #
#1120
0!
0(
#1125
1!
1(
b1 "
0/
00
b0 #
0)
b0 $
b0 &
b0 "
b1 #
#1130
0!
0(
#1135
1!
1(
#1140
0!
0(
1)
b11111111111111111111111111101101 *
b1111011010 +
#1145
1!
1(
b1 "
b11111111111111111111111111101101 $
b1111011010 &
b0 #
#1150
0!
0(
#1155
1!
1(
b0 "
b11111111111111111111111111101101 %
b1111011010 '
10
1,
b1 #
#1160
0!
0(
#1165
1!
1(
b1 "
0,
00
b0 #
0)
b0 $
b0 &
b0 "
b1 #
#1170
0!
0(
#1175
1!
1(
#1180
0!
0(
1)
b1010 *
b1111111011 +
#1185
1!
1(
b1 "
b1010 $
b1111111011 &
b0 #
#1190
0!
0(
#1195
1!
1(
b0 "
b1010 %
b1111111011 '
10
1,
b1 #
#1200
0!
0(
#1205
1!
1(
b1 "
0,
00
b0 #
0)
b0 $
b0 &
b0 "
b1 #
#1210
0!
0(
#1215
1!
1(
#1220
0!
0(
1)
b10111 *
b1111110101 +
#1225
1!
1(
b1 "
b10111 $
b1111110101 &
b0 #
#1230
0!
0(
#1235
1!
1(
b0 "
b10111 %
b1111110101 '
10
1/
b1 #
#1240
0!
0(
#1245
1!
1(
b1 "
0/
00
b0 #
0)
b0 $
b0 &
b0 "
b1 #
#1250
0!
0(
#1255
1!
1(
#1260
0!
0(
1)
b11111111111111111111111111111100 *
b1111101100 +
#1265
1!
1(
b1 "
b11111111111111111111111111111100 $
b1111101100 &
b0 #
#1270
0!
0(
#1275
1!
1(
b0 "
b11111111111111111111111111111100 %
b1111101100 '
10
1,
b1 #
#1280
0!
0(
#1285
1!
1(
b1 "
0,
00
b0 #
0)
b0 $
b0 &
b0 "
b1 #
#1290
0!
0(
#1295
1!
1(
#1300
0!
0(
1)
b101000 *
b1111000101 +
#1305
1!
1(
b1 "
b101000 $
b1111000101 &
b0 #
#1310
0!
0(
#1315
1!
1(
b0 "
b101000 %
b1111000101 '
10
1/
b1 #
#1320
0!
0(
#1325
1!
1(
b1 "
0/
00
b0 #
0)
b0 $
b0 &
b0 "
b1 #
#1330
0!
0(
#1335
1!
1(
#1340
0!
0(
1)
b11111111111111111111111111100110 *
b1110001100 +
#1345
1!
1(
b1 "
b11111111111111111111111111100110 $
b1110001100 &
b0 #
#1350
0!
0(
#1355
1!
1(
b0 "
b11111111111111111111111111100110 %
b1110001100 '
10
1/
b1 #
#1360
0!
0(
#1365
1!
1(
b1 "
0/
00
b0 #
0)
b0 $
b0 &
b0 "
b1 #
#1370
0!
0(
#1375
1!
1(
#1380
0!
0(
1)
b11110 *
b1110110011 +
#1385
1!
1(
b1 "
b11110 $
b1110110011 &
b0 #
#1390
0!
0(
#1395
1!
1(
b0 "
b11110 %
b1110110011 '
10
1/
b1 #
#1400
0!
0(
#1405
1!
1(
b1 "
0/
00
b0 #
0)
b0 $
b0 &
b0 "
b1 #
#1410
0!
0(
#1415
1!
1(
#1420
0!
0(
1)
b10111 *
b1110011010 +
#1425
1!
1(
b1 "
b10111 $
b1110011010 &
b0 #
#1430
0!
0(
#1435
1!
1(
b0 "
b10111 %
b1110011010 '
10
1/
b1 #
#1440
0!
0(
#1445
1!
1(
b1 "
0/
00
b0 #
0)
b0 $
b0 &
b0 "
b1 #
#1450
0!
0(
#1455
1!
1(
#1460
0!
0(
1)
b100001 *
b10000000000 +
#1465
1!
1(
b1 "
b100001 $
b10000000000 &
b0 #
#1470
0!
0(
#1475
1!
1(
b0 "
b100001 %
b10000000000 '
10
1/
b1 #
#1480
0!
0(
#1485
1!
1(
b1 "
0/
00
b0 #
0)
b0 $
b0 &
b0 "
b1 #
#1490
0!
0(
#1495
1!
1(
#1500
0!
0(
1)
b100010 *
b10000010001 +
#1505
1!
1(
b1 "
b100010 $
b10000010001 &
b0 #
#1510
0!
0(
#1515
1!
1(
b0 "
b100010 %
b10000010001 '
10
1/
b1 #
#1520
0!
0(
#1525
1!
1(
b1 "
0/
00
b0 #
0)
b0 $
b0 &
b0 "
b1 #
#1530
0!
0(
#1535
1!
1(
#1540
0!
0(
1)
b110 *
b10001001010 +
#1545
1!
1(
b1 "
b110 $
b10001001010 &
b0 #
#1550
0!
0(
#1555
1!
1(
b0 "
b110 %
b10001001010 '
10
1/
b1 #
#1560
0!
0(
#1565
1!
1(
b1 "
0/
00
b0 #
0)
b0 $
b0 &
b0 "
b1 #
#1570
0!
0(
#1575
1!
1(
#1580
0!
0(
1)
b101 *
b10000000011 +
#1585
1!
1(
b1 "
b101 $
b10000000011 &
b0 #
#1590
0!
0(
#1595
1!
1(
b0 "
b101 %
b10000000011 '
10
1,
b1 #
#1600
0!
0(
#1605
1!
1(
b1 "
0,
00
b0 #
0)
b0 $
b0 &
b0 "
b1 #
#1610
0!
0(
#1615
1!
1(
#1620
0!
0(
1)
b11111111111111111111111111110001 *
b1111010001 +
#1625
1!
1(
b1 "
b11111111111111111111111111110001 $
b1111010001 &
b0 #
#1630
0!
0(
#1635
1!
1(
b0 "
b11111111111111111111111111110001 %
b1111010001 '
10
1,
b1 #
#1640
0!
0(
#1645
1!
1(
b1 "
0,
00
b0 #
0)
b0 $
b0 &
b0 "
b1 #
#1650
0!
0(
#1655
1!
1(
#1660
0!
0(
1)
b110011 *
b1101111111 +
#1665
1!
1(
b1 "
b110011 $
b1101111111 &
b0 #
#1670
0!
0(
#1675
1!
1(
b0 "
b110011 %
b1101111111 '
10
1.
b1 #
#1680
0!
0(
#1685
1!
1(
b1 "
0.
00
b0 #
0)
b0 $
b0 &
b0 "
b1 #
#1690
0!
0(
#1695
1!
1(
#1700
0!
0(
1)
b11111111111111111111111111101000 *
b1111100101 +
#1705
1!
1(
b1 "
b11111111111111111111111111101000 $
b1111100101 &
b0 #
#1710
0!
0(
#1715
1!
1(
b0 "
b11111111111111111111111111101000 %
b1111100101 '
10
1/
b1 #
#1720
0!
0(
#1725
1!
1(
b1 "
0/
00
b0 #
0)
b0 $
b0 &
b0 "
b1 #
#1730
0!
0(
#1735
1!
1(
#1740
0!
0(
1)
b110001 *
b10000011010 +
#1745
1!
1(
b1 "
b110001 $
b10000011010 &
b0 #
#1750
0!
0(
#1755
1!
1(
b0 "
b110001 %
b10000011010 '
10
1/
b1 #
#1760
0!
0(
#1765
1!
1(
b1 "
0/
00
b0 #
0)
b0 $
b0 &
b0 "
b1 #
#1770
0!
0(
#1775
1!
1(
#1780
0!
0(
1)
b101101 *
b1111011111 +
#1785
1!
1(
b1 "
b101101 $
b1111011111 &
b0 #
#1790
0!
0(
#1795
1!
1(
b0 "
b101101 %
b1111011111 '
10
1/
b1 #
#1800
0!
0(
#1805
1!
1(
b1 "
0/
00
b0 #
0)
b0 $
b0 &
b0 "
b1 #
#1810
0!
0(
#1815
1!
1(
#1820
0!
0(
1)
b11111111111111111111111111110110 *
b1111111101 +
#1825
1!
1(
b1 "
b11111111111111111111111111110110 $
b1111111101 &
b0 #
#1830
0!
0(
#1835
1!
1(
b0 "
b11111111111111111111111111110110 %
b1111111101 '
10
1,
b1 #
#1840
0!
0(
#1845
1!
1(
b1 "
0,
00
b0 #
0)
b0 $
b0 &
b0 "
b1 #
#1850
0!
0(
#1855
1!
1(
#1860
0!
0(
1)
b110000 *
b1110110100 +
#1865
1!
1(
b1 "
b110000 $
b1110110100 &
b0 #
#1870
0!
0(
#1875
1!
1(
b0 "
b110000 %
b1110110100 '
10
1/
b1 #
#1880
0!
0(
#1885
1!
1(
b1 "
0/
00
b0 #
0)
b0 $
b0 &
b0 "
b1 #
#1890
0!
0(
#1895
1!
1(
#1900
0!
0(
1)
b11111111111111111111111111110010 *
b10000100110 +
#1905
1!
1(
b1 "
b11111111111111111111111111110010 $
b10000100110 &
b0 #
#1910
0!
0(
#1915
1!
1(
b0 "
b11111111111111111111111111110010 %
b10000100110 '
10
1/
b1 #
#1920
0!
0(
#1925
1!
1(
b1 "
0/
00
b0 #
0)
b0 $
b0 &
b0 "
b1 #
#1930
0!
0(
#1935
1!
1(
#1940
0!
0(
1)
b11111111111111111111111111110111 *
b1111001110 +
#1945
1!
1(
b1 "
b11111111111111111111111111110111 $
b1111001110 &
b0 #
#1950
0!
0(
#1955
1!
1(
b0 "
b11111111111111111111111111110111 %
b1111001110 '
10
1,
b1 #
#1960
0!
0(
#1965
1!
1(
b1 "
0,
00
b0 #
0)
b0 $
b0 &
b0 "
b1 #
#1970
0!
0(
#1975
1!
1(
#1980
0!
0(
1)
b111001 *
b10001100000 +
#1985
1!
1(
b1 "
b111001 $
b10001100000 &
b0 #
#1990
0!
0(
#1995
1!
1(
b0 "
b111001 %
b10001100000 '
10
1/
b1 #
#2000
0!
0(
#2005
1!
1(
b1 "
0/
00
b0 #
0)
b0 $
b0 &
b0 "
b1 #
#2010
0!
0(
#2015
1!
1(
#2020
0!
0(
1)
b11111111111111111111111111100100 *
b1111111101 +
#2025
1!
1(
b1 "
b11111111111111111111111111100100 $
b1111111101 &
b0 #
#2030
0!
0(
#2035
1!
1(
b0 "
b11111111111111111111111111100100 %
b1111111101 '
10
1/
b1 #
#2040
0!
0(
#2045
1!
1(
b1 "
0/
00
b0 #
0)
b0 $
b0 &
b0 "
b1 #
#2050
0!
0(
#2055
1!
1(
#2060
0!
0(
1)
b10101 *
b1111101111 +
#2065
1!
1(
b1 "
b10101 $
b1111101111 &
b0 #
#2070
0!
0(
#2075
1!
1(
b0 "
b10101 %
b1111101111 '
10
1/
b1 #
#2080
0!
0(
#2085
1!
1(
b1 "
0/
00
b0 #
0)
b0 $
b0 &
b0 "
b1 #
#2090
0!
0(
#2095
1!
1(
#2100
0!
0(
1)
b11111111111111111111111111111010 *
b1111111010 +
#2105
1!
1(
b1 "
b11111111111111111111111111111010 $
b1111111010 &
b0 #
#2110
0!
0(
#2115
1!
1(
b0 "
b11111111111111111111111111111010 %
b1111111010 '
10
1,
b1 #
#2120
0!
0(
#2125
1!
1(
b1 "
0,
00
b0 #
0)
b0 $
b0 &
b0 "
b1 #
#2130
0!
0(
#2135
1!
1(
#2140
0!
0(
1)
b110010 *
b1111010100 +
#2145
1!
1(
b1 "
b110010 $
b1111010100 &
b0 #
#2150
0!
0(
#2155
1!
1(
b0 "
b110010 %
b1111010100 '
10
1/
b1 #
#2160
0!
0(
#2165
1!
1(
b1 "
0/
00
b0 #
0)
b0 $
b0 &
b0 "
b1 #
#2170
0!
0(
#2175
1!
1(
#2180
0!
0(
1)
b101011 *
b1111010110 +
#2185
1!
1(
b1 "
b101011 $
b1111010110 &
b0 #
#2190
0!
0(
#2195
1!
1(
b0 "
b101011 %
b1111010110 '
10
1/
b1 #
#2200
0!
0(
#2205
1!
1(
b1 "
0/
00
b0 #
0)
b0 $
b0 &
b0 "
b1 #
#2210
0!
0(
#2215
1!
1(
#2220
0!
0(
1)
b1111 *
b1101111110 +
#2225
1!
1(
b1 "
b1111 $
b1101111110 &
b0 #
#2230
0!
0(
#2235
1!
1(
b0 "
b1111 %
b1101111110 '
10
1/
b1 #
#2240
0!
0(
#2245
1!
1(
b1 "
0/
00
b0 #
0)
b0 $
b0 &
b0 "
b1 #
#2250
0!
0(
#2255
1!
1(
#2260
0!
0(
1)
b100111 *
b1111011000 +
#2265
1!
1(
b1 "
b100111 $
b1111011000 &
b0 #
#2270
0!
0(
#2275
1!
1(
b0 "
b100111 %
b1111011000 '
10
1/
b1 #
#2280
0!
0(
#2285
1!
1(
b1 "
0/
00
b0 #
0)
b0 $
b0 &
b0 "
b1 #
#2290
0!
0(
#2295
1!
1(
#2300
0!
0(
1)
b101 *
b10001010110 +
#2305
1!
1(
b1 "
b101 $
b10001010110 &
b0 #
#2310
0!
0(
#2315
1!
1(
b0 "
b101 %
b10001010110 '
10
1/
b1 #
#2320
0!
0(
#2325
1!
1(
b1 "
0/
00
b0 #
0)
b0 $
b0 &
b0 "
b1 #
#2330
0!
0(
#2335
1!
1(
#2340
0!
0(
1)
b110111 *
b10000011010 +
#2345
1!
1(
b1 "
b110111 $
b10000011010 &
b0 #
#2350
0!
0(
#2355
1!
1(
b0 "
b110111 %
b10000011010 '
10
1/
b1 #
#2360
0!
0(
#2365
1!
1(
b1 "
0/
00
b0 #
0)
b0 $
b0 &
b0 "
b1 #
#2370
0!
0(
#2375
1!
1(
#2380
0!
0(
1)
b101010 *
b1110101001 +
#2385
1!
1(
b1 "
b101010 $
b1110101001 &
b0 #
#2390
0!
0(
#2395
1!
1(
b0 "
b101010 %
b1110101001 '
10
1/
b1 #
#2400
0!
0(
#2405
1!
1(
b1 "
0/
00
b0 #
0)
b0 $
b0 &
b0 "
b1 #
#2410
0!
0(
#2415
1!
1(
#2420
0!
0(
1)
b11111111111111111111111111101101 *
b1111001010 +
#2425
1!
1(
b1 "
b11111111111111111111111111101101 $
b1111001010 &
b0 #
#2430
0!
0(
#2435
1!
1(
b0 "
b11111111111111111111111111101101 %
b1111001010 '
10
1,
b1 #
#2440
0!
0(
#2445
1!
1(
b1 "
0,
00
b0 #
0)
b0 $
b0 &
b0 "
b1 #
#2450
0!
0(
#2455
1!
1(
#2460
0!
0(
1)
b11111111111111111111111111111011 *
b10000001100 +
#2465
1!
1(
b1 "
b11111111111111111111111111111011 $
b10000001100 &
b0 #
#2470
0!
0(
#2475
1!
1(
b0 "
b11111111111111111111111111111011 %
b10000001100 '
10
1,
b1 #
#2480
0!
0(
#2485
1!
1(
b1 "
0,
00
b0 #
0)
b0 $
b0 &
b0 "
b1 #
#2490
0!
0(
#2495
1!
1(
#2500
0!
0(
1)
b101010 *
b10001010111 +
#2505
1!
1(
b1 "
b101010 $
b10001010111 &
b0 #
#2510
0!
0(
#2515
1!
1(
b0 "
b101010 %
b10001010111 '
10
1-
b1 #
#2520
0!
0(
#2525
1!
1(
b1 "
0-
00
b0 #
0)
b0 $
b0 &
b0 "
b1 #
#2530
0!
0(
#2535
1!
1(
#2540
0!
0(
1)
b11111111111111111111111111111110 *
b10001101011 +
#2545
1!
1(
b1 "
b11111111111111111111111111111110 $
b10001101011 &
b0 #
#2550
0!
0(
#2555
1!
1(
b0 "
b11111111111111111111111111111110 %
b10001101011 '
10
1/
b1 #
#2560
0!
0(
#2565
1!
1(
b1 "
0/
00
b0 #
0)
b0 $
b0 &
b0 "
b1 #
#2570
0!
0(
#2575
1!
1(
#2580
0!
0(
1)
b1 *
b10000100111 +
#2585
1!
1(
b1 "
b1 $
b10000100111 &
b0 #
#2590
0!
0(
#2595
1!
1(
b0 "
b1 %
b10000100111 '
10
1/
b1 #
#2600
0!
0(
#2605
1!
1(
b1 "
0/
00
b0 #
0)
b0 $
b0 &
b0 "
b1 #
#2610
0!
0(
#2615
1!
1(
#2620
0!
0(
1)
b10 *
b1110100110 +
#2625
1!
1(
b1 "
b10 $
b1110100110 &
b0 #
#2630
0!
0(
#2635
1!
1(
b0 "
b10 %
b1110100110 '
10
1,
b1 #
#2640
0!
0(
#2645
1!
1(
b1 "
0,
00
b0 #
0)
b0 $
b0 &
b0 "
b1 #
#2650
0!
0(
#2655
1!
1(
#2660
0!
0(
1)
b10111 *
b1110000100 +
#2665
1!
1(
b1 "
b10111 $
b1110000100 &
b0 #
#2670
0!
0(
#2675
1!
1(
b0 "
b10111 %
b1110000100 '
10
1/
b1 #
#2680
0!
0(
#2685
1!
1(
b1 "
0/
00
b0 #
0)
b0 $
b0 &
b0 "
b1 #
#2690
0!
0(
#2695
1!
1(
#2700
0!
0(
1)
b110 *
b10000000100 +
#2705
1!
1(
b1 "
b110 $
b10000000100 &
b0 #
#2710
0!
0(
#2715
1!
1(
b0 "
b110 %
b10000000100 '
10
1,
b1 #
#2720
0!
0(
#2725
1!
1(
b1 "
0,
00
b0 #
0)
b0 $
b0 &
b0 "
b1 #
#2730
0!
0(
#2735
1!
1(
#2740
0!
0(
1)
b11111111111111111111111111111111 *
b10001011110 +
#2745
1!
1(
b1 "
b11111111111111111111111111111111 $
b10001011110 &
b0 #
#2750
0!
0(
#2755
1!
1(
b0 "
b11111111111111111111111111111111 %
b10001011110 '
10
1/
b1 #
#2760
0!
0(
#2765
1!
1(
b1 "
0/
00
b0 #
0)
b0 $
b0 &
b0 "
b1 #
#2770
0!
0(
#2775
1!
1(
#2780
0!
0(
1)
b110111 *
b1110011011 +
#2785
1!
1(
b1 "
b110111 $
b1110011011 &
b0 #
#2790
0!
0(
#2795
1!
1(
b0 "
b110111 %
b1110011011 '
10
1/
b1 #
#2800
0!
0(
#2805
1!
1(
b1 "
0/
00
b0 #
0)
b0 $
b0 &
b0 "
b1 #
#2810
0!
0(
#2815
1!
1(
#2820
0!
0(
1)
b11111111111111111111111111110011 *
b1110010011 +
#2825
1!
1(
b1 "
b11111111111111111111111111110011 $
b1110010011 &
b0 #
#2830
0!
0(
#2835
1!
1(
b0 "
b11111111111111111111111111110011 %
b1110010011 '
10
1,
b1 #
#2840
0!
0(
#2845
1!
1(
b1 "
0,
00
b0 #
0)
b0 $
b0 &
b0 "
b1 #
#2850
0!
0(
#2855
1!
1(
#2860
0!
0(
1)
b11111111111111111111111111101100 *
b10000110001 +
#2865
1!
1(
b1 "
b11111111111111111111111111101100 $
b10000110001 &
b0 #
#2870
0!
0(
#2875
1!
1(
b0 "
b11111111111111111111111111101100 %
b10000110001 '
10
1/
b1 #
#2880
0!
0(
#2885
1!
1(
b1 "
0/
00
b0 #
0)
b0 $
b0 &
b0 "
b1 #
#2890
0!
0(
#2895
1!
1(
#2900
0!
0(
1)
b101011 *
b1110001111 +
#2905
1!
1(
b1 "
b101011 $
b1110001111 &
b0 #
#2910
0!
0(
#2915
1!
1(
b0 "
b101011 %
b1110001111 '
10
1/
b1 #
#2920
0!
0(
#2925
1!
1(
b1 "
0/
00
b0 #
0)
b0 $
b0 &
b0 "
b1 #
#2930
0!
0(
#2935
1!
1(
#2940
0!
0(
1)
b101101 *
b10000010001 +
#2945
1!
1(
b1 "
b101101 $
b10000010001 &
b0 #
#2950
0!
0(
#2955
1!
1(
b0 "
b101101 %
b10000010001 '
10
1/
b1 #
#2960
0!
0(
#2965
1!
1(
b1 "
0/
00
b0 #
0)
b0 $
b0 &
b0 "
b1 #
#2970
0!
0(
#2975
1!
1(
#2980
0!
0(
1)
b110101 *
b1110000100 +
#2985
1!
1(
b1 "
b110101 $
b1110000100 &
b0 #
#2990
0!
0(
#2995
1!
1(
b0 "
b110101 %
b1110000100 '
10
1/
b1 #
