DATE_tests/ibex_multdiv_fast/ibex_multdiv_fast_old.vcd
$date
	Fri Aug 22 12:21:23 2025
$end
$version
	ModelSim Version 2019.4
$end
$timescale
	1ps
$end

$scope module tb_ibex_multdiv_fast $end
$var reg 1 ! clk $end
$var reg 1 " rst_n $end
$var reg 1 # mult_en_i $end
$var reg 1 $ div_en_i $end
$var reg 1 % mult_sel_i $end
$var reg 1 & div_sel_i $end
$var reg 2 ' operator_i [1:0] $end
$var reg 2 ( signed_mode_i [1:0] $end
$var reg 32 ) op_a_i [31:0] $end
$var reg 32 * op_b_i [31:0] $end
$var reg 34 + alu_adder_ext_i [33:0] $end
$var reg 32 , alu_adder_i [31:0] $end
$var reg 1 - equal_to_zero_i $end
$var reg 1 . data_ind_timing_i $end
$var reg 33 / alu_operand_a_o [32:0] $end
$var reg 33 0 alu_operand_b_o [32:0] $end
$var reg 2 1 imd_val_we_o [1:0] $end
$var reg 1 2 multdiv_ready_id_i $end
$var reg 32 3 multdiv_result_o [31:0] $end
$var reg 1 4 valid_o $end
$var wire 1 5 adder_sum [33] $end
$var wire 1 6 adder_sum [32] $end
$var wire 1 7 adder_sum [31] $end
$var wire 1 8 adder_sum [30] $end
$var wire 1 9 adder_sum [29] $end
$var wire 1 : adder_sum [28] $end
$var wire 1 ; adder_sum [27] $end
$var wire 1 < adder_sum [26] $end
$var wire 1 = adder_sum [25] $end
$var wire 1 > adder_sum [24] $end
$var wire 1 ? adder_sum [23] $end
$var wire 1 @ adder_sum [22] $end
$var wire 1 A adder_sum [21] $end
$var wire 1 B adder_sum [20] $end
$var wire 1 C adder_sum [19] $end
$var wire 1 D adder_sum [18] $end
$var wire 1 E adder_sum [17] $end
$var wire 1 F adder_sum [16] $end
$var wire 1 G adder_sum [15] $end
$var wire 1 H adder_sum [14] $end
$var wire 1 I adder_sum [13] $end
$var wire 1 J adder_sum [12] $end
$var wire 1 K adder_sum [11] $end
$var wire 1 L adder_sum [10] $end
$var wire 1 M adder_sum [9] $end
$var wire 1 N adder_sum [8] $end
$var wire 1 O adder_sum [7] $end
$var wire 1 P adder_sum [6] $end
$var wire 1 Q adder_sum [5] $end
$var wire 1 R adder_sum [4] $end
$var wire 1 S adder_sum [3] $end
$var wire 1 T adder_sum [2] $end
$var wire 1 U adder_sum [1] $end
$var wire 1 V adder_sum [0] $end

$scope task do_mult $end
$var reg 32 W a [31:0] $end
$var reg 32 X b [31:0] $end
$var reg 2 Y signed_mode [1:0] $end
$upscope $end

$scope task do_div $end
$var reg 32 Z a [31:0] $end
$var reg 32 [ b [31:0] $end
$var reg 2 \ signed_mode [1:0] $end
$upscope $end

$scope module dut $end
$var parameter 32 ] RV32M $end
$var wire 1 ^ clk_i $end
$var wire 1 _ rst_ni $end
$var wire 1 ` mult_en_i $end
$var wire 1 a div_en_i $end
$var wire 1 b mult_sel_i $end
$var wire 1 c div_sel_i $end
$var wire 1 d operator_i [1] $end
$var wire 1 e operator_i [0] $end
$var wire 1 f signed_mode_i [1] $end
$var wire 1 g signed_mode_i [0] $end
$var wire 1 h op_a_i [31] $end
$var wire 1 i op_a_i [30] $end
$var wire 1 j op_a_i [29] $end
$var wire 1 k op_a_i [28] $end
$var wire 1 l op_a_i [27] $end
$var wire 1 m op_a_i [26] $end
$var wire 1 n op_a_i [25] $end
$var wire 1 o op_a_i [24] $end
$var wire 1 p op_a_i [23] $end
$var wire 1 q op_a_i [22] $end
$var wire 1 r op_a_i [21] $end
$var wire 1 s op_a_i [20] $end
$var wire 1 t op_a_i [19] $end
$var wire 1 u op_a_i [18] $end
$var wire 1 v op_a_i [17] $end
$var wire 1 w op_a_i [16] $end
$var wire 1 x op_a_i [15] $end
$var wire 1 y op_a_i [14] $end
$var wire 1 z op_a_i [13] $end
$var wire 1 { op_a_i [12] $end
$var wire 1 | op_a_i [11] $end
$var wire 1 } op_a_i [10] $end
$var wire 1 ~ op_a_i [9] $end
$var wire 1 !! op_a_i [8] $end
$var wire 1 "! op_a_i [7] $end
$var wire 1 #! op_a_i [6] $end
$var wire 1 $! op_a_i [5] $end
$var wire 1 %! op_a_i [4] $end
$var wire 1 &! op_a_i [3] $end
$var wire 1 '! op_a_i [2] $end
$var wire 1 (! op_a_i [1] $end
$var wire 1 )! op_a_i [0] $end
$var wire 1 *! op_b_i [31] $end
$var wire 1 +! op_b_i [30] $end
$var wire 1 ,! op_b_i [29] $end
$var wire 1 -! op_b_i [28] $end
$var wire 1 .! op_b_i [27] $end
$var wire 1 /! op_b_i [26] $end
$var wire 1 0! op_b_i [25] $end
$var wire 1 1! op_b_i [24] $end
$var wire 1 2! op_b_i [23] $end
$var wire 1 3! op_b_i [22] $end
$var wire 1 4! op_b_i [21] $end
$var wire 1 5! op_b_i [20] $end
$var wire 1 6! op_b_i [19] $end
$var wire 1 7! op_b_i [18] $end
$var wire 1 8! op_b_i [17] $end
$var wire 1 9! op_b_i [16] $end
$var wire 1 :! op_b_i [15] $end
$var wire 1 ;! op_b_i [14] $end
$var wire 1 <! op_b_i [13] $end
$var wire 1 =! op_b_i [12] $end
$var wire 1 >! op_b_i [11] $end
$var wire 1 ?! op_b_i [10] $end
$var wire 1 @! op_b_i [9] $end
$var wire 1 A! op_b_i [8] $end
$var wire 1 B! op_b_i [7] $end
$var wire 1 C! op_b_i [6] $end
$var wire 1 D! op_b_i [5] $end
$var wire 1 E! op_b_i [4] $end
$var wire 1 F! op_b_i [3] $end
$var wire 1 G! op_b_i [2] $end
$var wire 1 H! op_b_i [1] $end
$var wire 1 I! op_b_i [0] $end
$var wire 1 J! alu_adder_ext_i [33] $end
$var wire 1 K! alu_adder_ext_i [32] $end
$var wire 1 L! alu_adder_ext_i [31] $end
$var wire 1 M! alu_adder_ext_i [30] $end
$var wire 1 N! alu_adder_ext_i [29] $end
$var wire 1 O! alu_adder_ext_i [28] $end
$var wire 1 P! alu_adder_ext_i [27] $end
$var wire 1 Q! alu_adder_ext_i [26] $end
$var wire 1 R! alu_adder_ext_i [25] $end
$var wire 1 S! alu_adder_ext_i [24] $end
$var wire 1 T! alu_adder_ext_i [23] $end
$var wire 1 U! alu_adder_ext_i [22] $end
$var wire 1 V! alu_adder_ext_i [21] $end
$var wire 1 W! alu_adder_ext_i [20] $end
$var wire 1 X! alu_adder_ext_i [19] $end
$var wire 1 Y! alu_adder_ext_i [18] $end
$var wire 1 Z! alu_adder_ext_i [17] $end
$var wire 1 [! alu_adder_ext_i [16] $end
$var wire 1 \! alu_adder_ext_i [15] $end
$var wire 1 ]! alu_adder_ext_i [14] $end
$var wire 1 ^! alu_adder_ext_i [13] $end
$var wire 1 _! alu_adder_ext_i [12] $end
$var wire 1 `! alu_adder_ext_i [11] $end
$var wire 1 a! alu_adder_ext_i [10] $end
$var wire 1 b! alu_adder_ext_i [9] $end
$var wire 1 c! alu_adder_ext_i [8] $end
$var wire 1 d! alu_adder_ext_i [7] $end
$var wire 1 e! alu_adder_ext_i [6] $end
$var wire 1 f! alu_adder_ext_i [5] $end
$var wire 1 g! alu_adder_ext_i [4] $end
$var wire 1 h! alu_adder_ext_i [3] $end
$var wire 1 i! alu_adder_ext_i [2] $end
$var wire 1 j! alu_adder_ext_i [1] $end
$var wire 1 k! alu_adder_ext_i [0] $end
$var wire 1 l! alu_adder_i [31] $end
$var wire 1 m! alu_adder_i [30] $end
$var wire 1 n! alu_adder_i [29] $end
$var wire 1 o! alu_adder_i [28] $end
$var wire 1 p! alu_adder_i [27] $end
$var wire 1 q! alu_adder_i [26] $end
$var wire 1 r! alu_adder_i [25] $end
$var wire 1 s! alu_adder_i [24] $end
$var wire 1 t! alu_adder_i [23] $end
$var wire 1 u! alu_adder_i [22] $end
$var wire 1 v! alu_adder_i [21] $end
$var wire 1 w! alu_adder_i [20] $end
$var wire 1 x! alu_adder_i [19] $end
$var wire 1 y! alu_adder_i [18] $end
$var wire 1 z! alu_adder_i [17] $end
$var wire 1 {! alu_adder_i [16] $end
$var wire 1 |! alu_adder_i [15] $end
$var wire 1 }! alu_adder_i [14] $end
$var wire 1 ~! alu_adder_i [13] $end
$var wire 1 !" alu_adder_i [12] $end
$var wire 1 "" alu_adder_i [11] $end
$var wire 1 #" alu_adder_i [10] $end
$var wire 1 $" alu_adder_i [9] $end
$var wire 1 %" alu_adder_i [8] $end
$var wire 1 &" alu_adder_i [7] $end
$var wire 1 '" alu_adder_i [6] $end
$var wire 1 (" alu_adder_i [5] $end
$var wire 1 )" alu_adder_i [4] $end
$var wire 1 *" alu_adder_i [3] $end
$var wire 1 +" alu_adder_i [2] $end
$var wire 1 ," alu_adder_i [1] $end
$var wire 1 -" alu_adder_i [0] $end
$var wire 1 ." equal_to_zero_i $end
$var wire 1 /" data_ind_timing_i $end
$var reg 33 0" alu_operand_a_o [32:0] $end
$var reg 33 1" alu_operand_b_o [32:0] $end
$var reg 2 2" imd_val_we_o [1:0] $end
$var wire 1 3" multdiv_ready_id_i $end
$var reg 32 4" multdiv_result_o [31:0] $end
$var reg 1 5" valid_o $end
$var reg 35 6" mac_res_signed [34:0] $end
$var reg 35 7" mac_res_ext [34:0] $end
$var reg 34 8" accum [33:0] $end
$var reg 1 9" sign_a $end
$var reg 1 :" sign_b $end
$var reg 1 ;" mult_valid $end
$var reg 1 <" signed_mult $end
$var reg 34 =" mac_res_d [33:0] $end
$var reg 34 >" op_remainder_d [33:0] $end
$var reg 34 ?" mac_res [33:0] $end
$var reg 1 @" div_sign_a $end
$var reg 1 A" div_sign_b $end
$var reg 1 B" is_greater_equal $end
$var reg 1 C" div_change_sign $end
$var reg 1 D" rem_change_sign $end
$var reg 32 E" one_shift [31:0] $end
$var reg 32 F" op_denominator_q [31:0] $end
$var reg 32 G" op_numerator_q [31:0] $end
$var reg 32 H" op_quotient_q [31:0] $end
$var reg 32 I" op_denominator_d [31:0] $end
$var reg 32 J" op_numerator_d [31:0] $end
$var reg 32 K" op_quotient_d [31:0] $end
$var reg 32 L" next_remainder [31:0] $end
$var reg 33 M" next_quotient [32:0] $end
$var reg 32 N" res_adder_h [31:0] $end
$var reg 1 O" div_valid $end
$var reg 5 P" div_counter_q [4:0] $end
$var reg 5 Q" div_counter_d [4:0] $end
$var reg 1 R" multdiv_en $end
$var reg 1 S" mult_hold $end
$var reg 1 T" div_hold $end
$var reg 1 U" div_by_zero_d $end
$var reg 1 V" div_by_zero_q $end
$var reg 1 W" mult_en_internal $end
$var reg 1 X" div_en_internal $end
$var reg 1 Y" sva_mul_fsm_idle $end
$var reg 3 Z" md_state_q [2:0] $end
$var reg 3 [" md_state_d [2:0] $end
$var reg 1 \" unused_mult_sel_i $end
$var reg 2 ]" unused_imd_val [1:0] $end
$var reg 1 ^" unused_mac_res_ext $end
$var reg 2 _" unused_alu_adder_ext [1:0] $end
$var reg 1 `" unused_sva_mul_fsm_idle $end

$scope begin gen_mult_single_cycle $end
$var reg 1 a" mult_state_q $end
$var reg 1 b" mult_state_d $end
$var reg 34 c" mult1_res [33:0] $end
$var reg 34 d" mult2_res [33:0] $end
$var reg 34 e" mult3_res [33:0] $end
$var reg 34 f" mult1_res_uns [33:0] $end
$var reg 2 g" unused_mult1_res_uns [33:32] $end
$var reg 16 h" mult1_op_a [15:0] $end
$var reg 16 i" mult1_op_b [15:0] $end
$var reg 16 j" mult2_op_a [15:0] $end
$var reg 16 k" mult2_op_b [15:0] $end
$var reg 16 l" mult3_op_a [15:0] $end
$var reg 16 m" mult3_op_b [15:0] $end
$var reg 1 n" mult1_sign_a $end
$var reg 1 o" mult1_sign_b $end
$var reg 1 p" mult2_sign_a $end
$var reg 1 q" mult2_sign_b $end
$var reg 1 r" mult3_sign_a $end
$var reg 1 s" mult3_sign_b $end
$var reg 34 t" summand1 [33:0] $end
$var reg 34 u" summand2 [33:0] $end
$var reg 34 v" summand3 [33:0] $end
$upscope $end
$upscope $end
$upscope $end
$enddefinitions $end
#0
$dumpvars
0!
0"
0#
0$
0%
0&
b0 '
b0 (
b0 )
b0 *
b1000000000000000000000000000000000 +
b0 ,
1-
0.
b1 /
b111111111111111111111111111111111 0
b0 1
12
b0 3
04
b1 0"
b111111111111111111111111111111111 1"
b0 2"
b0 4"
05"
b0 6"
b0 7"
b0 8"
09"
0:"
0;"
0<"
b0 ="
b0 >"
b0 ?"
0@"
0A"
1B"
0C"
0D"
b1 E"
b0 F"
b0 G"
b0 H"
b0 I"
b0 J"
b0 K"
b0 L"
b1 M"
b0 N"
0O"
b0 P"
b11111 Q"
0R"
0S"
0T"
0U"
0V"
0W"
0X"
1Y"
b0 Z"
b110 ["
0\"
b0 ]"
0^"
0a"
0b"
b0 c"
b0 d"
b0 e"
b0 f"
b0 g"
b0 h"
b0 i"
b0 j"
b0 k"
b0 l"
b0 m"
0n"
0o"
0p"
0q"
0r"
0s"
b0 t"
b0 u"
b0 v"
b10 _"
1`"
bx W
bx X
bx Y
bx Z
bx [
bx \
b11 ]
0V
0U
0T
0S
0R
0Q
0P
0O
0N
0M
0L
0K
0J
0I
0H
0G
0F
0E
0D
0C
0B
0A
0@
0?
0>
0=
0<
0;
0:
09
08
07
06
15
13"
0/"
1."
0-"
0,"
0+"
0*"
0)"
0("
0'"
0&"
0%"
0$"
0#"
0""
0!"
0~!
0}!
0|!
0{!
0z!
0y!
0x!
0w!
0v!
0u!
0t!
0s!
0r!
0q!
0p!
0o!
0n!
0m!
0l!
0k!
0j!
0i!
0h!
0g!
0f!
0e!
0d!
0c!
0b!
0a!
0`!
0_!
0^!
0]!
0\!
0[!
0Z!
0Y!
0X!
0W!
0V!
0U!
0T!
0S!
0R!
0Q!
0P!
0O!
0N!
0M!
0L!
0K!
1J!
0I!
0H!
0G!
0F!
0E!
0D!
0C!
0B!
0A!
0@!
0?!
0>!
0=!
0<!
0;!
0:!
09!
08!
07!
06!
05!
04!
03!
02!
01!
00!
0/!
0.!
0-!
0,!
0+!
0*!
0)!
0(!
0'!
0&!
0%!
0$!
0#!
0"!
0!!
0~
0}
0|
0{
0z
0y
0x
0w
0v
0u
0t
0s
0r
0q
0p
0o
0n
0m
0l
0k
0j
0i
0h
0g
0f
0e
0d
0c
0b
0a
0`
0_
0^
$end
#5000
1!
1^
#10000
0!
0^
#15000
1!
1^
#20000
1"
0!
1_
0^
b1010 W
b11 X
b0 Y
#25000
1!
1^
b1010 )
b11 *
1%
1#
0-
1b
1\"
1I!
1H!
1(!
1&!
1`
0."
1W"
b1010 h"
b1010 j"
b11 i"
b11110 c"
1R"
b1 2"
b11110 f"
b1 1
b11 m"
b11110 ="
1;"
b0 ["
b111111111111111111111111111111001 1"
b1010 >"
b1 ["
b111111111111111111111111111111001 0
15"
b11110 4"
b11110 3
14
1U
1S
1R
1Q
1P
1O
1N
1M
1L
1K
1J
1I
1H
1G
1F
1E
1D
1C
1B
1A
1@
1?
1>
1=
1<
1;
1:
19
18
17
16
05
b0 +
b11111111111111111111111111111101 ,
b111111111111111111111111111111010 +
1j!
1h!
1g!
1f!
1e!
1d!
1c!
1b!
1a!
1`!
1_!
1^!
1]!
1\!
1[!
1Z!
1Y!
1X!
1W!
1V!
1U!
1T!
1S!
1R!
1Q!
1P!
1O!
1N!
1M!
1L!
1K!
0J!
b0 _"
b11111111111111111111111111111101 N"
b11111111111111111111111111111101 L"
1-"
1+"
1*"
1)"
1("
1'"
1&"
1%"
1$"
1#"
1""
1!"
1~!
1}!
1|!
1{!
1z!
1y!
1x!
1w!
1v!
1u!
1t!
1s!
1r!
1q!
1p!
1o!
1n!
1m!
1l!
b0 >"
b0 ["
b1010 >"
b1 ["
0B"
b0 L"
b0 M"
b0 >"
b0 ["
b1010 >"
b1 ["
#30000
0!
0^
#35000
1!
1^
0#
0%
b11111111111111111111111111110100 W
b101 X
b11 Y
0b
0\"
0`
0W"
0R"
b0 2"
b0 1
0;"
05"
04
b11110 L"
b11110 >"
b0 ["
b1010 >"
b1 ["
#40000
0!
0^
#45000
1!
1^
b11111111111111111111111111110100 )
b101 *
b11 (
1%
1#
1g
1f
1b
1\"
1<"
0H!
1G!
0(!
1'!
0&!
1%!
1$!
1#!
1"!
1!!
1~
1}
1|
1{
1z
1y
1x
1w
1v
1u
1t
1s
1r
1q
1p
1o
1n
1m
1l
1k
1j
1i
1h
1`
1W"
b1111111111110100 h"
b1111111111110100 j"
b101 i"
b1001111111111000100 c"
1R"
b1 2"
b1001111111111000100 f"
b1 1
19"
1@"
1D"
1C"
1r"
b1111111111111111 l"
b101 m"
b100 t"
b1111111111000100 ="
1;"
b11110 >"
b0 ["
b111111111111111111111111111110101 1"
b11111111111111111111111111110100 >"
b1 ["
b111111111111111111111111111110101 0
15"
b1111111111000100 4"
b100 6"
b1111111111111111111111111111111011 e"
b100 7"
b1111111111000100 3
14
1T
0S
b11111111111111111111111111111011 ,
b111111111111111111111111111110110 +
b100 ?"
1i!
0h!
b11111111111111111111111111111011 N"
1,"
0+"
b11110 >"
b0 ["
b11111111111111111111111111110100 >"
b1 ["
b1111111111111111111111111111111011 v"
b1001111111111000100 ="
b1001111111111000100 4"
b11111111111111111111111111111111111 6"
b11111111111111111111111111111111111 7"
b1001111111111000100 3
b1111111111111111111111111111111111 ?"
1^"
b11111111111111111111111111000100 ="
b11111111111111111111111111000100 4"
b11111111111111111111111111000100 3
#50000
0!
0^
#55000
1!
1^
0#
0%
b1111101000 W
b11111111111111111111111111111110 X
0b
0\"
0`
0W"
0R"
b0 2"
b0 1
0;"
05"
04
b1111111111111111 8"
b11111111111111111111111111000100 L"
b11111111111111111111111111000100 >"
b0 ["
b11111111111111111111111111110100 >"
b1 ["
1B"
b11111111111111111111111111111011 L"
b1 M"
b11111111111111111111111111000100 >"
b0 ["
b11111111111111111111111111110100 >"
b1 ["
#60000
0!
0^
#65000
1!
1^
b1111101000 )
b11111111111111111111111111111110 *
1%
1#
1b
1\"
0I!
1H!
1F!
1E!
1D!
1C!
1B!
1A!
1@!
1?!
1>!
1=!
1<!
1;!
1:!
19!
18!
17!
16!
15!
14!
13!
12!
11!
10!
1/!
1.!
1-!
1,!
1+!
1*!
0'!
1&!
0%!
0}
0|
0{
0z
0y
0x
0w
0v
0u
0t
0s
0r
0q
0p
0o
0n
0m
0l
0k
0j
0i
0h
1`
1W"
b1111101000 h"
b1111101000 j"
b1111111111111111 k"
b1111111111111110 i"
b11111001111111110000011000 d"
b11111001111111100000110000 c"
1R"
b1 2"
b11111001111111100000110000 f"
b1 1
09"
0@"
1:"
1A"
1q"
0D"
b1111111111111111111111110000011000 d"
0r"
b0 l"
b1111111111111110 m"
b1111100111 t"
b1111111111111111111111110000011000 u"
b11111111111111111111100000110000 ="
1;"
b11111111111111111111111111000100 >"
b0 ["
b11 1"
b1111101000 >"
b1 ["
b11 0
15"
b11111111111111111111100000110000 4"
b11111111111111111111111111111111010 6"
b0 e"
b11111111111111111111111111111111010 7"
b11111111111111111111100000110000 3
14
0U
0R
0Q
0P
0O
0N
0M
0L
0K
0J
0I
0H
0G
0F
0E
0D
0C
0B
0A
0@
0?
0>
0=
0<
0;
0:
09
08
07
06
b10 ,
b100 +
b1111111111111111111111111111111010 ?"
0j!
0g!
0f!
0e!
0d!
0c!
0b!
0a!
0`!
0_!
0^!
0]!
0\!
0[!
0Z!
0Y!
0X!
0W!
0V!
0U!
0T!
0S!
0R!
0Q!
0P!
0O!
0N!
0M!
0L!
0K!
b10 N"
b10 L"
0-"
0*"
0)"
0("
0'"
0&"
0%"
0$"
0#"
0""
0!"
0~!
0}!
0|!
0{!
0z!
0y!
0x!
0w!
0v!
0u!
0t!
0s!
0r!
0q!
0p!
0o!
0n!
0m!
0l!
b11111111111111111111111111000100 >"
b0 ["
b1111101000 >"
b1 ["
b0 v"
b11111111111110101111100000110000 ="
b11111111111110101111100000110000 4"
b11111111111111111111111111111111111 6"
b11111111111111111111111111111111111 7"
b11111111111110101111100000110000 3
b1111111111111111111111111111111111 ?"
b11111111111111111111100000110000 ="
b11111111111111111111100000110000 4"
b11111111111111111111100000110000 3
#70000
0!
0^
#75000
1!
1^
0#
0%
b0 X
0b
0\"
0`
0W"
0R"
b0 2"
b0 1
0;"
05"
04
b11111111111111111111100000110000 >"
b0 ["
b1111101000 >"
b1 ["
#80000
0!
0^
#85000
1!
1^
b0 *
1%
1#
1-
1b
1\"
0H!
0G!
0F!
0E!
0D!
0C!
0B!
0A!
0@!
0?!
0>!
0=!
0<!
0;!
0:!
09!
08!
07!
06!
05!
04!
03!
02!
01!
00!
0/!
0.!
0-!
0,!
0+!
0*!
1`
1."
1W"
b0 k"
b0 i"
b0 c"
b1111111100000110000000000000000000 d"
1R"
b1 2"
b0 f"
b1 1
0:"
0A"
0q"
b0 d"
0C"
b11111111111111111111100000110000 >"
b0 ["
b111111111111111111111111111111111 1"
b1111101000 >"
b110 ["
b0 m"
b0 t"
b0 u"
b11111111111111110000000000000000 ="
1;"
15"
b11111111111111110000000000000000 4"
b0 6"
b111111111111111111111111111111111 0
b0 7"
b11111111111111110000000000000000 3
14
0T
15
b1000000000000000000000000000000100 +
b0 ,
b1000000000000000000000000000000000 +
b0 ?"
0^"
0i!
1J!
b10 _"
b0 N"
b0 L"
0,"
b11111111111111111111100000110000 >"
b0 ["
b1111101000 >"
b110 ["
b0 ="
b0 4"
b0 3
#90000
0!
0^
#95000
1!
1^
0#
0%
b1100100 Z
b101 [
b0 \
0b
0\"
0`
0W"
0R"
b0 2"
b0 1
0;"
05"
04
b0 8"
b0 >"
b0 ["
b1111101000 >"
b110 ["
#100000
0!
0^
#105000
1!
1^
b1100100 )
b101 *
b0 (
b10 '
1&
1$
0-
0g
0f
1c
1a
1X"
0<"
1R"
b10 2"
b10 1
b11 2"
b11 1
1d
1I!
1G!
1'!
0&!
0"!
0!!
0~
0."
b1100100 h"
b1100100 j"
b101 i"
b111110100 c"
b111110100 f"
b101 m"
b111110100 ="
b0 ="
1b"
b0 >"
b0 ["
b111111111111111111111111111110101 1"
b1111111111111111111111111111111111 >"
b1 ["
b111111111111111111111111111110101 0
1U
1T
1R
1Q
1P
1O
1N
1M
1L
1K
1J
1I
1H
1G
1F
1E
1D
1C
1B
1A
1@
1?
1>
1=
1<
1;
1:
19
18
17
16
05
b0 +
b11111111111111111111111111111011 ,
b111111111111111111111111111110110 +
1j!
1i!
1g!
1f!
1e!
1d!
1c!
1b!
1a!
1`!
1_!
1^!
1]!
1\!
1[!
1Z!
1Y!
1X!
1W!
1V!
1U!
1T!
1S!
1R!
1Q!
1P!
1O!
1N!
1M!
1L!
1K!
0J!
b0 _"
b11111111111111111111111111111011 N"
b11111111111111111111111111111011 L"
1-"
1,"
1*"
1)"
1("
1'"
1&"
1%"
1$"
1#"
1""
1!"
1~!
1}!
1|!
1{!
1z!
1y!
1x!
1w!
1v!
1u!
1t!
1s!
1r!
1q!
1p!
1o!
1n!
1m!
1l!
b0 >"
b0 ["
b1111111111111111111111111111111111 >"
b1 ["
0B"
b0 L"
b0 M"
b0 >"
b0 ["
b1111111111111111111111111111111111 >"
b1 ["
#110000
0!
0^
#115000
1!
1^
b11111 P"
b1 Z"
b10000000000000000000000000000000 E"
b11111111111111111111111111111111 4"
b111111111111111111 8"
b11111111111111111111111111111111 L"
b11111111111111111111111111111111 3
b111110100 ="
0b"
b0 ="
1b"
1B"
b11110 Q"
b1100100 J"
b10 ["
b11111 Q"
b111111111111111111111111100110111 1"
b111111111111111111111111100110111 0
b11111111111111111111111111111011 L"
b10000000000000000000000000000000 M"
0U
0T
1S
0P
0O
b11111111111111111111111110011100 ,
b111111111111111111111111100111000 +
0j!
0i!
1h!
0e!
0d!
b11111111111111111111111110011100 N"
b11111111111111111111111110011100 L"
0-"
0,"
1+"
0("
0'"
b11110 Q"
b1 ["
b0 J"
b111111111111111111111111111110101 1"
b1100100 J"
b10 ["
b11111 Q"
b111111111111111111111111100110111 1"
#120000
0!
0^
#125000
1!
1^
b1100100 G"
b10 Z"
b11110 Q"
b111111111111111111111111111110101 1"
b0 >"
b101 I"
b11 ["
b11111 Q"
b111111111111111111111111111110101 0
1U
1T
0S
1P
1O
b11111111111111111111111111111011 ,
b111111111111111111111111111110110 +
1j!
1i!
0h!
1e!
1d!
b11111111111111111111111111111011 N"
b11111111111111111111111111111011 L"
1-"
1,"
0+"
1("
1'"
b11110 Q"
b1111111111111111111111111111111111 >"
b10 ["
b0 I"
b0 >"
b101 I"
b11 ["
b11111 Q"
#130000
0!
0^
#135000
1!
1^
b11 Z"
b101 F"
b0 4"
b0 8"
b0 3
b111110100 ="
0b"
b0 ="
1b"
0B"
b11110 Q"
b111111111111111111111111111110110 >"
b10000000000000000000000000000000 K"
b0 L"
b0 M"
b0 >"
b0 K"
#140000
0!
0^
#145000
1!
1^
b11110 P"
b1000000000000000000000000000000 E"
b11101 Q"
#150000
0!
0^
#155000
1!
1^
b11101 P"
b100000000000000000000000000000 E"
b11100 Q"
#160000
0!
0^
#165000
1!
1^
b11100 P"
b10000000000000000000000000000 E"
b11011 Q"
#170000
0!
0^
#175000
1!
1^
b11011 P"
b1000000000000000000000000000 E"
b11010 Q"
#180000
0!
0^
#185000
1!
1^
b11010 P"
b100000000000000000000000000 E"
b11001 Q"
#190000
0!
0^
#195000
1!
1^
b11001 P"
b10000000000000000000000000 E"
b11000 Q"
#200000
0!
0^
#205000
1!
1^
b11000 P"
b1000000000000000000000000 E"
b10111 Q"
#210000
0!
0^
#215000
1!
1^
b10111 P"
b100000000000000000000000 E"
b10110 Q"
#220000
0!
0^
#225000
1!
1^
b10110 P"
b10000000000000000000000 E"
b10101 Q"
#230000
0!
0^
#235000
1!
1^
b10101 P"
b1000000000000000000000 E"
b10100 Q"
#240000
0!
0^
#245000
1!
1^
b10100 P"
b100000000000000000000 E"
b10011 Q"
#250000
0!
0^
#255000
1!
1^
b10011 P"
b10000000000000000000 E"
b10010 Q"
#260000
0!
0^
#265000
1!
1^
b10010 P"
b1000000000000000000 E"
b10001 Q"
#270000
0!
0^
#275000
1!
1^
b10001 P"
b100000000000000000 E"
b10000 Q"
#280000
0!
0^
#285000
1!
1^
b10000 P"
b10000000000000000 E"
b1111 Q"
#290000
0!
0^
#295000
1!
1^
b1111 P"
b1000000000000000 E"
b1110 Q"
#300000
0!
0^
#305000
1!
1^
b1110 P"
b100000000000000 E"
b1101 Q"
#310000
0!
0^
#315000
1!
1^
b1101 P"
b10000000000000 E"
b1100 Q"
#320000
0!
0^
#325000
1!
1^
b1100 P"
b1000000000000 E"
b1011 Q"
#330000
0!
0^
#335000
1!
1^
b1011 P"
b100000000000 E"
b1010 Q"
#340000
0!
0^
#345000
1!
1^
b1010 P"
b10000000000 E"
b1001 Q"
#350000
0!
0^
#355000
1!
1^
b1001 P"
b1000000000 E"
b1000 Q"
#360000
0!
0^
#365000
1!
1^
b1000 P"
b100000000 E"
b111 Q"
#370000
0!
0^
#375000
1!
1^
b111 P"
b10000000 E"
b110 Q"
b1 >"
#380000
0!
0^
#385000
1!
1^
b110 P"
b1000000 E"
b1 4"
b1 L"
b1 3
b101 Q"
b11 >"
b11 0"
b11 /
0U
0T
1S
b11111111111111111111111111111100 ,
b111111111111111111111111111111000 +
0j!
0i!
1h!
b11111111111111111111111111111100 N"
0-"
0,"
1+"
b1 >"
b1 0"
b11 >"
b11 0"
#390000
0!
0^
#395000
1!
1^
b101 P"
b100000 E"
b11 4"
b11 L"
b11 3
b100 Q"
b1 0"
b110 >"
b111 0"
b111 /
1T
b11111111111111111111111111111110 ,
b111111111111111111111111111111100 +
1i!
b11111111111111111111111111111110 N"
1,"
b11 >"
b1 0"
b110 >"
b111 0"
#400000
0!
0^
#405000
1!
1^
b100 P"
b10000 E"
b110 4"
b110 L"
b110 3
b11 Q"
b1 0"
b1100 >"
b1101 0"
b1101 /
1U
0T
0S
0R
0Q
0P
0O
0N
0M
0L
0K
0J
0I
0H
0G
0F
0E
0D
0C
0B
0A
0@
0?
0>
0=
0<
0;
0:
09
08
07
06
15
b1111111111111111111111111111111100 +
b1 ,
b1000000000000000000000000000000010 +
1j!
0i!
0h!
0g!
0f!
0e!
0d!
0c!
0b!
0a!
0`!
0_!
0^!
0]!
0\!
0[!
0Z!
0Y!
0X!
0W!
0V!
0U!
0T!
0S!
0R!
0Q!
0P!
0O!
0N!
0M!
0L!
0K!
1J!
b10 _"
b1 N"
1-"
0,"
0+"
0*"
0)"
0("
0'"
0&"
0%"
0$"
0#"
0""
0!"
0~!
0}!
0|!
0{!
0z!
0y!
0x!
0w!
0v!
0u!
0t!
0s!
0r!
0q!
0p!
0o!
0n!
0m!
0l!
b110 >"
b1 0"
b1100 >"
b1101 0"
1B"
b1 L"
b10000 M"
b110 >"
b1 0"
b10 >"
b10000 K"
b1101 0"
#410000
0!
0^
